<?xml version="1.0" encoding="UTF-8" standalone="no"?>
<svg 
   width="204pt"
   height="89.040001pt"
   viewBox="0 0 204 89.040001"
   version="1.2"
   id="svg134"
   xmlns:xlink="http://www.w3.org/1999/xlink"
   xmlns="http://www.w3.org/2000/svg"
   xmlns:svg="http://www.w3.org/2000/svg" content="%3Cmxfile%20host%3D%22app.diagrams.net%22%20modified%3D%222022-01-31T17%3A22%3A40.832Z%22%20agent%3D%225.0%20(X11)%22%20etag%3D%22ifwCwHWA0QfZvsz44tQh%22%20version%3D%2216.5.2%22%20type%3D%22device%22%3E%3Cdiagram%20id%3D%22pWU4TmoGVuwjX9zHzRhh%22%20name%3D%22Page-1%22%3E7VjLcpswFP0als6AeCRe%2BpGkm850xjNtulRAAbUyokLEkK%2BvZK542nGSxkkzzgruQwdxz5HExXIX6%2FJa4Cz5yiPCLGRHpeUuLYScKTpXF%2B2pwONMwRMLGoGvdazoAwGnDd6CRiTvJUrOmaRZ3xnyNCWh7PmwEHzTT7vjrP%2FUDMfwRLt1rELMyCjtB41kUnsv%2FE72F0LjxDzZsSGyxiYZHHmCI77puNxLy10IzmV9ty4XhOnqmbrU4672RJuJCZLKpwwo6XdvsqGoSgRPkJc9%2FConE0C5x6yAF7ZQwBTe%2FI4rWDVrWUEpgj8FN4FJviVqphKQk5VtUN3F%2BnpVMDaLIiIMnJpXjVjHoSQNOBK8SCOip2qr8CahkqwyHOroRklL%2BRK5ZspymtHdVzfvQYQkZccFpbgmfE2kqFQKRN0AaDHCvAB707LccJl0GDZ5GIQVN9Bt7dUNlP8ZVKAdVAyKRNJopjWtrJDhPKdhvy79Iup6w4JCOqqKJaobCG6Nn9o4Q76xl2U3uqzA2ltuiUVM5GF5kSgmj5LSKbq%2Fo%2BbGJwjDkt73l%2BYuIuAJ3zjdithwjvqcI3vAZc4LERIY1V1KQyB7j3gMUF2YEdBWF81rv1wq7ntJ5fxkpeK9VCreAaAjS8V7O6mc%2BT2xnIpSLgZ7QfBSpZwPgJynKUVxh6tOWqYT8v0T9pzdE26FVyO%2Bqgz9o8uwpPIGMvV992hTZitCbRzUYM3Zh9GgN9Bg8835XA369oET8si7VfCxZPK%2F0B%2B80mE1ov%2BND6vpiP7bEf%2Fq%2B172GceMxqmWg6JHNRzuXHcBVLVwMwisaRTp4XNBVN%2BCb7dQmljYKhWuP7f8pcYqJK97my10LgX%2FTRaccYW7THmqUe4oY0PXQGZ7FfP0BgVNh2sa9tCOptwdmnLt%2FfL5p%2F7EHBsddvAnO00H8N7sjNvHBU1Plh%2FX9fv8eGN%2Bdu3Ix%2BNn3LOtTpad4Tnz%2Fqtn3CYteCE%2FCXrk8AlehyBltv9A6w%2BJ9leye%2FkX%3C%2Fdiagram%3E%3C%2Fmxfile%3E">
  <defs
     id="defs55">
    <g
       id="g50">
      <symbol
         overflow="visible"
         id="glyph0-0">
        <path
           style="stroke:none;"
           d=""
           id="path2" />
      </symbol>
      <symbol
         overflow="visible"
         id="glyph0-1">
        <path
           style="stroke:none;"
           d="M 1.28125 0 L 1.28125 -11.234375 L 8.859375 -11.234375 L 8.859375 -9.90625 L 2.765625 -9.90625 L 2.765625 -6.421875 L 8.046875 -6.421875 L 8.046875 -5.09375 L 2.765625 -5.09375 L 2.765625 0 Z M 1.28125 0 "
           id="path5" />
      </symbol>
      <symbol
         overflow="visible"
         id="glyph0-2">
        <path
           style="stroke:none;"
           d="M 6.359375 0 L 6.359375 -1.1875 C 5.734375 -0.269531 4.875 0.1875 3.78125 0.1875 C 3.300781 0.1875 2.851562 0.09375 2.4375 -0.09375 C 2.019531 -0.28125 1.707031 -0.507812 1.5 -0.78125 C 1.300781 -1.0625 1.164062 -1.40625 1.09375 -1.8125 C 1.03125 -2.082031 1 -2.507812 1 -3.09375 L 1 -8.140625 L 2.375 -8.140625 L 2.375 -3.625 C 2.375 -2.90625 2.40625 -2.421875 2.46875 -2.171875 C 2.550781 -1.804688 2.734375 -1.519531 3.015625 -1.3125 C 3.296875 -1.101562 3.644531 -1 4.0625 -1 C 4.476562 -1 4.863281 -1.101562 5.21875 -1.3125 C 5.582031 -1.53125 5.835938 -1.820312 5.984375 -2.1875 C 6.140625 -2.550781 6.21875 -3.082031 6.21875 -3.78125 L 6.21875 -8.140625 L 7.59375 -8.140625 L 7.59375 0 Z M 6.359375 0 "
           id="path8" />
      </symbol>
      <symbol
         overflow="visible"
         id="glyph0-3">
        <path
           style="stroke:none;"
           d="M 1 0 L 1 -11.234375 L 2.375 -11.234375 L 2.375 0 Z M 1 0 "
           id="path11" />
      </symbol>
      <symbol
         overflow="visible"
         id="glyph0-4">
        <path
           style="stroke:none;"
           d="M -0.015625 0 L 4.296875 -11.234375 L 5.890625 -11.234375 L 10.484375 0 L 8.796875 0 L 7.484375 -3.40625 L 2.78125 -3.40625 L 1.5625 0 Z M 3.21875 -4.609375 L 7.03125 -4.609375 L 5.859375 -7.71875 C 5.492188 -8.664062 5.226562 -9.441406 5.0625 -10.046875 C 4.914062 -9.328125 4.710938 -8.613281 4.453125 -7.90625 Z M 3.21875 -4.609375 "
           id="path14" />
      </symbol>
      <symbol
         overflow="visible"
         id="glyph0-5">
        <path
           style="stroke:none;"
           d="M 6.3125 0 L 6.3125 -1.03125 C 5.789062 -0.21875 5.03125 0.1875 4.03125 0.1875 C 3.382812 0.1875 2.789062 0.0078125 2.25 -0.34375 C 1.707031 -0.707031 1.285156 -1.207031 0.984375 -1.84375 C 0.679688 -2.488281 0.53125 -3.226562 0.53125 -4.0625 C 0.53125 -4.875 0.664062 -5.609375 0.9375 -6.265625 C 1.207031 -6.929688 1.613281 -7.4375 2.15625 -7.78125 C 2.695312 -8.132812 3.300781 -8.3125 3.96875 -8.3125 C 4.457031 -8.3125 4.894531 -8.207031 5.28125 -8 C 5.664062 -7.800781 5.976562 -7.535156 6.21875 -7.203125 L 6.21875 -11.234375 L 7.59375 -11.234375 L 7.59375 0 Z M 1.953125 -4.0625 C 1.953125 -3.019531 2.171875 -2.238281 2.609375 -1.71875 C 3.046875 -1.207031 3.566406 -0.953125 4.171875 -0.953125 C 4.773438 -0.953125 5.285156 -1.195312 5.703125 -1.6875 C 6.117188 -2.175781 6.328125 -2.925781 6.328125 -3.9375 C 6.328125 -5.050781 6.113281 -5.867188 5.6875 -6.390625 C 5.257812 -6.910156 4.734375 -7.171875 4.109375 -7.171875 C 3.492188 -7.171875 2.976562 -6.921875 2.5625 -6.421875 C 2.15625 -5.921875 1.953125 -5.132812 1.953125 -4.0625 Z M 1.953125 -4.0625 "
           id="path17" />
      </symbol>
      <symbol
         overflow="visible"
         id="glyph0-6">
        <path
           style="stroke:none;"
           d="M 6.609375 -2.625 L 8.03125 -2.4375 C 7.800781 -1.601562 7.382812 -0.957031 6.78125 -0.5 C 6.175781 -0.0390625 5.398438 0.1875 4.453125 0.1875 C 3.265625 0.1875 2.320312 -0.175781 1.625 -0.90625 C 0.925781 -1.644531 0.578125 -2.675781 0.578125 -4 C 0.578125 -5.363281 0.925781 -6.421875 1.625 -7.171875 C 2.332031 -7.929688 3.25 -8.3125 4.375 -8.3125 C 5.457031 -8.3125 6.34375 -7.941406 7.03125 -7.203125 C 7.726562 -6.460938 8.078125 -5.421875 8.078125 -4.078125 C 8.078125 -3.992188 8.070312 -3.875 8.0625 -3.71875 L 2 -3.71875 C 2.050781 -2.820312 2.300781 -2.132812 2.75 -1.65625 C 3.207031 -1.1875 3.773438 -0.953125 4.453125 -0.953125 C 4.960938 -0.953125 5.394531 -1.082031 5.75 -1.34375 C 6.101562 -1.613281 6.390625 -2.039062 6.609375 -2.625 Z M 2.078125 -4.84375 L 6.625 -4.84375 C 6.5625 -5.53125 6.382812 -6.046875 6.09375 -6.390625 C 5.65625 -6.921875 5.085938 -7.1875 4.390625 -7.1875 C 3.753906 -7.1875 3.21875 -6.972656 2.78125 -6.546875 C 2.351562 -6.117188 2.117188 -5.550781 2.078125 -4.84375 Z M 2.078125 -4.84375 "
           id="path20" />
      </symbol>
      <symbol
         overflow="visible"
         id="glyph0-7">
        <path
           style="stroke:none;"
           d="M 1.015625 0 L 1.015625 -8.140625 L 2.265625 -8.140625 L 2.265625 -6.90625 C 2.578125 -7.476562 2.863281 -7.851562 3.125 -8.03125 C 3.394531 -8.21875 3.691406 -8.3125 4.015625 -8.3125 C 4.484375 -8.3125 4.957031 -8.164062 5.4375 -7.875 L 4.96875 -6.59375 C 4.625 -6.789062 4.285156 -6.890625 3.953125 -6.890625 C 3.648438 -6.890625 3.378906 -6.796875 3.140625 -6.609375 C 2.898438 -6.429688 2.726562 -6.1875 2.625 -5.875 C 2.46875 -5.375 2.390625 -4.835938 2.390625 -4.265625 L 2.390625 0 Z M 1.015625 0 "
           id="path23" />
      </symbol>
      <symbol
         overflow="visible"
         id="glyph0-8">
        <path
           style="stroke:none;"
           d="M 2.3125 0 L 1.03125 0 L 1.03125 -11.234375 L 2.40625 -11.234375 L 2.40625 -7.21875 C 2.988281 -7.945312 3.734375 -8.3125 4.640625 -8.3125 C 5.140625 -8.3125 5.609375 -8.210938 6.046875 -8.015625 C 6.492188 -7.816406 6.863281 -7.535156 7.15625 -7.171875 C 7.445312 -6.804688 7.671875 -6.363281 7.828125 -5.84375 C 7.992188 -5.332031 8.078125 -4.78125 8.078125 -4.1875 C 8.078125 -2.789062 7.734375 -1.710938 7.046875 -0.953125 C 6.359375 -0.191406 5.53125 0.1875 4.5625 0.1875 C 3.601562 0.1875 2.851562 -0.210938 2.3125 -1.015625 Z M 2.296875 -4.125 C 2.296875 -3.15625 2.425781 -2.453125 2.6875 -2.015625 C 3.125 -1.304688 3.710938 -0.953125 4.453125 -0.953125 C 5.054688 -0.953125 5.578125 -1.210938 6.015625 -1.734375 C 6.453125 -2.253906 6.671875 -3.035156 6.671875 -4.078125 C 6.671875 -5.140625 6.457031 -5.921875 6.03125 -6.421875 C 5.613281 -6.929688 5.109375 -7.1875 4.515625 -7.1875 C 3.910156 -7.1875 3.390625 -6.921875 2.953125 -6.390625 C 2.515625 -5.867188 2.296875 -5.113281 2.296875 -4.125 Z M 2.296875 -4.125 "
           id="path26" />
      </symbol>
      <symbol
         overflow="visible"
         id="glyph0-9">
        <path
           style="stroke:none;"
           d="M 6.34375 -1 C 5.832031 -0.570312 5.335938 -0.265625 4.859375 -0.078125 C 4.390625 0.0976562 3.882812 0.1875 3.34375 0.1875 C 2.445312 0.1875 1.757812 -0.03125 1.28125 -0.46875 C 0.800781 -0.90625 0.5625 -1.460938 0.5625 -2.140625 C 0.5625 -2.546875 0.648438 -2.910156 0.828125 -3.234375 C 1.015625 -3.566406 1.253906 -3.832031 1.546875 -4.03125 C 1.835938 -4.226562 2.171875 -4.378906 2.546875 -4.484375 C 2.816406 -4.554688 3.222656 -4.625 3.765625 -4.6875 C 4.878906 -4.820312 5.703125 -4.976562 6.234375 -5.15625 C 6.234375 -5.351562 6.234375 -5.472656 6.234375 -5.515625 C 6.234375 -6.078125 6.101562 -6.472656 5.84375 -6.703125 C 5.488281 -7.015625 4.96875 -7.171875 4.28125 -7.171875 C 3.625 -7.171875 3.140625 -7.054688 2.828125 -6.828125 C 2.523438 -6.609375 2.300781 -6.207031 2.15625 -5.625 L 0.796875 -5.8125 C 0.921875 -6.382812 1.125 -6.847656 1.40625 -7.203125 C 1.6875 -7.566406 2.09375 -7.84375 2.625 -8.03125 C 3.15625 -8.21875 3.769531 -8.3125 4.46875 -8.3125 C 5.164062 -8.3125 5.726562 -8.226562 6.15625 -8.0625 C 6.59375 -7.90625 6.914062 -7.703125 7.125 -7.453125 C 7.332031 -7.203125 7.472656 -6.890625 7.546875 -6.515625 C 7.597656 -6.285156 7.625 -5.863281 7.625 -5.25 L 7.625 -3.40625 C 7.625 -2.125 7.648438 -1.3125 7.703125 -0.96875 C 7.765625 -0.632812 7.882812 -0.3125 8.0625 0 L 6.625 0 C 6.476562 -0.28125 6.382812 -0.613281 6.34375 -1 Z M 6.234375 -4.078125 C 5.734375 -3.878906 4.976562 -3.707031 3.96875 -3.5625 C 3.40625 -3.476562 3.003906 -3.382812 2.765625 -3.28125 C 2.535156 -3.1875 2.351562 -3.039062 2.21875 -2.84375 C 2.09375 -2.644531 2.03125 -2.425781 2.03125 -2.1875 C 2.03125 -1.8125 2.171875 -1.5 2.453125 -1.25 C 2.734375 -1.007812 3.140625 -0.890625 3.671875 -0.890625 C 4.203125 -0.890625 4.675781 -1.003906 5.09375 -1.234375 C 5.507812 -1.472656 5.8125 -1.796875 6 -2.203125 C 6.15625 -2.515625 6.234375 -2.972656 6.234375 -3.578125 Z M 6.234375 -4.078125 "
           id="path29" />
      </symbol>
      <symbol
         overflow="visible"
         id="glyph0-10">
        <path
           style="stroke:none;"
           d="M 9.21875 -3.9375 L 10.703125 -3.5625 C 10.390625 -2.34375 9.828125 -1.410156 9.015625 -0.765625 C 8.210938 -0.128906 7.226562 0.1875 6.0625 0.1875 C 4.851562 0.1875 3.867188 -0.0546875 3.109375 -0.546875 C 2.347656 -1.035156 1.769531 -1.75 1.375 -2.6875 C 0.976562 -3.625 0.78125 -4.628906 0.78125 -5.703125 C 0.78125 -6.867188 1.003906 -7.882812 1.453125 -8.75 C 1.898438 -9.625 2.535156 -10.285156 3.359375 -10.734375 C 4.179688 -11.191406 5.085938 -11.421875 6.078125 -11.421875 C 7.203125 -11.421875 8.144531 -11.132812 8.90625 -10.5625 C 9.675781 -9.988281 10.210938 -9.1875 10.515625 -8.15625 L 9.046875 -7.8125 C 8.785156 -8.625 8.40625 -9.21875 7.90625 -9.59375 C 7.414062 -9.96875 6.796875 -10.15625 6.046875 -10.15625 C 5.179688 -10.15625 4.457031 -9.945312 3.875 -9.53125 C 3.300781 -9.113281 2.894531 -8.554688 2.65625 -7.859375 C 2.425781 -7.160156 2.3125 -6.441406 2.3125 -5.703125 C 2.3125 -4.753906 2.445312 -3.921875 2.71875 -3.203125 C 3 -2.492188 3.429688 -1.960938 4.015625 -1.609375 C 4.609375 -1.253906 5.25 -1.078125 5.9375 -1.078125 C 6.769531 -1.078125 7.472656 -1.316406 8.046875 -1.796875 C 8.628906 -2.273438 9.019531 -2.988281 9.21875 -3.9375 Z M 9.21875 -3.9375 "
           id="path32" />
      </symbol>
      <symbol
         overflow="visible"
         id="glyph0-11">
        <path
           style="stroke:none;"
           d="M 1.046875 -9.640625 L 1.046875 -11.234375 L 2.421875 -11.234375 L 2.421875 -9.640625 Z M 1.046875 0 L 1.046875 -8.140625 L 2.421875 -8.140625 L 2.421875 0 Z M 1.046875 0 "
           id="path35" />
      </symbol>
      <symbol
         overflow="visible"
         id="glyph0-12">
        <path
           style="stroke:none;"
           d="M 1.03125 0 L 1.03125 -8.140625 L 2.28125 -8.140625 L 2.28125 -6.984375 C 2.875 -7.867188 3.734375 -8.3125 4.859375 -8.3125 C 5.347656 -8.3125 5.796875 -8.222656 6.203125 -8.046875 C 6.617188 -7.878906 6.929688 -7.648438 7.140625 -7.359375 C 7.347656 -7.078125 7.488281 -6.738281 7.5625 -6.34375 C 7.613281 -6.082031 7.640625 -5.632812 7.640625 -5 L 7.640625 0 L 6.265625 0 L 6.265625 -4.953125 C 6.265625 -5.515625 6.207031 -5.929688 6.09375 -6.203125 C 5.988281 -6.484375 5.800781 -6.707031 5.53125 -6.875 C 5.257812 -7.039062 4.941406 -7.125 4.578125 -7.125 C 3.984375 -7.125 3.472656 -6.9375 3.046875 -6.5625 C 2.617188 -6.1875 2.40625 -5.476562 2.40625 -4.4375 L 2.40625 0 Z M 1.03125 0 "
           id="path38" />
      </symbol>
      <symbol
         overflow="visible"
         id="glyph0-13">
        <path
           style="stroke:none;"
           d="M 0.703125 -3.609375 L 2.109375 -3.734375 C 2.171875 -3.171875 2.320312 -2.707031 2.5625 -2.34375 C 2.8125 -1.988281 3.191406 -1.695312 3.703125 -1.46875 C 4.210938 -1.25 4.785156 -1.140625 5.421875 -1.140625 C 5.992188 -1.140625 6.492188 -1.222656 6.921875 -1.390625 C 7.359375 -1.554688 7.679688 -1.785156 7.890625 -2.078125 C 8.109375 -2.378906 8.21875 -2.703125 8.21875 -3.046875 C 8.21875 -3.398438 8.113281 -3.707031 7.90625 -3.96875 C 7.695312 -4.226562 7.359375 -4.453125 6.890625 -4.640625 C 6.585938 -4.753906 5.921875 -4.929688 4.890625 -5.171875 C 3.859375 -5.421875 3.140625 -5.660156 2.734375 -5.890625 C 2.191406 -6.160156 1.789062 -6.503906 1.53125 -6.921875 C 1.269531 -7.335938 1.140625 -7.804688 1.140625 -8.328125 C 1.140625 -8.890625 1.296875 -9.414062 1.609375 -9.90625 C 1.929688 -10.40625 2.398438 -10.78125 3.015625 -11.03125 C 3.640625 -11.289062 4.332031 -11.421875 5.09375 -11.421875 C 5.914062 -11.421875 6.644531 -11.285156 7.28125 -11.015625 C 7.914062 -10.742188 8.40625 -10.347656 8.75 -9.828125 C 9.09375 -9.304688 9.28125 -8.71875 9.3125 -8.0625 L 7.875 -7.953125 C 7.800781 -8.660156 7.539062 -9.195312 7.09375 -9.5625 C 6.65625 -9.925781 6.003906 -10.109375 5.140625 -10.109375 C 4.242188 -10.109375 3.585938 -9.941406 3.171875 -9.609375 C 2.765625 -9.285156 2.5625 -8.890625 2.5625 -8.421875 C 2.5625 -8.023438 2.707031 -7.695312 3 -7.4375 C 3.289062 -7.175781 4.039062 -6.90625 5.25 -6.625 C 6.457031 -6.351562 7.285156 -6.113281 7.734375 -5.90625 C 8.378906 -5.613281 8.859375 -5.234375 9.171875 -4.765625 C 9.484375 -4.304688 9.640625 -3.773438 9.640625 -3.171875 C 9.640625 -2.578125 9.46875 -2.015625 9.125 -1.484375 C 8.789062 -0.953125 8.300781 -0.539062 7.65625 -0.25 C 7.007812 0.0390625 6.285156 0.1875 5.484375 0.1875 C 4.472656 0.1875 3.625 0.0390625 2.9375 -0.25 C 2.25 -0.550781 1.707031 -1 1.3125 -1.59375 C 0.925781 -2.1875 0.722656 -2.859375 0.703125 -3.609375 Z M 0.703125 -3.609375 "
           id="path41" />
      </symbol>
      <symbol
         overflow="visible"
         id="glyph0-14">
        <path
           style="stroke:none;"
           d="M 0.515625 -4.0625 C 0.515625 -5.570312 0.9375 -6.691406 1.78125 -7.421875 C 2.476562 -8.015625 3.328125 -8.3125 4.328125 -8.3125 C 5.453125 -8.3125 6.367188 -7.945312 7.078125 -7.21875 C 7.785156 -6.488281 8.140625 -5.476562 8.140625 -4.1875 C 8.140625 -3.132812 7.984375 -2.304688 7.671875 -1.703125 C 7.359375 -1.109375 6.898438 -0.644531 6.296875 -0.3125 C 5.703125 0.0195312 5.046875 0.1875 4.328125 0.1875 C 3.191406 0.1875 2.269531 -0.175781 1.5625 -0.90625 C 0.863281 -1.632812 0.515625 -2.6875 0.515625 -4.0625 Z M 1.9375 -4.0625 C 1.9375 -3.019531 2.160156 -2.238281 2.609375 -1.71875 C 3.066406 -1.207031 3.640625 -0.953125 4.328125 -0.953125 C 5.015625 -0.953125 5.582031 -1.210938 6.03125 -1.734375 C 6.488281 -2.253906 6.71875 -3.046875 6.71875 -4.109375 C 6.71875 -5.117188 6.488281 -5.878906 6.03125 -6.390625 C 5.582031 -6.910156 5.015625 -7.171875 4.328125 -7.171875 C 3.640625 -7.171875 3.066406 -6.910156 2.609375 -6.390625 C 2.160156 -5.878906 1.9375 -5.101562 1.9375 -4.0625 Z M 1.9375 -4.0625 "
           id="path44" />
      </symbol>
      <symbol
         overflow="visible"
         id="glyph0-15">
        <path
           style="stroke:none;"
           d="M 4.046875 -1.234375 L 4.25 -0.015625 C 3.851562 0.0664062 3.503906 0.109375 3.203125 0.109375 C 2.703125 0.109375 2.3125 0.03125 2.03125 -0.125 C 1.757812 -0.289062 1.566406 -0.5 1.453125 -0.75 C 1.335938 -1.007812 1.28125 -1.550781 1.28125 -2.375 L 1.28125 -7.0625 L 0.28125 -7.0625 L 0.28125 -8.140625 L 1.28125 -8.140625 L 1.28125 -10.15625 L 2.65625 -10.984375 L 2.65625 -8.140625 L 4.046875 -8.140625 L 4.046875 -7.0625 L 2.65625 -7.0625 L 2.65625 -2.3125 C 2.65625 -1.914062 2.675781 -1.660156 2.71875 -1.546875 C 2.769531 -1.429688 2.851562 -1.335938 2.96875 -1.265625 C 3.082031 -1.203125 3.238281 -1.171875 3.4375 -1.171875 C 3.59375 -1.171875 3.796875 -1.191406 4.046875 -1.234375 Z M 4.046875 -1.234375 "
           id="path47" />
      </symbol>
    </g>
    <clipPath
       id="clip1">
      <path
         d="M 0 0 L 204 0 L 204 88.921875 L 0 88.921875 Z M 0 0 "
         id="path52" />
    </clipPath>
  </defs>
  <g
     id="surface1">
    <g
       clip-path="url(#clip1)"
       clip-rule="nonzero"
       id="g59">
      <path
         style="fill:#ffffff;fill-opacity:1;fill-rule:nonzero;stroke:none"
         d="M 0,0 H 204 V 88.921875 H 0 Z m 0,0"
         id="path57" />
    </g>
    <path
       style="fill:#ffffff;fill-opacity:1;fill-rule:nonzero;stroke:#000000;stroke-width:1;stroke-linecap:butt;stroke-linejoin:miter;stroke-miterlimit:4;stroke-opacity:1"
       d="M 71.001499,35.998279 H 170.998 V 115.99966 H 71.001499 Z m 0,0"
       transform="matrix(0.747253,0,0,0.747253,0.373626,0.373626)"
       id="path61" />
    <g
       style="fill:#000000;fill-opacity:1"
       id="g81">
      <use
         xlink:href="#glyph0-1"
         x="56.826233"
         y="62.769226"
         id="use63"
         width="100%"
         height="100%" />
      <use
         xlink:href="#glyph0-2"
         x="66.41172"
         y="62.769226"
         id="use65"
         width="100%"
         height="100%" />
      <use
         xlink:href="#glyph0-3"
         x="75.13903"
         y="62.769226"
         id="use67"
         width="100%"
         height="100%" />
      <use
         xlink:href="#glyph0-3"
         x="78.625359"
         y="62.769226"
         id="use69"
         width="100%"
         height="100%" />
      <use
         xlink:href="#glyph0-4"
         x="82.111687"
         y="62.769226"
         id="use71"
         width="100%"
         height="100%" />
      <use
         xlink:href="#glyph0-5"
         x="92.578331"
         y="62.769226"
         id="use73"
         width="100%"
         height="100%" />
      <use
         xlink:href="#glyph0-5"
         x="101.30565"
         y="62.769226"
         id="use75"
         width="100%"
         height="100%" />
      <use
         xlink:href="#glyph0-6"
         x="110.03296"
         y="62.769226"
         id="use77"
         width="100%"
         height="100%" />
      <use
         xlink:href="#glyph0-7"
         x="118.76027"
         y="62.769226"
         id="use79"
         width="100%"
         height="100%" />
    </g>
    <path
       style="fill:none;stroke:#000000;stroke-width:1;stroke-linecap:butt;stroke-linejoin:miter;stroke-miterlimit:10;stroke-opacity:1"
       d="M 31.000807,55.998626 H 64.629199"
       transform="matrix(0.747253,0,0,0.747253,0.373626,0.373626)"
       id="path83" />
    <path
       style="fill:#000000;fill-opacity:1;fill-rule:nonzero;stroke:#000000;stroke-width:1;stroke-linecap:butt;stroke-linejoin:miter;stroke-miterlimit:10;stroke-opacity:1"
       d="m 69.877591,55.998626 -6.999599,3.502413 1.751207,-3.502413 -1.751207,-3.497186 z m 0,0"
       transform="matrix(0.747253,0,0,0.747253,0.373626,0.373626)"
       id="path85" />
    <path
       style="fill:none;stroke:#000000;stroke-width:1;stroke-linecap:butt;stroke-linejoin:miter;stroke-miterlimit:10;stroke-opacity:1"
       d="M 31.000807,95.999318 H 64.629199"
       transform="matrix(0.747253,0,0,0.747253,0.373626,0.373626)"
       id="path87" />
    <path
       style="fill:#000000;fill-opacity:1;fill-rule:nonzero;stroke:#000000;stroke-width:1;stroke-linecap:butt;stroke-linejoin:miter;stroke-miterlimit:10;stroke-opacity:1"
       d="m 69.877591,95.999318 -6.999599,3.502413 1.751207,-3.502413 -1.751207,-3.497185 z m 0,0"
       transform="matrix(0.747253,0,0,0.747253,0.373626,0.373626)"
       id="path89" />
    <path
       style="fill:none;stroke:#000000;stroke-width:1;stroke-linecap:butt;stroke-linejoin:miter;stroke-miterlimit:10;stroke-opacity:1"
       d="M 91.001845,15.997933 H 121.00236 V 29.631206"
       transform="matrix(0.747253,0,0,0.747253,0.373626,0.373626)"
       id="path91" />
    <path
       style="fill:#000000;fill-opacity:1;fill-rule:nonzero;stroke:#000000;stroke-width:1;stroke-linecap:butt;stroke-linejoin:miter;stroke-miterlimit:10;stroke-opacity:1"
       d="M 121.00236,34.879598 117.49995,27.88 121.00236,29.631206 124.49955,27.88 Z m 0,0"
       transform="matrix(0.747253,0,0,0.747253,0.373626,0.373626)"
       id="path93" />
    <path
       style="fill:none;stroke:#000000;stroke-width:1;stroke-linecap:butt;stroke-linejoin:miter;stroke-miterlimit:10;stroke-opacity:1"
       d="m 170.998,55.998626 h 33.63362"
       transform="matrix(0.747253,0,0,0.747253,0.373626,0.373626)"
       id="path95" />
    <path
       style="fill:#000000;fill-opacity:1;fill-rule:nonzero;stroke:#000000;stroke-width:1;stroke-linecap:butt;stroke-linejoin:miter;stroke-miterlimit:10;stroke-opacity:1"
       d="m 209.88001,55.998626 -6.99959,3.502413 1.7512,-3.502413 -1.7512,-3.497186 z m 0,0"
       transform="matrix(0.747253,0,0,0.747253,0.373626,0.373626)"
       id="path97" />
    <path
       style="fill:none;stroke:#000000;stroke-width:1;stroke-linecap:butt;stroke-linejoin:miter;stroke-miterlimit:10;stroke-opacity:1"
       d="m 170.998,95.999318 h 33.63362"
       transform="matrix(0.747253,0,0,0.747253,0.373626,0.373626)"
       id="path99" />
    <path
       style="fill:#000000;fill-opacity:1;fill-rule:nonzero;stroke:#000000;stroke-width:1;stroke-linecap:butt;stroke-linejoin:miter;stroke-miterlimit:10;stroke-opacity:1"
       d="m 209.88001,95.999318 -6.99959,3.502413 1.7512,-3.502413 -1.7512,-3.497185 z m 0,0"
       transform="matrix(0.747253,0,0,0.747253,0.373626,0.373626)"
       id="path101" />
    <g
       style="fill:#000000;fill-opacity:1"
       id="g105">
      <use
         xlink:href="#glyph0-8"
         x="7.9629111"
         y="77.714279"
         id="use103"
         width="100%"
         height="100%" />
    </g>
    <g
       style="fill:#000000;fill-opacity:1"
       id="g109">
      <use
         xlink:href="#glyph0-9"
         x="7.9629111"
         y="47.824173"
         id="use107"
         width="100%"
         height="100%" />
    </g>
    <g
       style="fill:#000000;fill-opacity:1"
       id="g117">
      <use
         xlink:href="#glyph0-10"
         x="41.659336"
         y="17.934065"
         id="use111"
         width="100%"
         height="100%" />
      <use
         xlink:href="#glyph0-11"
         x="52.991817"
         y="17.934065"
         id="use113"
         width="100%"
         height="100%" />
      <use
         xlink:href="#glyph0-12"
         x="56.478146"
         y="17.934065"
         id="use115"
         width="100%"
         height="100%" />
    </g>
    <g
       style="fill:#000000;fill-opacity:1"
       id="g121">
      <use
         xlink:href="#glyph0-13"
         x="164.02196"
         y="47.824173"
         id="use119"
         width="100%"
         height="100%" />
    </g>
    <g
       style="fill:#000000;fill-opacity:1"
       id="g131">
      <use
         xlink:href="#glyph0-10"
         x="163.89354"
         y="77.714279"
         id="use123"
         width="100%"
         height="100%" />
      <use
         xlink:href="#glyph0-14"
         x="175.22601"
         y="77.714279"
         id="use125"
         width="100%"
         height="100%" />
      <use
         xlink:href="#glyph0-2"
         x="183.95332"
         y="77.714279"
         id="use127"
         width="100%"
         height="100%" />
      <use
         xlink:href="#glyph0-15"
         x="192.68065"
         y="77.714279"
         id="use129"
         width="100%"
         height="100%" />
    </g>
  </g>
</svg>
