<?xml version="1.0" encoding="UTF-8" standalone="no"?>
<svg 
   width="255.12pt"
   height="69.119995pt"
   viewBox="0 0 255.12 69.119995"
   version="1.2"
   id="svg245"
   xmlns:xlink="http://www.w3.org/1999/xlink"
   xmlns="http://www.w3.org/2000/svg"
   xmlns:svg="http://www.w3.org/2000/svg" content="%3Cmxfile%20host%3D%22app.diagrams.net%22%20modified%3D%222022-01-31T16%3A38%3A11.741Z%22%20agent%3D%225.0%20(X11)%22%20etag%3D%22x5PziCNaKPQfEvFeF5fE%22%20version%3D%2216.5.2%22%20type%3D%22device%22%3E%3Cdiagram%20id%3D%22WZgRCmBUsAQAW2-bggCK%22%20name%3D%22Page-1%22%3E5VnLcpswFP0als7wEoZlnOdMm6STLDpddRSQQVNAVIjY6ddXMhLvxG5rqJlsbDiSrqRz7pEEaNZFsr2hMIvuSIBizdSDrWZdaqbpGS7%2FFcBrCYClXgIhxUEJGTXwhH8hCapqBQ5Q3qrICIkZztqgT9IU%2BayFQUrJpl1tTeJ2rxkMZY96DTz5MEa9al9xwCKJmnqj%2Bi3CYaS69lSgBKraEsgjGJBNA7KuNOuCEsLKq2R7gWJBniKmbHf9Rmk1MopSdkgD9D2zbh%2BdTz%2FuF8tvq7sH%2FHBvL2SUFxgXcsaa6cQ83mpNeFg%2BavYquXB%2BFkQVLPKdUue8Ah%2FCti7kV6H4J5nPU0HF4oMqw5WFko8qsklJkQZIjFPnxZsIM%2FSUQV%2BUbnhacSxiSczvjKp1c95qEogytG1AkocbRBLE6CuvIktNW2ois7KSc1Nr7EooaqgLJAZlVoVV5Jp3fiGp%2FwMZzJFkeFRh8uJZYZcNVRrwqWplmfu1cqbUyhpJK5wmmpjrtVguMT1ZPdz9ehiTmsceEKRDEkqDc7Eb8Ds%2FhnmOfeEJBinrw4fQhYIQvUtWgwzwDhcUxZDhl%2FZmM0SQ7OELwbsUe2sdczoc56SgPpKtmntDJ1DPZN1AnKoQsV6gnV7VtP9ewuU%2Fe8oAQ56yD3WREPQzfOaHl1YCwBiHqcgOngCIckD4BPPjwbksSHAQiBgrivhY4PMunjBiJqjakQdWGrgcTKZ3s7lryOqMIztpnSKGjKqfGUtwlDRbLM%2FMdhuyXudolEwAH9bMez14sJm7K%2FTEZnZHMrM1PzOrbD6GmR1n2ZLVOI63wXTedj6ut%2FdZ8lBvA%2Bf%2Fetsbydve%2FLytsvkY3tZt%2Bzhu9qZzs3pF08gFA%2FT04tyw8aSCBSNlah3t1YAF2qus23%2B8sQYWCnOspxuj%2F4rG6K%2Bbs6PZOzWa%2B69gFPMzptkyTo3m%2FsO6N3%2BWO5vyEMvmpCz3n6Lc%2BbPsnhrL%2FfOsPnuWgT0Zy%2Fy2%2FvpRnkrqb0jW1W8%3D%3C%2Fdiagram%3E%3C%2Fmxfile%3E">
  <defs
     id="defs100">
    <g
       id="g80">
      <symbol
         overflow="visible"
         id="glyph0-0">
        <path
           style="stroke:none;"
           d=""
           id="path2" />
      </symbol>
      <symbol
         overflow="visible"
         id="glyph0-1">
        <path
           style="stroke:none;"
           d="M 0.5 -3.890625 C 0.5 -5.328125 0.898438 -6.394531 1.703125 -7.09375 C 2.367188 -7.664062 3.179688 -7.953125 4.140625 -7.953125 C 5.210938 -7.953125 6.085938 -7.601562 6.765625 -6.90625 C 7.441406 -6.207031 7.78125 -5.238281 7.78125 -4 C 7.78125 -3 7.628906 -2.210938 7.328125 -1.640625 C 7.035156 -1.066406 6.597656 -0.617188 6.015625 -0.296875 C 5.441406 0.015625 4.816406 0.171875 4.140625 0.171875 C 3.054688 0.171875 2.175781 -0.175781 1.5 -0.875 C 0.832031 -1.570312 0.5 -2.578125 0.5 -3.890625 Z M 1.859375 -3.890625 C 1.859375 -2.890625 2.070312 -2.140625 2.5 -1.640625 C 2.9375 -1.148438 3.484375 -0.90625 4.140625 -0.90625 C 4.796875 -0.90625 5.34375 -1.15625 5.78125 -1.65625 C 6.21875 -2.15625 6.4375 -2.914062 6.4375 -3.9375 C 6.4375 -4.894531 6.21875 -5.617188 5.78125 -6.109375 C 5.34375 -6.609375 4.796875 -6.859375 4.140625 -6.859375 C 3.484375 -6.859375 2.9375 -6.613281 2.5 -6.125 C 2.070312 -5.632812 1.859375 -4.890625 1.859375 -3.890625 Z M 1.859375 -3.890625 "
           id="path5" />
      </symbol>
      <symbol
         overflow="visible"
         id="glyph0-2">
        <path
           style="stroke:none;"
           d="M 0.984375 2.984375 L 0.984375 -7.78125 L 2.1875 -7.78125 L 2.1875 -6.765625 C 2.46875 -7.160156 2.785156 -7.457031 3.140625 -7.65625 C 3.503906 -7.851562 3.941406 -7.953125 4.453125 -7.953125 C 5.109375 -7.953125 5.691406 -7.78125 6.203125 -7.4375 C 6.710938 -7.09375 7.09375 -6.609375 7.34375 -5.984375 C 7.601562 -5.367188 7.734375 -4.691406 7.734375 -3.953125 C 7.734375 -3.148438 7.59375 -2.429688 7.3125 -1.796875 C 7.03125 -1.160156 6.613281 -0.671875 6.0625 -0.328125 C 5.519531 0.00390625 4.945312 0.171875 4.34375 0.171875 C 3.90625 0.171875 3.507812 0.0820312 3.15625 -0.09375 C 2.8125 -0.28125 2.53125 -0.519531 2.3125 -0.8125 L 2.3125 2.984375 Z M 2.1875 -3.84375 C 2.1875 -2.84375 2.390625 -2.101562 2.796875 -1.625 C 3.203125 -1.144531 3.691406 -0.90625 4.265625 -0.90625 C 4.847656 -0.90625 5.347656 -1.148438 5.765625 -1.640625 C 6.179688 -2.140625 6.390625 -2.910156 6.390625 -3.953125 C 6.390625 -4.941406 6.1875 -5.679688 5.78125 -6.171875 C 5.375 -6.671875 4.890625 -6.921875 4.328125 -6.921875 C 3.765625 -6.921875 3.265625 -6.65625 2.828125 -6.125 C 2.398438 -5.601562 2.1875 -4.84375 2.1875 -3.84375 Z M 2.1875 -3.84375 "
           id="path8" />
      </symbol>
      <symbol
         overflow="visible"
         id="glyph0-3">
        <path
           style="stroke:none;"
           d="M 6.0625 -2.84375 L 7.359375 -2.6875 C 7.222656 -1.789062 6.859375 -1.085938 6.265625 -0.578125 C 5.679688 -0.078125 4.96875 0.171875 4.125 0.171875 C 3.0625 0.171875 2.207031 -0.171875 1.5625 -0.859375 C 0.914062 -1.554688 0.59375 -2.554688 0.59375 -3.859375 C 0.59375 -4.703125 0.726562 -5.4375 1 -6.0625 C 1.28125 -6.695312 1.703125 -7.171875 2.265625 -7.484375 C 2.835938 -7.796875 3.457031 -7.953125 4.125 -7.953125 C 4.96875 -7.953125 5.660156 -7.738281 6.203125 -7.3125 C 6.742188 -6.882812 7.085938 -6.28125 7.234375 -5.5 L 5.953125 -5.296875 C 5.828125 -5.816406 5.609375 -6.207031 5.296875 -6.46875 C 4.992188 -6.738281 4.625 -6.875 4.1875 -6.875 C 3.519531 -6.875 2.976562 -6.632812 2.5625 -6.15625 C 2.144531 -5.675781 1.9375 -4.921875 1.9375 -3.890625 C 1.9375 -2.847656 2.132812 -2.085938 2.53125 -1.609375 C 2.9375 -1.140625 3.460938 -0.90625 4.109375 -0.90625 C 4.628906 -0.90625 5.0625 -1.0625 5.40625 -1.375 C 5.75 -1.695312 5.96875 -2.1875 6.0625 -2.84375 Z M 6.0625 -2.84375 "
           id="path11" />
      </symbol>
      <symbol
         overflow="visible"
         id="glyph0-4">
        <path
           style="stroke:none;"
           d="M 6.03125 0 L 6.03125 -0.984375 C 5.539062 -0.210938 4.816406 0.171875 3.859375 0.171875 C 3.242188 0.171875 2.675781 0.00390625 2.15625 -0.328125 C 1.632812 -0.671875 1.226562 -1.148438 0.9375 -1.765625 C 0.65625 -2.378906 0.515625 -3.082031 0.515625 -3.875 C 0.515625 -4.65625 0.644531 -5.359375 0.90625 -5.984375 C 1.164062 -6.617188 1.550781 -7.101562 2.0625 -7.4375 C 2.582031 -7.78125 3.160156 -7.953125 3.796875 -7.953125 C 4.265625 -7.953125 4.679688 -7.851562 5.046875 -7.65625 C 5.421875 -7.457031 5.722656 -7.203125 5.953125 -6.890625 L 5.953125 -10.734375 L 7.265625 -10.734375 L 7.265625 0 Z M 1.875 -3.875 C 1.875 -2.882812 2.082031 -2.140625 2.5 -1.640625 C 2.914062 -1.148438 3.410156 -0.90625 3.984375 -0.90625 C 4.554688 -0.90625 5.046875 -1.140625 5.453125 -1.609375 C 5.859375 -2.085938 6.0625 -2.804688 6.0625 -3.765625 C 6.0625 -4.835938 5.851562 -5.617188 5.4375 -6.109375 C 5.03125 -6.609375 4.523438 -6.859375 3.921875 -6.859375 C 3.335938 -6.859375 2.847656 -6.617188 2.453125 -6.140625 C 2.066406 -5.660156 1.875 -4.90625 1.875 -3.875 Z M 1.875 -3.875 "
           id="path14" />
      </symbol>
      <symbol
         overflow="visible"
         id="glyph0-5">
        <path
           style="stroke:none;"
           d="M 6.3125 -2.5 L 7.671875 -2.34375 C 7.460938 -1.539062 7.066406 -0.921875 6.484375 -0.484375 C 5.898438 -0.046875 5.15625 0.171875 4.25 0.171875 C 3.113281 0.171875 2.210938 -0.175781 1.546875 -0.875 C 0.878906 -1.570312 0.546875 -2.554688 0.546875 -3.828125 C 0.546875 -5.128906 0.882812 -6.140625 1.5625 -6.859375 C 2.238281 -7.585938 3.113281 -7.953125 4.1875 -7.953125 C 5.226562 -7.953125 6.078125 -7.597656 6.734375 -6.890625 C 7.390625 -6.179688 7.71875 -5.1875 7.71875 -3.90625 C 7.71875 -3.820312 7.71875 -3.703125 7.71875 -3.546875 L 1.90625 -3.546875 C 1.957031 -2.691406 2.195312 -2.035156 2.625 -1.578125 C 3.0625 -1.128906 3.609375 -0.90625 4.265625 -0.90625 C 4.742188 -0.90625 5.15625 -1.03125 5.5 -1.28125 C 5.84375 -1.539062 6.113281 -1.945312 6.3125 -2.5 Z M 1.984375 -4.640625 L 6.328125 -4.640625 C 6.265625 -5.296875 6.097656 -5.785156 5.828125 -6.109375 C 5.410156 -6.617188 4.867188 -6.875 4.203125 -6.875 C 3.585938 -6.875 3.070312 -6.671875 2.65625 -6.265625 C 2.25 -5.859375 2.023438 -5.316406 1.984375 -4.640625 Z M 1.984375 -4.640625 "
           id="path17" />
      </symbol>
      <symbol
         overflow="visible"
         id="glyph0-6">
        <path
           style="stroke:none;"
           d="M 1.171875 0 L 1.171875 -10.734375 L 5.9375 -10.734375 C 6.894531 -10.734375 7.625 -10.632812 8.125 -10.4375 C 8.625 -10.25 9.019531 -9.910156 9.3125 -9.421875 C 9.613281 -8.929688 9.765625 -8.394531 9.765625 -7.8125 C 9.765625 -7.050781 9.515625 -6.40625 9.015625 -5.875 C 8.523438 -5.351562 7.765625 -5.023438 6.734375 -4.890625 C 7.109375 -4.703125 7.394531 -4.519531 7.59375 -4.34375 C 8.007812 -3.96875 8.40625 -3.492188 8.78125 -2.921875 L 10.640625 0 L 8.859375 0 L 7.4375 -2.234375 C 7.019531 -2.878906 6.675781 -3.367188 6.40625 -3.703125 C 6.132812 -4.046875 5.894531 -4.285156 5.6875 -4.421875 C 5.476562 -4.566406 5.265625 -4.664062 5.046875 -4.71875 C 4.878906 -4.75 4.613281 -4.765625 4.25 -4.765625 L 2.59375 -4.765625 L 2.59375 0 Z M 2.59375 -6 L 5.65625 -6 C 6.300781 -6 6.804688 -6.066406 7.171875 -6.203125 C 7.546875 -6.335938 7.828125 -6.550781 8.015625 -6.84375 C 8.203125 -7.132812 8.296875 -7.457031 8.296875 -7.8125 C 8.296875 -8.3125 8.109375 -8.722656 7.734375 -9.046875 C 7.367188 -9.378906 6.789062 -9.546875 6 -9.546875 L 2.59375 -9.546875 Z M 2.59375 -6 "
           id="path20" />
      </symbol>
      <symbol
         overflow="visible"
         id="glyph0-7">
        <path
           style="stroke:none;"
           d="M 1 -9.21875 L 1 -10.734375 L 2.3125 -10.734375 L 2.3125 -9.21875 Z M 1 0 L 1 -7.78125 L 2.3125 -7.78125 L 2.3125 0 Z M 1 0 "
           id="path23" />
      </symbol>
      <symbol
         overflow="visible"
         id="glyph0-8">
        <path
           style="stroke:none;"
           d="M 0.984375 0 L 0.984375 -7.78125 L 2.171875 -7.78125 L 2.171875 -6.671875 C 2.742188 -7.523438 3.570312 -7.953125 4.65625 -7.953125 C 5.125 -7.953125 5.550781 -7.867188 5.9375 -7.703125 C 6.332031 -7.535156 6.628906 -7.3125 6.828125 -7.03125 C 7.023438 -6.757812 7.160156 -6.4375 7.234375 -6.0625 C 7.285156 -5.820312 7.3125 -5.394531 7.3125 -4.78125 L 7.3125 0 L 5.984375 0 L 5.984375 -4.734375 C 5.984375 -5.265625 5.929688 -5.660156 5.828125 -5.921875 C 5.734375 -6.191406 5.554688 -6.40625 5.296875 -6.5625 C 5.035156 -6.726562 4.726562 -6.8125 4.375 -6.8125 C 3.8125 -6.8125 3.328125 -6.632812 2.921875 -6.28125 C 2.515625 -5.925781 2.3125 -5.25 2.3125 -4.25 L 2.3125 0 Z M 0.984375 0 "
           id="path26" />
      </symbol>
      <symbol
         overflow="visible"
         id="glyph0-9">
        <path
           style="stroke:none;"
           d="M 0.984375 0 L 0.984375 -7.78125 L 2.171875 -7.78125 L 2.171875 -6.6875 C 2.410156 -7.070312 2.734375 -7.378906 3.140625 -7.609375 C 3.546875 -7.835938 4.007812 -7.953125 4.53125 -7.953125 C 5.101562 -7.953125 5.570312 -7.832031 5.9375 -7.59375 C 6.3125 -7.351562 6.570312 -7.019531 6.71875 -6.59375 C 7.332031 -7.5 8.132812 -7.953125 9.125 -7.953125 C 9.894531 -7.953125 10.488281 -7.738281 10.90625 -7.3125 C 11.320312 -6.882812 11.53125 -6.226562 11.53125 -5.34375 L 11.53125 0 L 10.21875 0 L 10.21875 -4.90625 C 10.21875 -5.425781 10.175781 -5.800781 10.09375 -6.03125 C 10.007812 -6.269531 9.851562 -6.457031 9.625 -6.59375 C 9.394531 -6.738281 9.128906 -6.8125 8.828125 -6.8125 C 8.285156 -6.8125 7.832031 -6.628906 7.46875 -6.265625 C 7.101562 -5.898438 6.921875 -5.316406 6.921875 -4.515625 L 6.921875 0 L 5.609375 0 L 5.609375 -5.046875 C 5.609375 -5.640625 5.5 -6.082031 5.28125 -6.375 C 5.070312 -6.664062 4.722656 -6.8125 4.234375 -6.8125 C 3.859375 -6.8125 3.515625 -6.710938 3.203125 -6.515625 C 2.890625 -6.316406 2.660156 -6.03125 2.515625 -5.65625 C 2.378906 -5.28125 2.3125 -4.738281 2.3125 -4.03125 L 2.3125 0 Z M 0.984375 0 "
           id="path29" />
      </symbol>
      <symbol
         overflow="visible"
         id="glyph0-10">
        <path
           style="stroke:none;"
           d=""
           id="path32" />
      </symbol>
      <symbol
         overflow="visible"
         id="glyph0-11">
        <path
           style="stroke:none;"
           d="M 0 0.1875 L 3.109375 -10.921875 L 4.171875 -10.921875 L 1.0625 0.1875 Z M 0 0.1875 "
           id="path35" />
      </symbol>
      <symbol
         overflow="visible"
         id="glyph0-12">
        <path
           style="stroke:none;"
           d="M 0.96875 0 L 0.96875 -7.78125 L 2.15625 -7.78125 L 2.15625 -6.59375 C 2.457031 -7.144531 2.738281 -7.507812 3 -7.6875 C 3.257812 -7.863281 3.539062 -7.953125 3.84375 -7.953125 C 4.289062 -7.953125 4.742188 -7.8125 5.203125 -7.53125 L 4.75 -6.3125 C 4.425781 -6.5 4.101562 -6.59375 3.78125 -6.59375 C 3.488281 -6.59375 3.226562 -6.503906 3 -6.328125 C 2.769531 -6.160156 2.609375 -5.921875 2.515625 -5.609375 C 2.367188 -5.140625 2.296875 -4.628906 2.296875 -4.078125 L 2.296875 0 Z M 0.96875 0 "
           id="path38" />
      </symbol>
      <symbol
         overflow="visible"
         id="glyph1-0">
        <path
           style="stroke:none;"
           d=""
           id="path41" />
      </symbol>
      <symbol
         overflow="visible"
         id="glyph1-1">
        <path
           style="stroke:none;"
           d="M 0.96875 0 L 0.96875 -8.953125 L 4.046875 -8.953125 C 4.742188 -8.953125 5.273438 -8.90625 5.640625 -8.8125 C 6.148438 -8.695312 6.585938 -8.484375 6.953125 -8.171875 C 7.421875 -7.773438 7.769531 -7.265625 8 -6.640625 C 8.238281 -6.023438 8.359375 -5.316406 8.359375 -4.515625 C 8.359375 -3.835938 8.28125 -3.234375 8.125 -2.703125 C 7.96875 -2.179688 7.765625 -1.75 7.515625 -1.40625 C 7.265625 -1.0625 6.988281 -0.789062 6.6875 -0.59375 C 6.394531 -0.40625 6.039062 -0.257812 5.625 -0.15625 C 5.207031 -0.0507812 4.726562 0 4.1875 0 Z M 2.15625 -1.0625 L 4.0625 -1.0625 C 4.644531 -1.0625 5.101562 -1.113281 5.4375 -1.21875 C 5.78125 -1.332031 6.050781 -1.488281 6.25 -1.6875 C 6.53125 -1.96875 6.75 -2.34375 6.90625 -2.8125 C 7.0625 -3.289062 7.140625 -3.867188 7.140625 -4.546875 C 7.140625 -5.472656 6.984375 -6.1875 6.671875 -6.6875 C 6.367188 -7.195312 6 -7.535156 5.5625 -7.703125 C 5.238281 -7.828125 4.726562 -7.890625 4.03125 -7.890625 L 2.15625 -7.890625 Z M 2.15625 -1.0625 "
           id="path44" />
      </symbol>
      <symbol
         overflow="visible"
         id="glyph2-0">
        <path
           style="stroke:none;"
           d=""
           id="path47" />
      </symbol>
      <symbol
         overflow="visible"
         id="glyph2-1">
        <path
           style="stroke:none;"
           d="M 3.640625 0 L 3.640625 -1.921875 L 0.140625 -1.921875 L 0.140625 -2.828125 L 3.8125 -8.046875 L 4.625 -8.046875 L 4.625 -2.828125 L 5.71875 -2.828125 L 5.71875 -1.921875 L 4.625 -1.921875 L 4.625 0 Z M 3.640625 -2.828125 L 3.640625 -6.46875 L 1.109375 -2.828125 Z M 3.640625 -2.828125 "
           id="path50" />
      </symbol>
      <symbol
         overflow="visible"
         id="glyph2-2">
        <path
           style="stroke:none;"
           d="M 0.46875 -2.125 L 1.46875 -2.25 C 1.570312 -1.695312 1.757812 -1.296875 2.03125 -1.046875 C 2.3125 -0.796875 2.644531 -0.671875 3.03125 -0.671875 C 3.5 -0.671875 3.894531 -0.832031 4.21875 -1.15625 C 4.539062 -1.476562 4.703125 -1.878906 4.703125 -2.359375 C 4.703125 -2.804688 4.550781 -3.175781 4.25 -3.46875 C 3.957031 -3.769531 3.582031 -3.921875 3.125 -3.921875 C 2.9375 -3.921875 2.703125 -3.882812 2.421875 -3.8125 L 2.53125 -4.6875 C 2.59375 -4.675781 2.644531 -4.671875 2.6875 -4.671875 C 3.113281 -4.671875 3.492188 -4.78125 3.828125 -5 C 4.160156 -5.21875 4.328125 -5.554688 4.328125 -6.015625 C 4.328125 -6.378906 4.203125 -6.675781 3.953125 -6.90625 C 3.710938 -7.144531 3.398438 -7.265625 3.015625 -7.265625 C 2.628906 -7.265625 2.304688 -7.144531 2.046875 -6.90625 C 1.796875 -6.664062 1.632812 -6.304688 1.5625 -5.828125 L 0.578125 -6 C 0.691406 -6.664062 0.960938 -7.179688 1.390625 -7.546875 C 1.816406 -7.910156 2.351562 -8.09375 3 -8.09375 C 3.4375 -8.09375 3.835938 -7.992188 4.203125 -7.796875 C 4.578125 -7.609375 4.859375 -7.351562 5.046875 -7.03125 C 5.242188 -6.707031 5.34375 -6.363281 5.34375 -6 C 5.34375 -5.644531 5.25 -5.320312 5.0625 -5.03125 C 4.882812 -4.75 4.609375 -4.523438 4.234375 -4.359375 C 4.710938 -4.253906 5.082031 -4.023438 5.34375 -3.671875 C 5.613281 -3.328125 5.75 -2.894531 5.75 -2.375 C 5.75 -1.675781 5.488281 -1.082031 4.96875 -0.59375 C 4.457031 -0.101562 3.8125 0.140625 3.03125 0.140625 C 2.320312 0.140625 1.734375 -0.0664062 1.265625 -0.484375 C 0.804688 -0.910156 0.539062 -1.457031 0.46875 -2.125 Z M 0.46875 -2.125 "
           id="path53" />
      </symbol>
      <symbol
         overflow="visible"
         id="glyph2-3">
        <path
           style="stroke:none;"
           d="M 0.609375 -1.859375 L 1.5625 -1.953125 C 1.644531 -1.503906 1.800781 -1.175781 2.03125 -0.96875 C 2.257812 -0.769531 2.550781 -0.671875 2.90625 -0.671875 C 3.207031 -0.671875 3.472656 -0.738281 3.703125 -0.875 C 3.929688 -1.019531 4.117188 -1.207031 4.265625 -1.4375 C 4.410156 -1.675781 4.53125 -1.992188 4.625 -2.390625 C 4.726562 -2.785156 4.78125 -3.1875 4.78125 -3.59375 C 4.78125 -3.632812 4.78125 -3.703125 4.78125 -3.796875 C 4.582031 -3.472656 4.3125 -3.210938 3.96875 -3.015625 C 3.625 -2.828125 3.25 -2.734375 2.84375 -2.734375 C 2.175781 -2.734375 1.613281 -2.972656 1.15625 -3.453125 C 0.695312 -3.941406 0.46875 -4.578125 0.46875 -5.359375 C 0.46875 -6.179688 0.707031 -6.84375 1.1875 -7.34375 C 1.664062 -7.84375 2.269531 -8.09375 3 -8.09375 C 3.519531 -8.09375 4 -7.945312 4.4375 -7.65625 C 4.875 -7.375 5.203125 -6.972656 5.421875 -6.453125 C 5.648438 -5.929688 5.765625 -5.175781 5.765625 -4.1875 C 5.765625 -3.15625 5.648438 -2.332031 5.421875 -1.71875 C 5.203125 -1.113281 4.867188 -0.648438 4.421875 -0.328125 C 3.984375 -0.015625 3.46875 0.140625 2.875 0.140625 C 2.25 0.140625 1.734375 -0.03125 1.328125 -0.375 C 0.929688 -0.726562 0.691406 -1.222656 0.609375 -1.859375 Z M 4.65625 -5.421875 C 4.65625 -5.984375 4.503906 -6.429688 4.203125 -6.765625 C 3.898438 -7.097656 3.539062 -7.265625 3.125 -7.265625 C 2.6875 -7.265625 2.300781 -7.082031 1.96875 -6.71875 C 1.644531 -6.363281 1.484375 -5.898438 1.484375 -5.328125 C 1.484375 -4.816406 1.632812 -4.398438 1.9375 -4.078125 C 2.25 -3.765625 2.632812 -3.609375 3.09375 -3.609375 C 3.550781 -3.609375 3.925781 -3.765625 4.21875 -4.078125 C 4.507812 -4.398438 4.65625 -4.847656 4.65625 -5.421875 Z M 4.65625 -5.421875 "
           id="path56" />
      </symbol>
      <symbol
         overflow="visible"
         id="glyph3-0">
        <path
           style="stroke:none;"
           d=""
           id="path59" />
      </symbol>
      <symbol
         overflow="visible"
         id="glyph3-1">
        <path
           style="stroke:none;"
           d="M 3.359375 0 L 2.5625 0 L 2.5625 -5.046875 C 2.375 -4.859375 2.125 -4.671875 1.8125 -4.484375 C 1.5 -4.304688 1.222656 -4.175781 0.984375 -4.09375 L 0.984375 -4.859375 C 1.421875 -5.054688 1.804688 -5.300781 2.140625 -5.59375 C 2.472656 -5.894531 2.707031 -6.1875 2.84375 -6.46875 L 3.359375 -6.46875 Z M 3.359375 0 "
           id="path62" />
      </symbol>
      <symbol
         overflow="visible"
         id="glyph3-2">
        <path
           style="stroke:none;"
           d="M 0.375 -1.6875 L 1.203125 -1.765625 C 1.265625 -1.359375 1.40625 -1.050781 1.625 -0.84375 C 1.851562 -0.644531 2.125 -0.546875 2.4375 -0.546875 C 2.820312 -0.546875 3.144531 -0.6875 3.40625 -0.96875 C 3.675781 -1.257812 3.8125 -1.640625 3.8125 -2.109375 C 3.8125 -2.566406 3.679688 -2.925781 3.421875 -3.1875 C 3.171875 -3.445312 2.84375 -3.578125 2.4375 -3.578125 C 2.175781 -3.578125 1.941406 -3.515625 1.734375 -3.390625 C 1.535156 -3.273438 1.375 -3.128906 1.25 -2.953125 L 0.515625 -3.046875 L 1.140625 -6.359375 L 4.34375 -6.359375 L 4.34375 -5.59375 L 1.765625 -5.59375 L 1.421875 -3.875 C 1.804688 -4.132812 2.210938 -4.265625 2.640625 -4.265625 C 3.203125 -4.265625 3.675781 -4.070312 4.0625 -3.6875 C 4.445312 -3.300781 4.640625 -2.800781 4.640625 -2.1875 C 4.640625 -1.601562 4.472656 -1.097656 4.140625 -0.671875 C 3.722656 -0.148438 3.15625 0.109375 2.4375 0.109375 C 1.851562 0.109375 1.375 -0.0507812 1 -0.375 C 0.632812 -0.707031 0.425781 -1.144531 0.375 -1.6875 Z M 0.375 -1.6875 "
           id="path65" />
      </symbol>
      <symbol
         overflow="visible"
         id="glyph3-3">
        <path
           style="stroke:none;"
           d="M 4.53125 -0.765625 L 4.53125 0 L 0.265625 0 C 0.265625 -0.1875 0.296875 -0.367188 0.359375 -0.546875 C 0.472656 -0.835938 0.648438 -1.125 0.890625 -1.40625 C 1.128906 -1.6875 1.472656 -2.007812 1.921875 -2.375 C 2.617188 -2.957031 3.085938 -3.414062 3.328125 -3.75 C 3.578125 -4.082031 3.703125 -4.398438 3.703125 -4.703125 C 3.703125 -5.015625 3.585938 -5.273438 3.359375 -5.484375 C 3.140625 -5.703125 2.851562 -5.8125 2.5 -5.8125 C 2.113281 -5.8125 1.804688 -5.695312 1.578125 -5.46875 C 1.347656 -5.238281 1.234375 -4.921875 1.234375 -4.515625 L 0.421875 -4.609375 C 0.472656 -5.210938 0.679688 -5.671875 1.046875 -5.984375 C 1.410156 -6.304688 1.898438 -6.46875 2.515625 -6.46875 C 3.128906 -6.46875 3.613281 -6.296875 3.96875 -5.953125 C 4.332031 -5.609375 4.515625 -5.1875 4.515625 -4.6875 C 4.515625 -4.425781 4.460938 -4.171875 4.359375 -3.921875 C 4.253906 -3.671875 4.078125 -3.40625 3.828125 -3.125 C 3.585938 -2.851562 3.1875 -2.476562 2.625 -2 C 2.144531 -1.601562 1.835938 -1.332031 1.703125 -1.1875 C 1.566406 -1.039062 1.457031 -0.898438 1.375 -0.765625 Z M 4.53125 -0.765625 "
           id="path68" />
      </symbol>
      <symbol
         overflow="visible"
         id="glyph3-4">
        <path
           style="stroke:none;"
           d="M 0.5 -1.484375 L 1.25 -1.5625 C 1.3125 -1.207031 1.429688 -0.945312 1.609375 -0.78125 C 1.796875 -0.625 2.035156 -0.546875 2.328125 -0.546875 C 2.566406 -0.546875 2.773438 -0.597656 2.953125 -0.703125 C 3.140625 -0.816406 3.289062 -0.96875 3.40625 -1.15625 C 3.53125 -1.34375 3.628906 -1.59375 3.703125 -1.90625 C 3.785156 -2.21875 3.828125 -2.539062 3.828125 -2.875 C 3.828125 -2.90625 3.820312 -2.957031 3.8125 -3.03125 C 3.65625 -2.78125 3.441406 -2.578125 3.171875 -2.421875 C 2.898438 -2.265625 2.601562 -2.1875 2.28125 -2.1875 C 1.75 -2.1875 1.296875 -2.378906 0.921875 -2.765625 C 0.554688 -3.148438 0.375 -3.660156 0.375 -4.296875 C 0.375 -4.953125 0.566406 -5.476562 0.953125 -5.875 C 1.335938 -6.269531 1.820312 -6.46875 2.40625 -6.46875 C 2.820312 -6.46875 3.203125 -6.351562 3.546875 -6.125 C 3.890625 -5.90625 4.148438 -5.585938 4.328125 -5.171875 C 4.515625 -4.753906 4.609375 -4.148438 4.609375 -3.359375 C 4.609375 -2.535156 4.519531 -1.878906 4.34375 -1.390625 C 4.164062 -0.898438 3.898438 -0.523438 3.546875 -0.265625 C 3.191406 -0.015625 2.773438 0.109375 2.296875 0.109375 C 1.796875 0.109375 1.382812 -0.03125 1.0625 -0.3125 C 0.75 -0.59375 0.5625 -0.984375 0.5 -1.484375 Z M 3.734375 -4.328125 C 3.734375 -4.785156 3.609375 -5.144531 3.359375 -5.40625 C 3.117188 -5.675781 2.832031 -5.8125 2.5 -5.8125 C 2.144531 -5.8125 1.835938 -5.664062 1.578125 -5.375 C 1.316406 -5.09375 1.1875 -4.722656 1.1875 -4.265625 C 1.1875 -3.859375 1.304688 -3.523438 1.546875 -3.265625 C 1.796875 -3.015625 2.101562 -2.890625 2.46875 -2.890625 C 2.84375 -2.890625 3.144531 -3.015625 3.375 -3.265625 C 3.613281 -3.523438 3.734375 -3.878906 3.734375 -4.328125 Z M 3.734375 -4.328125 "
           id="path71" />
      </symbol>
      <symbol
         overflow="visible"
         id="glyph3-5">
        <path
           style="stroke:none;"
           d="M 1.59375 -3.5 C 1.257812 -3.613281 1.015625 -3.78125 0.859375 -4 C 0.703125 -4.226562 0.625 -4.5 0.625 -4.8125 C 0.625 -5.28125 0.789062 -5.671875 1.125 -5.984375 C 1.46875 -6.304688 1.914062 -6.46875 2.46875 -6.46875 C 3.03125 -6.46875 3.484375 -6.300781 3.828125 -5.96875 C 4.171875 -5.644531 4.34375 -5.25 4.34375 -4.78125 C 4.34375 -4.488281 4.265625 -4.226562 4.109375 -4 C 3.953125 -3.78125 3.710938 -3.613281 3.390625 -3.5 C 3.785156 -3.363281 4.085938 -3.148438 4.296875 -2.859375 C 4.503906 -2.578125 4.609375 -2.238281 4.609375 -1.84375 C 4.609375 -1.289062 4.410156 -0.828125 4.015625 -0.453125 C 3.628906 -0.078125 3.117188 0.109375 2.484375 0.109375 C 1.847656 0.109375 1.332031 -0.078125 0.9375 -0.453125 C 0.550781 -0.828125 0.359375 -1.296875 0.359375 -1.859375 C 0.359375 -2.273438 0.460938 -2.625 0.671875 -2.90625 C 0.890625 -3.195312 1.195312 -3.394531 1.59375 -3.5 Z M 1.4375 -4.828125 C 1.4375 -4.523438 1.53125 -4.273438 1.71875 -4.078125 C 1.914062 -3.890625 2.171875 -3.796875 2.484375 -3.796875 C 2.796875 -3.796875 3.046875 -3.890625 3.234375 -4.078125 C 3.429688 -4.273438 3.53125 -4.515625 3.53125 -4.796875 C 3.53125 -5.078125 3.429688 -5.316406 3.234375 -5.515625 C 3.035156 -5.710938 2.785156 -5.8125 2.484375 -5.8125 C 2.179688 -5.8125 1.929688 -5.710938 1.734375 -5.515625 C 1.535156 -5.328125 1.4375 -5.097656 1.4375 -4.828125 Z M 1.171875 -1.859375 C 1.171875 -1.628906 1.222656 -1.410156 1.328125 -1.203125 C 1.441406 -0.992188 1.601562 -0.832031 1.8125 -0.71875 C 2.019531 -0.601562 2.25 -0.546875 2.5 -0.546875 C 2.875 -0.546875 3.179688 -0.664062 3.421875 -0.90625 C 3.671875 -1.144531 3.796875 -1.453125 3.796875 -1.828125 C 3.796875 -2.210938 3.671875 -2.53125 3.421875 -2.78125 C 3.171875 -3.03125 2.851562 -3.15625 2.46875 -3.15625 C 2.09375 -3.15625 1.78125 -3.03125 1.53125 -2.78125 C 1.289062 -2.53125 1.171875 -2.222656 1.171875 -1.859375 Z M 1.171875 -1.859375 "
           id="path74" />
      </symbol>
      <symbol
         overflow="visible"
         id="glyph3-6">
        <path
           style="stroke:none;"
           d="M 0.375 -3.171875 C 0.375 -3.929688 0.453125 -4.546875 0.609375 -5.015625 C 0.765625 -5.484375 0.992188 -5.84375 1.296875 -6.09375 C 1.609375 -6.34375 2 -6.46875 2.46875 -6.46875 C 2.820312 -6.46875 3.128906 -6.394531 3.390625 -6.25 C 3.648438 -6.113281 3.863281 -5.914062 4.03125 -5.65625 C 4.195312 -5.394531 4.328125 -5.078125 4.421875 -4.703125 C 4.523438 -4.328125 4.578125 -3.816406 4.578125 -3.171875 C 4.578125 -2.421875 4.5 -1.8125 4.34375 -1.34375 C 4.1875 -0.882812 3.953125 -0.523438 3.640625 -0.265625 C 3.335938 -0.015625 2.945312 0.109375 2.46875 0.109375 C 1.851562 0.109375 1.367188 -0.113281 1.015625 -0.5625 C 0.585938 -1.09375 0.375 -1.960938 0.375 -3.171875 Z M 1.1875 -3.171875 C 1.1875 -2.117188 1.304688 -1.414062 1.546875 -1.0625 C 1.796875 -0.71875 2.101562 -0.546875 2.46875 -0.546875 C 2.832031 -0.546875 3.140625 -0.71875 3.390625 -1.0625 C 3.640625 -1.414062 3.765625 -2.117188 3.765625 -3.171875 C 3.765625 -4.234375 3.640625 -4.9375 3.390625 -5.28125 C 3.140625 -5.632812 2.832031 -5.8125 2.46875 -5.8125 C 2.101562 -5.8125 1.8125 -5.660156 1.59375 -5.359375 C 1.320312 -4.960938 1.1875 -4.234375 1.1875 -3.171875 Z M 1.1875 -3.171875 "
           id="path77" />
      </symbol>
    </g>
    <clipPath
       id="clip1">
      <path
         d="M 0 47 L 24 47 L 24 69 L 0 69 Z M 0 47 "
         id="path82" />
    </clipPath>
    <clipPath
       id="clip2">
      <path
         d="M 50 47 L 77 47 L 77 69 L 50 69 Z M 50 47 "
         id="path85" />
    </clipPath>
    <clipPath
       id="clip3">
      <path
         d="M 57 47 L 84 47 L 84 69 L 57 69 Z M 57 47 "
         id="path88" />
    </clipPath>
    <clipPath
       id="clip4">
      <path
         d="M 95 47 L 122 47 L 122 69 L 95 69 Z M 95 47 "
         id="path91" />
    </clipPath>
    <clipPath
       id="clip5">
      <path
         d="M 102 47 L 129 47 L 129 69 L 102 69 Z M 102 47 "
         id="path94" />
    </clipPath>
    <clipPath
       id="clip6">
      <path
         d="M 230 47 L 255 47 L 255 69 L 230 69 Z M 230 47 "
         id="path97" />
    </clipPath>
  </defs>
  <g
     id="surface1">
    <path
       style="fill:#ffffff;fill-opacity:1;fill-rule:nonzero;stroke:none"
       d="M 0,0 H 255 V 69 H 0 Z m 0,0"
       id="path102" />
    <path
       style="fill:#ffffff;fill-opacity:1;fill-rule:nonzero;stroke:#000000;stroke-width:1;stroke-linecap:butt;stroke-linejoin:miter;stroke-miterlimit:4;stroke-opacity:1"
       d="M 9,21.000001 H 89.000004 V 71.000003 H 9 Z m 0,0"
       transform="matrix(0.75,0,0,0.75,0.375,0.375)"
       id="path104" />
    <g
       style="fill:#000000;fill-opacity:1"
       id="g118">
      <use
         xlink:href="#glyph0-1"
         x="12.140624"
         y="40.499996"
         id="use106"
         width="100%"
         height="100%" />
      <use
         xlink:href="#glyph0-2"
         x="20.482908"
         y="40.499996"
         id="use108"
         width="100%"
         height="100%" />
      <use
         xlink:href="#glyph0-3"
         x="28.825193"
         y="40.499996"
         id="use110"
         width="100%"
         height="100%" />
      <use
         xlink:href="#glyph0-1"
         x="36.325195"
         y="40.499996"
         id="use112"
         width="100%"
         height="100%" />
      <use
         xlink:href="#glyph0-4"
         x="44.667477"
         y="40.499996"
         id="use114"
         width="100%"
         height="100%" />
      <use
         xlink:href="#glyph0-5"
         x="53.009762"
         y="40.499996"
         id="use116"
         width="100%"
         height="100%" />
    </g>
    <path
       style="fill:#ffffff;fill-opacity:1;fill-rule:nonzero;stroke:#000000;stroke-width:1;stroke-linecap:butt;stroke-linejoin:miter;stroke-miterlimit:4;stroke-opacity:1"
       d="M 89.000004,21.000001 H 149.00001 V 71.000003 H 89.000004 Z m 0,0"
       transform="matrix(0.75,0,0,0.75,0.375,0.375)"
       id="path120" />
    <g
       style="fill:#000000;fill-opacity:1"
       id="g124">
      <use
         xlink:href="#glyph0-6"
         x="79.324219"
         y="38.999996"
         id="use122"
         width="100%"
         height="100%" />
    </g>
    <g
       style="fill:#000000;fill-opacity:1"
       id="g128">
      <use
         xlink:href="#glyph1-1"
         x="90.152344"
         y="42.749996"
         id="use126"
         width="100%"
         height="100%" />
    </g>
    <path
       style="fill:#ffffff;fill-opacity:1;fill-rule:nonzero;stroke:#000000;stroke-width:1;stroke-linecap:butt;stroke-linejoin:miter;stroke-miterlimit:4;stroke-opacity:1"
       d="m 149.00001,21.000001 h 180 v 50.000002 h -180 z m 0,0"
       transform="matrix(0.75,0,0,0.75,0.375,0.375)"
       id="path130" />
    <g
       style="fill:#000000;fill-opacity:1"
       id="g150">
      <use
         xlink:href="#glyph0-7"
         x="152.57812"
         y="40.499996"
         id="use132"
         width="100%"
         height="100%" />
      <use
         xlink:href="#glyph0-8"
         x="155.91064"
         y="40.499996"
         id="use134"
         width="100%"
         height="100%" />
      <use
         xlink:href="#glyph0-9"
         x="164.25293"
         y="40.499996"
         id="use136"
         width="100%"
         height="100%" />
      <use
         xlink:href="#glyph0-10"
         x="176.74803"
         y="40.499996"
         id="use138"
         width="100%"
         height="100%" />
      <use
         xlink:href="#glyph0-11"
         x="180.91553"
         y="40.499996"
         id="use140"
         width="100%"
         height="100%" />
      <use
         xlink:href="#glyph0-10"
         x="185.08299"
         y="40.499996"
         id="use142"
         width="100%"
         height="100%" />
      <use
         xlink:href="#glyph0-4"
         x="189.25047"
         y="40.499996"
         id="use144"
         width="100%"
         height="100%" />
      <use
         xlink:href="#glyph0-7"
         x="197.59276"
         y="40.499996"
         id="use146"
         width="100%"
         height="100%" />
      <use
         xlink:href="#glyph0-12"
         x="200.92528"
         y="40.499996"
         id="use148"
         width="100%"
         height="100%" />
    </g>
    <path
       style="fill:none;stroke:#000000;stroke-width:1;stroke-linecap:butt;stroke-linejoin:miter;stroke-miterlimit:10;stroke-opacity:1"
       d="m 15.369792,81.000003 h 67.26042"
       transform="matrix(0.75,0,0,0.75,0.375,0.375)"
       id="path152" />
    <path
       style="fill:#000000;fill-opacity:1;fill-rule:nonzero;stroke:none"
       d="m 7.964844,61.125 5.25,-2.625 -1.3125,2.625 1.3125,2.625 z m 0,0"
       id="path154" />
    <g
       clip-path="url(#clip1)"
       clip-rule="nonzero"
       id="g158">
      <path
         style="fill:none;stroke:#000000;stroke-width:1;stroke-linecap:butt;stroke-linejoin:miter;stroke-miterlimit:10;stroke-opacity:1"
         d="m 10.119792,81.000003 7,-3.5 -1.75,3.5 1.75,3.500001 z m 0,0"
         transform="matrix(0.75,0,0,0.75,0.375,0.375)"
         id="path156" />
    </g>
    <path
       style="fill:#000000;fill-opacity:1;fill-rule:nonzero;stroke:none"
       d="m 66.285156,61.125 -5.25,2.625 1.3125,-2.625 -1.3125,-2.625 z m 0,0"
       id="path160" />
    <g
       clip-path="url(#clip2)"
       clip-rule="nonzero"
       id="g164">
      <path
         style="fill:none;stroke:#000000;stroke-width:1;stroke-linecap:butt;stroke-linejoin:miter;stroke-miterlimit:10;stroke-opacity:1"
         d="m 87.880212,81.000003 -7,3.500001 1.75,-3.500001 -1.75,-3.5 z m 0,0"
         transform="matrix(0.75,0,0,0.75,0.375,0.375)"
         id="path162" />
    </g>
    <path
       style="fill:#ffffff;fill-opacity:1;fill-rule:nonzero;stroke:none"
       d="M 33.75,55.5 H 40.5 V 69 h -6.75 z m 0,0"
       id="path166" />
    <g
       style="fill:#000000;fill-opacity:1"
       id="g170">
      <use
         xlink:href="#glyph2-1"
         x="33.996094"
         y="66"
         id="use168"
         width="100%"
         height="100%" />
    </g>
    <path
       style="fill:none;stroke:#000000;stroke-width:1;stroke-linecap:butt;stroke-linejoin:miter;stroke-miterlimit:10;stroke-opacity:1"
       d="M 95.369796,81.000003 H 142.63021"
       transform="matrix(0.75,0,0,0.75,0.375,0.375)"
       id="path172" />
    <path
       style="fill:#000000;fill-opacity:1;fill-rule:nonzero;stroke:none"
       d="m 67.964844,61.125 5.25,-2.625 -1.3125,2.625 1.3125,2.625 z m 0,0"
       id="path174" />
    <g
       clip-path="url(#clip3)"
       clip-rule="nonzero"
       id="g178">
      <path
         style="fill:none;stroke:#000000;stroke-width:1;stroke-linecap:butt;stroke-linejoin:miter;stroke-miterlimit:10;stroke-opacity:1"
         d="m 90.119795,81.000003 7.000001,-3.5 -1.75,3.5 1.75,3.500001 z m 0,0"
         transform="matrix(0.75,0,0,0.75,0.375,0.375)"
         id="path176" />
    </g>
    <path
       style="fill:#000000;fill-opacity:1;fill-rule:nonzero;stroke:none"
       d="m 111.28516,61.125 -5.25,2.625 1.3125,-2.625 -1.3125,-2.625 z m 0,0"
       id="path180" />
    <g
       clip-path="url(#clip4)"
       clip-rule="nonzero"
       id="g184">
      <path
         style="fill:none;stroke:#000000;stroke-width:1;stroke-linecap:butt;stroke-linejoin:miter;stroke-miterlimit:10;stroke-opacity:1"
         d="m 147.88021,81.000003 -7,3.500001 1.75,-3.500001 -1.75,-3.5 z m 0,0"
         transform="matrix(0.75,0,0,0.75,0.375,0.375)"
         id="path182" />
    </g>
    <path
       style="fill:#ffffff;fill-opacity:1;fill-rule:nonzero;stroke:none"
       d="M 86.25,54.75 H 93 v 13.5 h -6.75 z m 0,0"
       id="path186" />
    <g
       style="fill:#000000;fill-opacity:1"
       id="g190">
      <use
         xlink:href="#glyph2-2"
         x="86.496094"
         y="65.25"
         id="use188"
         width="100%"
         height="100%" />
    </g>
    <path
       style="fill:none;stroke:#000000;stroke-width:1;stroke-linecap:butt;stroke-linejoin:miter;stroke-miterlimit:10;stroke-opacity:1"
       d="M 155.3698,81.000003 H 322.63022"
       transform="matrix(0.75,0,0,0.75,0.375,0.375)"
       id="path192" />
    <path
       style="fill:#000000;fill-opacity:1;fill-rule:nonzero;stroke:none"
       d="m 112.96484,61.125 5.25,-2.625 -1.3125,2.625 1.3125,2.625 z m 0,0"
       id="path194" />
    <g
       clip-path="url(#clip5)"
       clip-rule="nonzero"
       id="g198">
      <path
         style="fill:none;stroke:#000000;stroke-width:1;stroke-linecap:butt;stroke-linejoin:miter;stroke-miterlimit:10;stroke-opacity:1"
         d="m 150.1198,81.000003 7,-3.5 -1.75,3.5 1.75,3.500001 z m 0,0"
         transform="matrix(0.75,0,0,0.75,0.375,0.375)"
         id="path196" />
    </g>
    <path
       style="fill:#000000;fill-opacity:1;fill-rule:nonzero;stroke:none"
       d="m 246.28516,61.125 -5.25,2.625 1.3125,-2.625 -1.3125,-2.625 z m 0,0"
       id="path200" />
    <g
       clip-path="url(#clip6)"
       clip-rule="nonzero"
       id="g204">
      <path
         style="fill:none;stroke:#000000;stroke-width:1;stroke-linecap:butt;stroke-linejoin:miter;stroke-miterlimit:10;stroke-opacity:1"
         d="m 327.88022,81.000003 -7,3.500001 1.75,-3.500001 -1.75,-3.5 z m 0,0"
         transform="matrix(0.75,0,0,0.75,0.375,0.375)"
         id="path202" />
    </g>
    <path
       style="fill:#ffffff;fill-opacity:1;fill-rule:nonzero;stroke:none"
       d="M 176.25,55.5 H 183 V 69 h -6.75 z m 0,0"
       id="path206" />
    <g
       style="fill:#000000;fill-opacity:1"
       id="g210">
      <use
         xlink:href="#glyph2-3"
         x="176.49609"
         y="66"
         id="use208"
         width="100%"
         height="100%" />
    </g>
    <g
       style="fill:#000000;fill-opacity:1"
       id="g216">
      <use
         xlink:href="#glyph3-1"
         x="9.6210928"
         y="12"
         id="use212"
         width="100%"
         height="100%" />
      <use
         xlink:href="#glyph3-2"
         x="14.626464"
         y="12"
         id="use214"
         width="100%"
         height="100%" />
    </g>
    <g
       style="fill:#000000;fill-opacity:1"
       id="g222">
      <use
         xlink:href="#glyph3-1"
         x="54.62109"
         y="12"
         id="use218"
         width="100%"
         height="100%" />
      <use
         xlink:href="#glyph3-3"
         x="59.626461"
         y="12"
         id="use220"
         width="100%"
         height="100%" />
    </g>
    <g
       style="fill:#000000;fill-opacity:1"
       id="g226">
      <use
         xlink:href="#glyph3-1"
         x="69.949219"
         y="12"
         id="use224"
         width="100%"
         height="100%" />
    </g>
    <g
       style="fill:#000000;fill-opacity:1"
       id="g230">
      <use
         xlink:href="#glyph3-1"
         x="74.286621"
         y="12"
         id="use228"
         width="100%"
         height="100%" />
    </g>
    <g
       style="fill:#000000;fill-opacity:1"
       id="g234">
      <use
         xlink:href="#glyph3-4"
         x="102.11718"
         y="12"
         id="use232"
         width="100%"
         height="100%" />
    </g>
    <g
       style="fill:#000000;fill-opacity:1"
       id="g238">
      <use
         xlink:href="#glyph3-5"
         x="117.11718"
         y="12"
         id="use236"
         width="100%"
         height="100%" />
    </g>
    <g
       style="fill:#000000;fill-opacity:1"
       id="g242">
      <use
         xlink:href="#glyph3-6"
         x="237.11717"
         y="12"
         id="use240"
         width="100%"
         height="100%" />
    </g>
  </g>
</svg>
