<?xml version="1.0" encoding="UTF-8" standalone="no"?>
<svg 
   width="133.919998pt"
   height="115.919998pt"
   viewBox="0 0 133.919998 115.919998"
   version="1.2"
   id="svg161"
   xmlns:xlink="http://www.w3.org/1999/xlink"
   xmlns="http://www.w3.org/2000/svg"
   xmlns:svg="http://www.w3.org/2000/svg" content="%3Cmxfile%20host%3D%22app.diagrams.net%22%20modified%3D%222022-02-03T13%3A49%3A48.786Z%22%20agent%3D%225.0%20(X11)%22%20etag%3D%22TPEHm5CIz69aT_4OJoVD%22%20version%3D%2216.5.3%22%20type%3D%22device%22%3E%3Cdiagram%20id%3D%22LugsOs8qBqzHdYUxeKKz%22%20name%3D%22Page-1%22%3E7Vlbd6I6FP41PuoCQlAeW2070zOzxnU8XXN5OSuViGmRMCFU7a%2BfBMI1WC%2BtTttVHlzJTtgJ37c3%2ByN2wHCxumIomn%2BlHg46luGtOmDUsSwIoPiVhnVmAABkBp8RLzOZpWFCHrEyGsqaEA%2FHtYmc0oCTqG6c0jDEU16zIcbosj5tRoP6qhHy1YpGaZhMUYC1ad%2BJx%2BfKahmV6Z8w8ef50m7uaIHy2coQz5FHlxUTuOiAIaOUZ63FaogDCV4OTHbf5YbRYmcMh3yXG85uwt9frib%2FkWDy69G9SZIL%2F9%2BuYuMBBYl6YrVZvs4hYDQJPSydGB1wvpwTjicRmsrRpeBc2OZ8EYieKZr6ptQ%2BHzDjeFUxqU1eYbrAnK3FFDVq2wowFTJW3l%2BWBLjKNK9Cn8cMUpz7hesSFdFQwOwBkq2B5JFQw0k8Hq%2BDgQLih6I9FWBgJgwSBCKC60wNLIjnydvPGY7JI7pNXUmUI0pCnj4GPO%2FAkfSVcBpn6XEsnB0dZ9CCs3UsmGELzOzdwQyMvwzzQIeZJvzt4%2Bw2wnmg42yfEmfT2v5uxaF3JquURDVAcUymdcgFHGz9Q6GYdn7KTs%2BGeX%2B0qo6O1tXeGDMinkVylRo3ooy9vApuwLiCIWzBMLcxHCBOHuq1sw1YtcJYxkWFQqNBYb%2FBTUwTNsXqrmqpazrSXm1ubyC8Fxeo%2B%2BWI%2BZhrflPaCxSeUT92qLLbIuG1cwdBA3L3QO6gs8XRy5E17CaP9Jri8R39de8M7QTdWV2gl6GnyAppiBs5uyI8TdkeVL2feVKKdpmvspOn612yiCbKv59qKrHEJZE7T8dj8dBcj4%2FUrKY9GSQZ%2BNt14GsJpkb%2BmocGkz2A9WBqvu2PHUyOFkxLvEOpjTmj93hIA8rKGJsJohum3Utym26vK%2FuXqMFOA%2B4WrXOsGrz856Y%2F7g%2BXn5xvn%2FuX7sMMBUGLpPwowU9mHnBlpayRCAz34CrcM6FbXv2n%2Fb5cLjrzKLrlBur%2FP%2FpsxrNbBJ3f3f3kmP5er2fLjIY8T8aOFPXyegME22ZTY8ED2bWaGguelM79NNW7pdPQ89U8lFFT%2BAJlug6cRr6eluDn6rD3QXBTClnugexC2%2B251avudnBacvst5DqBVEFENHzZWOQWsUBh1ELgpMcUu8qyvYNtD4llNCQW1CXWsY6TWpl0tzMZfjDZyqT26i6%2BdStkWqcks%2FXM6iMvd2Cz%2BKereXZ1gryEY2t0fxv48PuFE10b82v2Zdg1NSanwf3boGkD9i0M7X7qDv4yHS9wBFgXNMV3adfoGU7xMZp9nEJQfLru%2F3XaUD6tiZHJg23h91oOkoHdcLG7JN4QRs%2BWSaJb%2FvWbTS%2F%2FQAcXfwA%3D%3C%2Fdiagram%3E%3C%2Fmxfile%3E">
  <defs
     id="defs64">
    <g
       id="g50">
      <symbol
         overflow="visible"
         id="glyph0-0">
        <path
           style="stroke:none;"
           d=""
           id="path2" />
      </symbol>
      <symbol
         overflow="visible"
         id="glyph0-1">
        <path
           style="stroke:none;"
           d="M 3.609375 0 L 3.609375 -0.59375 C 3.316406 -0.125 2.882812 0.109375 2.3125 0.109375 C 1.9375 0.109375 1.59375 0.00390625 1.28125 -0.203125 C 0.976562 -0.410156 0.738281 -0.695312 0.5625 -1.0625 C 0.394531 -1.425781 0.3125 -1.847656 0.3125 -2.328125 C 0.3125 -2.785156 0.382812 -3.203125 0.53125 -3.578125 C 0.6875 -3.960938 0.921875 -4.253906 1.234375 -4.453125 C 1.546875 -4.660156 1.894531 -4.765625 2.28125 -4.765625 C 2.5625 -4.765625 2.8125 -4.703125 3.03125 -4.578125 C 3.25 -4.460938 3.425781 -4.3125 3.5625 -4.125 L 3.5625 -6.4375 L 4.34375 -6.4375 L 4.34375 0 Z M 1.125 -2.328125 C 1.125 -1.734375 1.25 -1.285156 1.5 -0.984375 C 1.75 -0.691406 2.046875 -0.546875 2.390625 -0.546875 C 2.734375 -0.546875 3.023438 -0.6875 3.265625 -0.96875 C 3.503906 -1.25 3.625 -1.679688 3.625 -2.265625 C 3.625 -2.898438 3.5 -3.363281 3.25 -3.65625 C 3.007812 -3.957031 2.707031 -4.109375 2.34375 -4.109375 C 2 -4.109375 1.707031 -3.960938 1.46875 -3.671875 C 1.238281 -3.390625 1.125 -2.941406 1.125 -2.328125 Z M 1.125 -2.328125 "
           id="path5" />
      </symbol>
      <symbol
         overflow="visible"
         id="glyph0-2">
        <path
           style="stroke:none;"
           d="M 0.59375 -5.515625 L 0.59375 -6.4375 L 1.390625 -6.4375 L 1.390625 -5.515625 Z M 0.59375 0 L 0.59375 -4.65625 L 1.390625 -4.65625 L 1.390625 0 Z M 0.59375 0 "
           id="path8" />
      </symbol>
      <symbol
         overflow="visible"
         id="glyph0-3">
        <path
           style="stroke:none;"
           d="M 0.59375 0 L 0.59375 -4.65625 L 1.296875 -4.65625 L 1.296875 -4 C 1.640625 -4.507812 2.132812 -4.765625 2.78125 -4.765625 C 3.0625 -4.765625 3.316406 -4.710938 3.546875 -4.609375 C 3.785156 -4.515625 3.960938 -4.382812 4.078125 -4.21875 C 4.203125 -4.050781 4.285156 -3.851562 4.328125 -3.625 C 4.359375 -3.476562 4.375 -3.222656 4.375 -2.859375 L 4.375 0 L 3.59375 0 L 3.59375 -2.828125 C 3.59375 -3.148438 3.5625 -3.390625 3.5 -3.546875 C 3.4375 -3.710938 3.328125 -3.84375 3.171875 -3.9375 C 3.015625 -4.03125 2.832031 -4.078125 2.625 -4.078125 C 2.28125 -4.078125 1.984375 -3.96875 1.734375 -3.75 C 1.492188 -3.539062 1.375 -3.140625 1.375 -2.546875 L 1.375 0 Z M 0.59375 0 "
           id="path11" />
      </symbol>
      <symbol
         overflow="visible"
         id="glyph0-4">
        <path
           style="stroke:none;"
           d="M 0.578125 0 L 0.578125 -4.65625 L 1.296875 -4.65625 L 1.296875 -3.953125 C 1.472656 -4.285156 1.640625 -4.503906 1.796875 -4.609375 C 1.953125 -4.710938 2.117188 -4.765625 2.296875 -4.765625 C 2.566406 -4.765625 2.835938 -4.679688 3.109375 -4.515625 L 2.84375 -3.78125 C 2.644531 -3.894531 2.453125 -3.953125 2.265625 -3.953125 C 2.085938 -3.953125 1.929688 -3.898438 1.796875 -3.796875 C 1.660156 -3.691406 1.5625 -3.546875 1.5 -3.359375 C 1.414062 -3.078125 1.375 -2.769531 1.375 -2.4375 L 1.375 0 Z M 0.578125 0 "
           id="path14" />
      </symbol>
      <symbol
         overflow="visible"
         id="glyph0-5">
        <path
           style="stroke:none;"
           d="M 0.296875 -2.328125 C 0.296875 -3.191406 0.535156 -3.832031 1.015625 -4.25 C 1.421875 -4.59375 1.910156 -4.765625 2.484375 -4.765625 C 3.117188 -4.765625 3.640625 -4.550781 4.046875 -4.125 C 4.453125 -3.707031 4.65625 -3.128906 4.65625 -2.390625 C 4.65625 -1.796875 4.566406 -1.328125 4.390625 -0.984375 C 4.210938 -0.640625 3.953125 -0.367188 3.609375 -0.171875 C 3.265625 0.015625 2.890625 0.109375 2.484375 0.109375 C 1.828125 0.109375 1.296875 -0.0976562 0.890625 -0.515625 C 0.492188 -0.941406 0.296875 -1.546875 0.296875 -2.328125 Z M 1.109375 -2.328125 C 1.109375 -1.734375 1.238281 -1.285156 1.5 -0.984375 C 1.757812 -0.691406 2.085938 -0.546875 2.484375 -0.546875 C 2.878906 -0.546875 3.207031 -0.691406 3.46875 -0.984375 C 3.726562 -1.285156 3.859375 -1.742188 3.859375 -2.359375 C 3.859375 -2.929688 3.722656 -3.363281 3.453125 -3.65625 C 3.191406 -3.957031 2.867188 -4.109375 2.484375 -4.109375 C 2.085938 -4.109375 1.757812 -3.957031 1.5 -3.65625 C 1.238281 -3.363281 1.109375 -2.921875 1.109375 -2.328125 Z M 1.109375 -2.328125 "
           id="path17" />
      </symbol>
      <symbol
         overflow="visible"
         id="glyph0-6">
        <path
           style="stroke:none;"
           d="M 3.640625 0 L 3.640625 -0.6875 C 3.273438 -0.15625 2.785156 0.109375 2.171875 0.109375 C 1.890625 0.109375 1.628906 0.0546875 1.390625 -0.046875 C 1.160156 -0.148438 0.984375 -0.28125 0.859375 -0.4375 C 0.742188 -0.601562 0.664062 -0.800781 0.625 -1.03125 C 0.59375 -1.1875 0.578125 -1.429688 0.578125 -1.765625 L 0.578125 -4.65625 L 1.359375 -4.65625 L 1.359375 -2.078125 C 1.359375 -1.660156 1.375 -1.378906 1.40625 -1.234375 C 1.457031 -1.035156 1.5625 -0.875 1.71875 -0.75 C 1.882812 -0.632812 2.085938 -0.578125 2.328125 -0.578125 C 2.566406 -0.578125 2.785156 -0.632812 2.984375 -0.75 C 3.191406 -0.875 3.335938 -1.039062 3.421875 -1.25 C 3.515625 -1.457031 3.5625 -1.757812 3.5625 -2.15625 L 3.5625 -4.65625 L 4.359375 -4.65625 L 4.359375 0 Z M 3.640625 0 "
           id="path20" />
      </symbol>
      <symbol
         overflow="visible"
         id="glyph0-7">
        <path
           style="stroke:none;"
           d="M 2.3125 -0.703125 L 2.4375 -0.015625 C 2.207031 0.0351562 2.003906 0.0625 1.828125 0.0625 C 1.546875 0.0625 1.328125 0.0195312 1.171875 -0.0625 C 1.015625 -0.15625 0.898438 -0.273438 0.828125 -0.421875 C 0.765625 -0.578125 0.734375 -0.890625 0.734375 -1.359375 L 0.734375 -4.046875 L 0.15625 -4.046875 L 0.15625 -4.65625 L 0.734375 -4.65625 L 0.734375 -5.8125 L 1.515625 -6.28125 L 1.515625 -4.65625 L 2.3125 -4.65625 L 2.3125 -4.046875 L 1.515625 -4.046875 L 1.515625 -1.328125 C 1.515625 -1.097656 1.53125 -0.953125 1.5625 -0.890625 C 1.59375 -0.828125 1.640625 -0.773438 1.703125 -0.734375 C 1.765625 -0.691406 1.851562 -0.671875 1.96875 -0.671875 C 2.050781 -0.671875 2.164062 -0.679688 2.3125 -0.703125 Z M 2.3125 -0.703125 "
           id="path23" />
      </symbol>
      <symbol
         overflow="visible"
         id="glyph0-8">
        <path
           style="stroke:none;"
           d="M 1.453125 0 L 0.03125 -4.65625 L 0.84375 -4.65625 L 1.578125 -1.96875 L 1.859375 -0.96875 C 1.867188 -1.019531 1.945312 -1.34375 2.09375 -1.9375 L 2.84375 -4.65625 L 3.65625 -4.65625 L 4.359375 -1.953125 L 4.578125 -1.0625 L 4.859375 -1.96875 L 5.65625 -4.65625 L 6.421875 -4.65625 L 4.96875 0 L 4.140625 0 L 3.40625 -2.796875 L 3.21875 -3.578125 L 2.28125 0 Z M 1.453125 0 "
           id="path26" />
      </symbol>
      <symbol
         overflow="visible"
         id="glyph0-9">
        <path
           style="stroke:none;"
           d="M 3.78125 -1.5 L 4.59375 -1.40625 C 4.46875 -0.925781 4.226562 -0.550781 3.875 -0.28125 C 3.53125 -0.0195312 3.085938 0.109375 2.546875 0.109375 C 1.867188 0.109375 1.328125 -0.0976562 0.921875 -0.515625 C 0.523438 -0.941406 0.328125 -1.535156 0.328125 -2.296875 C 0.328125 -3.078125 0.53125 -3.679688 0.9375 -4.109375 C 1.34375 -4.546875 1.863281 -4.765625 2.5 -4.765625 C 3.125 -4.765625 3.632812 -4.550781 4.03125 -4.125 C 4.425781 -3.695312 4.625 -3.101562 4.625 -2.34375 C 4.625 -2.289062 4.625 -2.21875 4.625 -2.125 L 1.140625 -2.125 C 1.171875 -1.613281 1.316406 -1.222656 1.578125 -0.953125 C 1.835938 -0.679688 2.160156 -0.546875 2.546875 -0.546875 C 2.835938 -0.546875 3.085938 -0.617188 3.296875 -0.765625 C 3.503906 -0.921875 3.664062 -1.164062 3.78125 -1.5 Z M 1.1875 -2.78125 L 3.796875 -2.78125 C 3.753906 -3.164062 3.648438 -3.457031 3.484375 -3.65625 C 3.234375 -3.957031 2.910156 -4.109375 2.515625 -4.109375 C 2.148438 -4.109375 1.84375 -3.988281 1.59375 -3.75 C 1.351562 -3.507812 1.21875 -3.1875 1.1875 -2.78125 Z M 1.1875 -2.78125 "
           id="path29" />
      </symbol>
      <symbol
         overflow="visible"
         id="glyph0-10">
        <path
           style="stroke:none;"
           d="M 3.625 -1.703125 L 4.40625 -1.609375 C 4.320312 -1.066406 4.101562 -0.644531 3.75 -0.34375 C 3.40625 -0.0390625 2.976562 0.109375 2.46875 0.109375 C 1.832031 0.109375 1.316406 -0.0976562 0.921875 -0.515625 C 0.535156 -0.929688 0.34375 -1.53125 0.34375 -2.3125 C 0.34375 -2.8125 0.425781 -3.25 0.59375 -3.625 C 0.757812 -4.007812 1.015625 -4.296875 1.359375 -4.484375 C 1.703125 -4.671875 2.070312 -4.765625 2.46875 -4.765625 C 2.976562 -4.765625 3.394531 -4.632812 3.71875 -4.375 C 4.039062 -4.125 4.242188 -3.765625 4.328125 -3.296875 L 3.5625 -3.171875 C 3.488281 -3.484375 3.359375 -3.71875 3.171875 -3.875 C 2.992188 -4.03125 2.769531 -4.109375 2.5 -4.109375 C 2.101562 -4.109375 1.78125 -3.96875 1.53125 -3.6875 C 1.28125 -3.40625 1.15625 -2.953125 1.15625 -2.328125 C 1.15625 -1.703125 1.273438 -1.25 1.515625 -0.96875 C 1.753906 -0.6875 2.070312 -0.546875 2.46875 -0.546875 C 2.769531 -0.546875 3.023438 -0.640625 3.234375 -0.828125 C 3.441406 -1.015625 3.570312 -1.304688 3.625 -1.703125 Z M 3.625 -1.703125 "
           id="path32" />
      </symbol>
      <symbol
         overflow="visible"
         id="glyph0-11">
        <path
           style="stroke:none;"
           d="M 0.578125 0 L 0.578125 -6.4375 L 1.359375 -6.4375 L 1.359375 0 Z M 0.578125 0 "
           id="path35" />
      </symbol>
      <symbol
         overflow="visible"
         id="glyph0-12">
        <path
           style="stroke:none;"
           d="M 0.59375 0 L 0.59375 -6.4375 L 1.390625 -6.4375 L 1.390625 -2.765625 L 3.25 -4.65625 L 4.28125 -4.65625 L 2.5 -2.9375 L 4.453125 0 L 3.484375 0 L 1.9375 -2.375 L 1.390625 -1.84375 L 1.390625 0 Z M 0.59375 0 "
           id="path38" />
      </symbol>
      <symbol
         overflow="visible"
         id="glyph1-0">
        <path
           style="stroke:none;"
           d=""
           id="path41" />
      </symbol>
      <symbol
         overflow="visible"
         id="glyph1-1">
        <path
           style="stroke:none;"
           d="M 0.296875 0 L 1.265625 -4.65625 L 2.0625 -4.65625 L 1.90625 -3.890625 C 2.195312 -4.222656 2.457031 -4.453125 2.6875 -4.578125 C 2.925781 -4.703125 3.179688 -4.765625 3.453125 -4.765625 C 3.734375 -4.765625 3.972656 -4.6875 4.171875 -4.53125 C 4.367188 -4.375 4.5 -4.160156 4.5625 -3.890625 C 4.789062 -4.179688 5.035156 -4.398438 5.296875 -4.546875 C 5.566406 -4.691406 5.847656 -4.765625 6.140625 -4.765625 C 6.523438 -4.765625 6.8125 -4.671875 7 -4.484375 C 7.195312 -4.304688 7.296875 -4.050781 7.296875 -3.71875 C 7.296875 -3.570312 7.265625 -3.332031 7.203125 -3 L 6.578125 0 L 5.78125 0 L 6.421875 -3.078125 C 6.472656 -3.328125 6.5 -3.507812 6.5 -3.625 C 6.5 -3.769531 6.453125 -3.882812 6.359375 -3.96875 C 6.265625 -4.0625 6.128906 -4.109375 5.953125 -4.109375 C 5.710938 -4.109375 5.46875 -4.035156 5.21875 -3.890625 C 4.976562 -3.753906 4.789062 -3.566406 4.65625 -3.328125 C 4.519531 -3.097656 4.398438 -2.742188 4.296875 -2.265625 L 3.828125 0 L 3.03125 0 L 3.6875 -3.140625 C 3.726562 -3.359375 3.75 -3.515625 3.75 -3.609375 C 3.75 -3.753906 3.703125 -3.875 3.609375 -3.96875 C 3.515625 -4.0625 3.390625 -4.109375 3.234375 -4.109375 C 3.015625 -4.109375 2.78125 -4.035156 2.53125 -3.890625 C 2.28125 -3.753906 2.078125 -3.554688 1.921875 -3.296875 C 1.773438 -3.035156 1.648438 -2.671875 1.546875 -2.203125 L 1.09375 0 Z M 0.296875 0 "
           id="path44" />
      </symbol>
      <symbol
         overflow="visible"
         id="glyph1-2">
        <path
           style="stroke:none;"
           d="M 0.296875 0 L 1.265625 -4.65625 L 1.984375 -4.65625 L 1.828125 -3.84375 C 2.140625 -4.164062 2.429688 -4.398438 2.703125 -4.546875 C 2.972656 -4.691406 3.25 -4.765625 3.53125 -4.765625 C 3.90625 -4.765625 4.203125 -4.660156 4.421875 -4.453125 C 4.640625 -4.253906 4.75 -3.984375 4.75 -3.640625 C 4.75 -3.460938 4.707031 -3.191406 4.625 -2.828125 L 4.03125 0 L 3.234375 0 L 3.859375 -2.953125 C 3.921875 -3.234375 3.953125 -3.445312 3.953125 -3.59375 C 3.953125 -3.75 3.894531 -3.875 3.78125 -3.96875 C 3.675781 -4.0625 3.523438 -4.109375 3.328125 -4.109375 C 2.921875 -4.109375 2.554688 -3.960938 2.234375 -3.671875 C 1.921875 -3.378906 1.691406 -2.878906 1.546875 -2.171875 L 1.09375 0 Z M 0.296875 0 "
           id="path47" />
      </symbol>
    </g>
    <clipPath
       id="clip1">
      <path
         d="M 0 0 L 133.921875 0 L 133.921875 115.285156 L 0 115.285156 Z M 0 0 "
         id="path52" />
    </clipPath>
    <clipPath
       id="clip2">
      <path
         d="M 109 55 L 133.921875 55 L 133.921875 82 L 109 82 Z M 109 55 "
         id="path55" />
    </clipPath>
    <clipPath
       id="clip3">
      <path
         d="M 0 95 L 41 95 L 41 114.535156 L 0 114.535156 Z M 0 95 "
         id="path58" />
    </clipPath>
    <clipPath
       id="clip4">
      <path
         d="M 18 93 L 45 93 L 45 114.535156 L 18 114.535156 Z M 18 93 "
         id="path61" />
    </clipPath>
  </defs>
  <g
     id="surface1">
    <g
       clip-path="url(#clip1)"
       clip-rule="nonzero"
       id="g68">
      <path
         style="fill:#ffffff;fill-opacity:1;fill-rule:nonzero;stroke:none"
         d="M 0,0 H 134 V 115.28516 H 0 Z m 0,0"
         id="path66" />
    </g>
    <path
       style="fill:#ffffff;fill-opacity:1;fill-rule:nonzero;stroke:#000000;stroke-width:1;stroke-linecap:butt;stroke-linejoin:miter;stroke-miterlimit:4;stroke-opacity:1"
       d="M 48.001784,40.999159 H 137.99751 V 151.00089 H 48.001784 Z m 0,0"
       transform="matrix(0.748603,0,0,0.748603,0.374302,0.374302)"
       id="path70" />
    <g
       style="fill:#000000;fill-opacity:1"
       id="g78">
      <use
         xlink:href="#glyph0-1"
         x="41.547482"
         y="56.145245"
         id="use72"
         width="100%"
         height="100%" />
      <use
         xlink:href="#glyph0-2"
         x="46.54353"
         y="56.145245"
         id="use74"
         width="100%"
         height="100%" />
      <use
         xlink:href="#glyph0-3"
         x="48.539318"
         y="56.145245"
         id="use76"
         width="100%"
         height="100%" />
    </g>
    <g
       style="fill:#000000;fill-opacity:1"
       id="g86">
      <use
         xlink:href="#glyph0-1"
         x="42.541721"
         y="86.089378"
         id="use80"
         width="100%"
         height="100%" />
      <use
         xlink:href="#glyph0-2"
         x="47.537769"
         y="86.089378"
         id="use82"
         width="100%"
         height="100%" />
      <use
         xlink:href="#glyph0-4"
         x="49.533558"
         y="86.089378"
         id="use84"
         width="100%"
         height="100%" />
    </g>
    <g
       style="fill:#000000;fill-opacity:1"
       id="g96">
      <use
         xlink:href="#glyph0-1"
         x="79.971886"
         y="71.11731"
         id="use88"
         width="100%"
         height="100%" />
      <use
         xlink:href="#glyph0-5"
         x="84.967934"
         y="71.11731"
         id="use90"
         width="100%"
         height="100%" />
      <use
         xlink:href="#glyph0-6"
         x="89.963982"
         y="71.11731"
         id="use92"
         width="100%"
         height="100%" />
      <use
         xlink:href="#glyph0-7"
         x="94.96003"
         y="71.11731"
         id="use94"
         width="100%"
         height="100%" />
    </g>
    <path
       style="fill:none;stroke:#000000;stroke-width:1;stroke-linecap:butt;stroke-linejoin:miter;stroke-miterlimit:10;stroke-opacity:1"
       d="M 8.000205,70.997735 41.630544,70.872501"
       transform="matrix(0.748603,0,0,0.748603,0.374302,0.374302)"
       id="path98" />
    <path
       style="fill:#000000;fill-opacity:1;fill-rule:nonzero;stroke:#000000;stroke-width:1;stroke-linecap:butt;stroke-linejoin:miter;stroke-miterlimit:10;stroke-opacity:1"
       d="m 46.879903,70.841193 -6.981752,3.527402 1.732393,-3.496094 -1.758484,-3.501312 z m 0,0"
       transform="matrix(0.748603,0,0,0.748603,0.374302,0.374302)"
       id="path100" />
    <path
       style="fill:none;stroke:#000000;stroke-width:1;stroke-linecap:butt;stroke-linejoin:miter;stroke-miterlimit:10;stroke-opacity:1"
       d="m 137.99751,90.998524 h 23.63255"
       transform="matrix(0.748603,0,0,0.748603,0.374302,0.374302)"
       id="path102" />
    <path
       style="fill:#000000;fill-opacity:1;fill-rule:nonzero;stroke:none"
       d="m 125.30078,68.496094 -5.23828,2.621094 1.30859,-2.621094 -1.30859,-2.617188 z m 0,0"
       id="path104" />
    <g
       clip-path="url(#clip2)"
       clip-rule="nonzero"
       id="g108">
      <path
         style="fill:none;stroke:#000000;stroke-width:1;stroke-linecap:butt;stroke-linejoin:miter;stroke-miterlimit:10;stroke-opacity:1"
         d="m 166.87942,90.998524 -6.99741,3.501312 1.74805,-3.501312 -1.74805,-3.496094 z m 0,0"
         transform="matrix(0.748603,0,0,0.748603,0.374302,0.374302)"
         id="path106" />
    </g>
    <path
       style="fill:none;stroke:#000000;stroke-width:1;stroke-linecap:butt;stroke-linejoin:miter;stroke-miterlimit:10;stroke-opacity:1"
       d="M 93.002256,34.627919 V 20.99837"
       transform="matrix(0.748603,0,0,0.748603,0.374302,0.374302)"
       id="path110" />
    <path
       style="fill:#000000;fill-opacity:1;fill-rule:nonzero;stroke:#000000;stroke-width:1;stroke-linecap:butt;stroke-linejoin:miter;stroke-miterlimit:10;stroke-opacity:1"
       d="m 93.002256,39.882497 -3.501313,-7.002625 3.501313,1.748047 3.496094,-1.748047 z m 0,0"
       transform="matrix(0.748603,0,0,0.748603,0.374302,0.374302)"
       id="path112" />
    <g
       style="fill:#000000;fill-opacity:1"
       id="g118">
      <use
         xlink:href="#glyph0-8"
         x="63.876911"
         y="11.229049"
         id="use114"
         width="100%"
         height="100%" />
      <use
         xlink:href="#glyph0-9"
         x="70.364319"
         y="11.229049"
         id="use116"
         width="100%"
         height="100%" />
    </g>
    <path
       style="fill:none;stroke:#000000;stroke-width:1;stroke-linecap:butt;stroke-linejoin:miter;stroke-miterlimit:10;stroke-opacity:1"
       d="M 7.838445,109.99745 H 41.792303"
       transform="matrix(0.748603,0,0,0.748603,0.374302,0.374302)"
       id="path120" />
    <path
       style="fill:#000000;fill-opacity:1;fill-rule:nonzero;stroke:#000000;stroke-width:1;stroke-linecap:butt;stroke-linejoin:miter;stroke-miterlimit:10;stroke-opacity:1"
       d="m 47.041662,109.99745 -7.002624,3.50131 1.753265,-3.50131 -1.753265,-3.4961 z m 0,0"
       transform="matrix(0.748603,0,0,0.748603,0.374302,0.374302)"
       id="path122" />
    <path
       style="fill:none;stroke:#000000;stroke-width:1;stroke-linecap:butt;stroke-linejoin:miter;stroke-miterlimit:10;stroke-opacity:1"
       d="M 17.997991,76.001845 28.000994,65.998842"
       transform="matrix(0.748603,0,0,0.748603,0.374302,0.374302)"
       id="path124" />
    <path
       style="fill:none;stroke:#000000;stroke-width:1;stroke-linecap:butt;stroke-linejoin:miter;stroke-miterlimit:10;stroke-opacity:1"
       d="m 17.841449,115.99821 9.997786,-9.99779"
       transform="matrix(0.748603,0,0,0.748603,0.374302,0.374302)"
       id="path126" />
    <path
       style="fill:none;stroke:#000000;stroke-width:1;stroke-linecap:butt;stroke-linejoin:miter;stroke-miterlimit:10;stroke-opacity:1"
       d="m 148.00051,95.997417 9.99779,-9.997786"
       transform="matrix(0.748603,0,0,0.748603,0.374302,0.374302)"
       id="path128" />
    <g
       style="fill:#000000;fill-opacity:1"
       id="g132">
      <use
         xlink:href="#glyph1-1"
         x="17.592176"
         y="48.65921"
         id="use130"
         width="100%"
         height="100%" />
    </g>
    <g
       style="fill:#000000;fill-opacity:1"
       id="g136">
      <use
         xlink:href="#glyph1-2"
         x="18.83205"
         y="78.60334"
         id="use134"
         width="100%"
         height="100%" />
    </g>
    <g
       style="fill:#000000;fill-opacity:1"
       id="g140">
      <use
         xlink:href="#glyph1-1"
         x="114.9106"
         y="63.631279"
         id="use138"
         width="100%"
         height="100%" />
    </g>
    <g
       style="fill:#000000;fill-opacity:1"
       id="g148">
      <use
         xlink:href="#glyph0-10"
         x="42.050449"
         y="108.54747"
         id="use142"
         width="100%"
         height="100%" />
      <use
         xlink:href="#glyph0-11"
         x="46.542068"
         y="108.54747"
         id="use144"
         width="100%"
         height="100%" />
      <use
         xlink:href="#glyph0-12"
         x="48.537857"
         y="108.54747"
         id="use146"
         width="100%"
         height="100%" />
    </g>
    <g
       clip-path="url(#clip3)"
       clip-rule="nonzero"
       id="g152">
      <path
         style="fill:none;stroke:#000000;stroke-width:1;stroke-linecap:butt;stroke-linejoin:miter;stroke-miterlimit:10;stroke-opacity:1"
         d="m 8.000205,141.99975 31.678788,-0.3183"
         transform="matrix(0.748603,0,0,0.748603,0.374302,0.374302)"
         id="path150" />
    </g>
    <path
       style="fill:#000000;fill-opacity:1;fill-rule:nonzero;stroke:none"
       d="m 34.007812,106.39844 -5.210937,2.67187 1.28125,-2.63281 -1.332031,-2.60547 z m 0,0"
       id="path154" />
    <g
       clip-path="url(#clip4)"
       clip-rule="nonzero"
       id="g158">
      <path
         style="fill:none;stroke:#000000;stroke-width:1;stroke-linecap:butt;stroke-linejoin:miter;stroke-miterlimit:10;stroke-opacity:1"
         d="m 44.928352,141.62927 -6.96088,3.56915 1.711521,-3.51697 -1.779356,-3.48044 z m 0,0"
         transform="matrix(0.748603,0,0,0.748603,0.374302,0.374302)"
         id="path156" />
    </g>
  </g>
</svg>
