<?xml version="1.0" encoding="UTF-8" standalone="no"?>
<svg 
   width="174pt"
   height="93.119995pt"
   viewBox="0 0 174 93.119995"
   version="1.2"
   id="svg409"
   xmlns:xlink="http://www.w3.org/1999/xlink"
   xmlns="http://www.w3.org/2000/svg"
   xmlns:svg="http://www.w3.org/2000/svg" content="%3Cmxfile%20host%3D%22app.diagrams.net%22%20modified%3D%222022-02-20T18%3A48%3A34.409Z%22%20agent%3D%225.0%20(Windows)%22%20etag%3D%22YQGi5h9ahhdUDsWWSwEZ%22%20version%3D%2216.6.1%22%20type%3D%22device%22%3E%3Cdiagram%20id%3D%22OK9fX_hb1_C6Rmn0X55P%22%20name%3D%22Page-1%22%3E7Zvdc6IwEMD%2FGh%2Fb4UMUH1ux7dy0c706nV7vpZNCxMwB8UKs2r%2F%2BggQkCXqnB9gePkk2YYH97eZjEzvmMFxeEzCb3mEPBh1D85Yd0%2BkYhq5bGvtJJKtU0uvpqcAnyOONNoIxeodcyO%2Fz58iDsdCQYhxQNBOFLo4i6FJBBgjBC7HZBAfiU2fA50%2FUNoKxCwKoNHtCHp2mUtsqtL6ByJ9mT9Y1XhOCrDEXxFPg4UVBZI465pBgTNOrcDmEQWK8zC7pfVdbavMXIzCif3MDcL6ddV9ufj1PnBEeDV9uvji3Z1zLGwjm%2FIMfh%2Fx16SqzAcHzyIOJGq1jXi6miMLxDLhJ7YJRZ7IpDQNW0tml%2BlrZMyChcFkQ8de8hjiElKxYE15ralZ6C%2FcZm1twsQHQ4y2mRdtnlgacuZ9r3piFXXDL7GElQ7GSYiMYeReJu7GSG4A4Rq5oFtGGzDZk9b1YeE4K54aVlZ1lsdZZ8dJW61JAfEj%2FTBp6PtzJoGDkzMmLRs5kBAaAojcxSsoMz59wjxF74xxxznSVx42oIsZz4kJ%2BV9GrJUWmLirqSXpSuyh61m6Qf%2FXhnmHu5RkRjuAut9hK98NQ60rUrMOoGQMJv2Y1iq2rYOsq3FhnRUVYIEB%2BlAQ4wwMJEyRdGmJjxQWvCJHnJbdfEhijd%2FC6VpWAnSUfsv4067JjOYmuOcVxOtolqmNK8E84xAEmGz%2BZoCCQRBX0rnLoDdTe1Shxodo6V0thgWcum0e0B4gpB4NKpCyoayPSa2q467d2uOsfONwpHWfD411fcY0fV%2B0JVGuL8QtOZDYZqHbVgfrRJyBmv3zs2nvWONitp%2BYoGrSdWz7E%2FSs4RVHN5LLVRpvRDc5tvSp6qq66AaoZj7YB1CsEWKKrboCVJ2M%2BHUCzqs5TVlQ3uv2yJf8jum5V6GRFdaNTMyatQ1dht1miq26AapqlbQCtCgGW6KobYOVZmU8H8NCkiUJPVlQ3OjVr0jZ0dlXoZEV1o2t9ikW3K%2Bw2S3TVDDDLvRUA3g%2FHxFUofsik5QRHlJ%2BJ0KvaXJeYlGyuN7rZkH9BMcJ6IEyOFUSvcfLzAP0ngugn2RFqgFnJll2vUWbqGvzJYUGlnwjt2MNrFpG61l4j0k6I5CMnR0OkrqnvYHjq6QRIhgqp3ygkdd388KC1ewIhns7Ls4hHm0GUrYzFGQSr9VDUamq2LVLrHpta2aJYplZCkbSbohR71rEpquvji9vHrzN1ldwaRNtO6BxtmqGeNlgjOk3WlXzgsRBlI6iM6DRZV%2FJ%2B1SNixc2fMNK00%2BavLOboNw%3D%3D%3C%2Fdiagram%3E%3C%2Fmxfile%3E">
  <defs
     id="defs124">
    <g
       id="g113">
      <symbol
         overflow="visible"
         id="glyph0-0">
        <path
           style="stroke:none;"
           d=""
           id="path2" />
      </symbol>
      <symbol
         overflow="visible"
         id="glyph0-1">
        <path
           style="stroke:none;"
           d="M 4.90625 -6.421875 L 5.75 -6.421875 L 5.75 -2.703125 C 5.75 -2.066406 5.675781 -1.554688 5.53125 -1.171875 C 5.382812 -0.796875 5.117188 -0.488281 4.734375 -0.25 C 4.359375 -0.0078125 3.863281 0.109375 3.25 0.109375 C 2.644531 0.109375 2.148438 0.00390625 1.765625 -0.203125 C 1.390625 -0.410156 1.117188 -0.707031 0.953125 -1.09375 C 0.785156 -1.488281 0.703125 -2.023438 0.703125 -2.703125 L 0.703125 -6.421875 L 1.546875 -6.421875 L 1.546875 -2.71875 C 1.546875 -2.15625 1.597656 -1.742188 1.703125 -1.484375 C 1.804688 -1.222656 1.984375 -1.019531 2.234375 -0.875 C 2.492188 -0.726562 2.804688 -0.65625 3.171875 -0.65625 C 3.796875 -0.65625 4.238281 -0.796875 4.5 -1.078125 C 4.769531 -1.359375 4.90625 -1.90625 4.90625 -2.71875 Z M 4.90625 -6.421875 "
           id="path5" />
      </symbol>
      <symbol
         overflow="visible"
         id="glyph0-2">
        <path
           style="stroke:none;"
           d="M 5.265625 -2.25 L 6.125 -2.03125 C 5.945312 -1.332031 5.625 -0.800781 5.15625 -0.4375 C 4.695312 -0.0703125 4.132812 0.109375 3.46875 0.109375 C 2.769531 0.109375 2.203125 -0.03125 1.765625 -0.3125 C 1.335938 -0.59375 1.007812 -1 0.78125 -1.53125 C 0.5625 -2.070312 0.453125 -2.648438 0.453125 -3.265625 C 0.453125 -3.929688 0.578125 -4.507812 0.828125 -5 C 1.085938 -5.5 1.453125 -5.878906 1.921875 -6.140625 C 2.390625 -6.398438 2.910156 -6.53125 3.484375 -6.53125 C 4.117188 -6.53125 4.65625 -6.363281 5.09375 -6.03125 C 5.53125 -5.707031 5.835938 -5.25 6.015625 -4.65625 L 5.171875 -4.46875 C 5.023438 -4.925781 4.8125 -5.257812 4.53125 -5.46875 C 4.25 -5.6875 3.890625 -5.796875 3.453125 -5.796875 C 2.960938 -5.796875 2.550781 -5.675781 2.21875 -5.4375 C 1.882812 -5.207031 1.648438 -4.890625 1.515625 -4.484375 C 1.390625 -4.085938 1.328125 -3.679688 1.328125 -3.265625 C 1.328125 -2.710938 1.40625 -2.234375 1.5625 -1.828125 C 1.71875 -1.421875 1.960938 -1.117188 2.296875 -0.921875 C 2.640625 -0.722656 3.003906 -0.625 3.390625 -0.625 C 3.867188 -0.625 4.269531 -0.757812 4.59375 -1.03125 C 4.925781 -1.300781 5.148438 -1.707031 5.265625 -2.25 Z M 5.265625 -2.25 "
           id="path8" />
      </symbol>
      <symbol
         overflow="visible"
         id="glyph0-3">
        <path
           style="stroke:none;"
           d="M 2.90625 0 L 2.90625 -1.53125 L 0.109375 -1.53125 L 0.109375 -2.265625 L 3.046875 -6.421875 L 3.6875 -6.421875 L 3.6875 -2.265625 L 4.546875 -2.265625 L 4.546875 -1.53125 L 3.6875 -1.53125 L 3.6875 0 Z M 2.90625 -2.265625 L 2.90625 -5.15625 L 0.890625 -2.265625 Z M 2.90625 -2.265625 "
           id="path11" />
      </symbol>
      <symbol
         overflow="visible"
         id="glyph0-4">
        <path
           style="stroke:none;"
           d="M 0.296875 -2.328125 C 0.296875 -3.191406 0.535156 -3.828125 1.015625 -4.234375 C 1.410156 -4.578125 1.898438 -4.75 2.484375 -4.75 C 3.117188 -4.75 3.640625 -4.539062 4.046875 -4.125 C 4.453125 -3.707031 4.65625 -3.128906 4.65625 -2.390625 C 4.65625 -1.796875 4.5625 -1.328125 4.375 -0.984375 C 4.195312 -0.640625 3.9375 -0.367188 3.59375 -0.171875 C 3.257812 0.015625 2.890625 0.109375 2.484375 0.109375 C 1.828125 0.109375 1.296875 -0.0976562 0.890625 -0.515625 C 0.492188 -0.929688 0.296875 -1.535156 0.296875 -2.328125 Z M 1.109375 -2.328125 C 1.109375 -1.734375 1.238281 -1.285156 1.5 -0.984375 C 1.757812 -0.691406 2.085938 -0.546875 2.484375 -0.546875 C 2.867188 -0.546875 3.191406 -0.691406 3.453125 -0.984375 C 3.710938 -1.285156 3.84375 -1.742188 3.84375 -2.359375 C 3.84375 -2.929688 3.710938 -3.363281 3.453125 -3.65625 C 3.191406 -3.957031 2.867188 -4.109375 2.484375 -4.109375 C 2.085938 -4.109375 1.757812 -3.957031 1.5 -3.65625 C 1.238281 -3.363281 1.109375 -2.921875 1.109375 -2.328125 Z M 1.109375 -2.328125 "
           id="path14" />
      </symbol>
      <symbol
         overflow="visible"
         id="glyph0-5">
        <path
           style="stroke:none;"
           d="M 0.59375 1.78125 L 0.59375 -4.65625 L 1.3125 -4.65625 L 1.3125 -4.046875 C 1.476562 -4.285156 1.664062 -4.460938 1.875 -4.578125 C 2.09375 -4.691406 2.351562 -4.75 2.65625 -4.75 C 3.050781 -4.75 3.398438 -4.644531 3.703125 -4.4375 C 4.015625 -4.238281 4.242188 -3.953125 4.390625 -3.578125 C 4.546875 -3.210938 4.625 -2.804688 4.625 -2.359375 C 4.625 -1.878906 4.535156 -1.445312 4.359375 -1.0625 C 4.191406 -0.6875 3.945312 -0.394531 3.625 -0.1875 C 3.300781 0.0078125 2.957031 0.109375 2.59375 0.109375 C 2.332031 0.109375 2.097656 0.0507812 1.890625 -0.0625 C 1.679688 -0.175781 1.507812 -0.316406 1.375 -0.484375 L 1.375 1.78125 Z M 1.3125 -2.296875 C 1.3125 -1.703125 1.429688 -1.257812 1.671875 -0.96875 C 1.910156 -0.6875 2.203125 -0.546875 2.546875 -0.546875 C 2.898438 -0.546875 3.203125 -0.691406 3.453125 -0.984375 C 3.703125 -1.285156 3.828125 -1.742188 3.828125 -2.359375 C 3.828125 -2.953125 3.703125 -3.394531 3.453125 -3.6875 C 3.210938 -3.988281 2.921875 -4.140625 2.578125 -4.140625 C 2.242188 -4.140625 1.945312 -3.984375 1.6875 -3.671875 C 1.4375 -3.359375 1.3125 -2.898438 1.3125 -2.296875 Z M 1.3125 -2.296875 "
           id="path17" />
      </symbol>
      <symbol
         overflow="visible"
         id="glyph0-6">
        <path
           style="stroke:none;"
           d="M 3.625 -1.703125 L 4.40625 -1.609375 C 4.320312 -1.066406 4.101562 -0.644531 3.75 -0.34375 C 3.40625 -0.0390625 2.976562 0.109375 2.46875 0.109375 C 1.832031 0.109375 1.316406 -0.0976562 0.921875 -0.515625 C 0.535156 -0.929688 0.34375 -1.53125 0.34375 -2.3125 C 0.34375 -2.8125 0.425781 -3.25 0.59375 -3.625 C 0.757812 -4 1.015625 -4.28125 1.359375 -4.46875 C 1.703125 -4.65625 2.070312 -4.75 2.46875 -4.75 C 2.976562 -4.75 3.390625 -4.617188 3.703125 -4.359375 C 4.023438 -4.109375 4.234375 -3.75 4.328125 -3.28125 L 3.5625 -3.171875 C 3.488281 -3.484375 3.359375 -3.71875 3.171875 -3.875 C 2.984375 -4.03125 2.757812 -4.109375 2.5 -4.109375 C 2.101562 -4.109375 1.78125 -3.960938 1.53125 -3.671875 C 1.28125 -3.390625 1.15625 -2.941406 1.15625 -2.328125 C 1.15625 -1.703125 1.273438 -1.25 1.515625 -0.96875 C 1.753906 -0.6875 2.066406 -0.546875 2.453125 -0.546875 C 2.765625 -0.546875 3.023438 -0.640625 3.234375 -0.828125 C 3.441406 -1.015625 3.570312 -1.304688 3.625 -1.703125 Z M 3.625 -1.703125 "
           id="path20" />
      </symbol>
      <symbol
         overflow="visible"
         id="glyph0-7">
        <path
           style="stroke:none;"
           d="M 3.609375 0 L 3.609375 -0.59375 C 3.316406 -0.125 2.882812 0.109375 2.3125 0.109375 C 1.9375 0.109375 1.59375 0.00390625 1.28125 -0.203125 C 0.96875 -0.410156 0.726562 -0.695312 0.5625 -1.0625 C 0.394531 -1.425781 0.3125 -1.847656 0.3125 -2.328125 C 0.3125 -2.785156 0.382812 -3.203125 0.53125 -3.578125 C 0.6875 -3.960938 0.921875 -4.253906 1.234375 -4.453125 C 1.546875 -4.648438 1.890625 -4.75 2.265625 -4.75 C 2.546875 -4.75 2.796875 -4.691406 3.015625 -4.578125 C 3.234375 -4.460938 3.414062 -4.304688 3.5625 -4.109375 L 3.5625 -6.421875 L 4.34375 -6.421875 L 4.34375 0 Z M 1.109375 -2.328125 C 1.109375 -1.722656 1.234375 -1.273438 1.484375 -0.984375 C 1.742188 -0.691406 2.039062 -0.546875 2.375 -0.546875 C 2.726562 -0.546875 3.023438 -0.6875 3.265625 -0.96875 C 3.503906 -1.25 3.625 -1.675781 3.625 -2.25 C 3.625 -2.882812 3.5 -3.351562 3.25 -3.65625 C 3.007812 -3.957031 2.707031 -4.109375 2.34375 -4.109375 C 2 -4.109375 1.707031 -3.960938 1.46875 -3.671875 C 1.226562 -3.390625 1.109375 -2.941406 1.109375 -2.328125 Z M 1.109375 -2.328125 "
           id="path23" />
      </symbol>
      <symbol
         overflow="visible"
         id="glyph0-8">
        <path
           style="stroke:none;"
           d="M 3.78125 -1.5 L 4.59375 -1.390625 C 4.457031 -0.921875 4.21875 -0.550781 3.875 -0.28125 C 3.53125 -0.0195312 3.085938 0.109375 2.546875 0.109375 C 1.867188 0.109375 1.328125 -0.0976562 0.921875 -0.515625 C 0.523438 -0.941406 0.328125 -1.53125 0.328125 -2.28125 C 0.328125 -3.0625 0.523438 -3.664062 0.921875 -4.09375 C 1.328125 -4.53125 1.851562 -4.75 2.5 -4.75 C 3.125 -4.75 3.628906 -4.535156 4.015625 -4.109375 C 4.410156 -3.691406 4.609375 -3.097656 4.609375 -2.328125 C 4.609375 -2.285156 4.609375 -2.21875 4.609375 -2.125 L 1.140625 -2.125 C 1.171875 -1.613281 1.316406 -1.222656 1.578125 -0.953125 C 1.835938 -0.679688 2.160156 -0.546875 2.546875 -0.546875 C 2.835938 -0.546875 3.082031 -0.617188 3.28125 -0.765625 C 3.488281 -0.921875 3.65625 -1.164062 3.78125 -1.5 Z M 1.1875 -2.765625 L 3.78125 -2.765625 C 3.75 -3.160156 3.648438 -3.457031 3.484375 -3.65625 C 3.234375 -3.957031 2.910156 -4.109375 2.515625 -4.109375 C 2.148438 -4.109375 1.84375 -3.984375 1.59375 -3.734375 C 1.34375 -3.492188 1.207031 -3.171875 1.1875 -2.765625 Z M 1.1875 -2.765625 "
           id="path26" />
      </symbol>
      <symbol
         overflow="visible"
         id="glyph0-9">
        <path
           style="stroke:none;"
           d="M 0.171875 0 L 0.171875 -0.78125 L 3.46875 -4.90625 C 3.695312 -5.195312 3.921875 -5.445312 4.140625 -5.65625 L 0.546875 -5.65625 L 0.546875 -6.421875 L 5.15625 -6.421875 L 5.15625 -5.65625 L 1.546875 -1.203125 L 1.15625 -0.75 L 5.25 -0.75 L 5.25 0 Z M 0.171875 0 "
           id="path29" />
      </symbol>
      <symbol
         overflow="visible"
         id="glyph0-10">
        <path
           style="stroke:none;"
           d="M 0.734375 0 L 0.734375 -6.421875 L 5.0625 -6.421875 L 5.0625 -5.65625 L 1.578125 -5.65625 L 1.578125 -3.671875 L 4.59375 -3.671875 L 4.59375 -2.921875 L 1.578125 -2.921875 L 1.578125 0 Z M 0.734375 0 "
           id="path32" />
      </symbol>
      <symbol
         overflow="visible"
         id="glyph1-0">
        <path
           style="stroke:none;"
           d=""
           id="path35" />
      </symbol>
      <symbol
         overflow="visible"
         id="glyph1-1">
        <path
           style="stroke:none;"
           d="M 0.640625 0 L 0.640625 -5.890625 L 2.859375 -5.890625 C 3.242188 -5.890625 3.539062 -5.867188 3.75 -5.828125 C 4.039062 -5.773438 4.28125 -5.679688 4.46875 -5.546875 C 4.664062 -5.410156 4.820312 -5.222656 4.9375 -4.984375 C 5.0625 -4.742188 5.125 -4.476562 5.125 -4.1875 C 5.125 -3.6875 4.960938 -3.257812 4.640625 -2.90625 C 4.328125 -2.5625 3.753906 -2.390625 2.921875 -2.390625 L 1.40625 -2.390625 L 1.40625 0 Z M 1.40625 -3.09375 L 2.9375 -3.09375 C 3.4375 -3.09375 3.789062 -3.179688 4 -3.359375 C 4.21875 -3.546875 4.328125 -3.8125 4.328125 -4.15625 C 4.328125 -4.40625 4.265625 -4.613281 4.140625 -4.78125 C 4.015625 -4.957031 3.847656 -5.078125 3.640625 -5.140625 C 3.515625 -5.171875 3.273438 -5.1875 2.921875 -5.1875 L 1.40625 -5.1875 Z M 1.40625 -3.09375 "
           id="path38" />
      </symbol>
      <symbol
         overflow="visible"
         id="glyph1-2">
        <path
           style="stroke:none;"
           d="M 4.828125 -2.0625 L 5.609375 -1.859375 C 5.441406 -1.222656 5.144531 -0.738281 4.71875 -0.40625 C 4.300781 -0.0703125 3.785156 0.09375 3.171875 0.09375 C 2.535156 0.09375 2.019531 -0.03125 1.625 -0.28125 C 1.226562 -0.539062 0.925781 -0.914062 0.71875 -1.40625 C 0.507812 -1.894531 0.40625 -2.421875 0.40625 -2.984375 C 0.40625 -3.597656 0.519531 -4.128906 0.75 -4.578125 C 0.988281 -5.035156 1.320312 -5.382812 1.75 -5.625 C 2.1875 -5.863281 2.664062 -5.984375 3.1875 -5.984375 C 3.769531 -5.984375 4.257812 -5.832031 4.65625 -5.53125 C 5.0625 -5.226562 5.347656 -4.804688 5.515625 -4.265625 L 4.75 -4.09375 C 4.601562 -4.519531 4.398438 -4.828125 4.140625 -5.015625 C 3.890625 -5.210938 3.566406 -5.3125 3.171875 -5.3125 C 2.710938 -5.3125 2.332031 -5.203125 2.03125 -4.984375 C 1.726562 -4.773438 1.515625 -4.488281 1.390625 -4.125 C 1.273438 -3.757812 1.21875 -3.378906 1.21875 -2.984375 C 1.21875 -2.484375 1.289062 -2.046875 1.4375 -1.671875 C 1.582031 -1.304688 1.804688 -1.03125 2.109375 -0.84375 C 2.421875 -0.65625 2.753906 -0.5625 3.109375 -0.5625 C 3.546875 -0.5625 3.914062 -0.6875 4.21875 -0.9375 C 4.519531 -1.1875 4.722656 -1.5625 4.828125 -2.0625 Z M 4.828125 -2.0625 "
           id="path41" />
      </symbol>
      <symbol
         overflow="visible"
         id="glyph1-3">
        <path
           style="stroke:none;"
           d="M 0.375 -1.890625 L 1.109375 -1.953125 C 1.140625 -1.660156 1.21875 -1.421875 1.34375 -1.234375 C 1.46875 -1.046875 1.664062 -0.890625 1.9375 -0.765625 C 2.207031 -0.648438 2.507812 -0.59375 2.84375 -0.59375 C 3.132812 -0.59375 3.394531 -0.632812 3.625 -0.71875 C 3.851562 -0.8125 4.019531 -0.9375 4.125 -1.09375 C 4.238281 -1.25 4.296875 -1.414062 4.296875 -1.59375 C 4.296875 -1.78125 4.242188 -1.941406 4.140625 -2.078125 C 4.035156 -2.210938 3.859375 -2.328125 3.609375 -2.421875 C 3.453125 -2.484375 3.101562 -2.578125 2.5625 -2.703125 C 2.019531 -2.835938 1.640625 -2.960938 1.421875 -3.078125 C 1.140625 -3.222656 0.929688 -3.40625 0.796875 -3.625 C 0.660156 -3.84375 0.59375 -4.085938 0.59375 -4.359375 C 0.59375 -4.660156 0.675781 -4.9375 0.84375 -5.1875 C 1.007812 -5.445312 1.253906 -5.644531 1.578125 -5.78125 C 1.910156 -5.914062 2.273438 -5.984375 2.671875 -5.984375 C 3.097656 -5.984375 3.476562 -5.910156 3.8125 -5.765625 C 4.144531 -5.628906 4.398438 -5.425781 4.578125 -5.15625 C 4.765625 -4.882812 4.863281 -4.570312 4.875 -4.21875 L 4.125 -4.171875 C 4.082031 -4.546875 3.945312 -4.828125 3.71875 -5.015625 C 3.488281 -5.203125 3.148438 -5.296875 2.703125 -5.296875 C 2.222656 -5.296875 1.875 -5.207031 1.65625 -5.03125 C 1.445312 -4.863281 1.34375 -4.660156 1.34375 -4.421875 C 1.34375 -4.203125 1.421875 -4.023438 1.578125 -3.890625 C 1.722656 -3.753906 2.113281 -3.613281 2.75 -3.46875 C 3.382812 -3.332031 3.816406 -3.207031 4.046875 -3.09375 C 4.390625 -2.9375 4.640625 -2.738281 4.796875 -2.5 C 4.960938 -2.257812 5.046875 -1.976562 5.046875 -1.65625 C 5.046875 -1.34375 4.957031 -1.046875 4.78125 -0.765625 C 4.601562 -0.492188 4.34375 -0.28125 4 -0.125 C 3.664062 0.0195312 3.289062 0.09375 2.875 0.09375 C 2.34375 0.09375 1.894531 0.0195312 1.53125 -0.125 C 1.175781 -0.28125 0.894531 -0.515625 0.6875 -0.828125 C 0.488281 -1.140625 0.382812 -1.492188 0.375 -1.890625 Z M 0.375 -1.890625 "
           id="path44" />
      </symbol>
      <symbol
         overflow="visible"
         id="glyph1-4">
        <path
           style="stroke:none;"
           d="M 0.53125 0 L 0.53125 -4.265625 L 1.1875 -4.265625 L 1.1875 -3.609375 C 1.351562 -3.910156 1.503906 -4.109375 1.640625 -4.203125 C 1.785156 -4.304688 1.941406 -4.359375 2.109375 -4.359375 C 2.347656 -4.359375 2.59375 -4.28125 2.84375 -4.125 L 2.59375 -3.453125 C 2.414062 -3.554688 2.242188 -3.609375 2.078125 -3.609375 C 1.910156 -3.609375 1.765625 -3.5625 1.640625 -3.46875 C 1.515625 -3.375 1.425781 -3.242188 1.375 -3.078125 C 1.289062 -2.816406 1.25 -2.535156 1.25 -2.234375 L 1.25 0 Z M 0.53125 0 "
           id="path47" />
      </symbol>
      <symbol
         overflow="visible"
         id="glyph1-5">
        <path
           style="stroke:none;"
           d="M 3.328125 -1.5625 L 4.03125 -1.46875 C 3.957031 -0.976562 3.757812 -0.59375 3.4375 -0.3125 C 3.113281 -0.0390625 2.722656 0.09375 2.265625 0.09375 C 1.679688 0.09375 1.210938 -0.09375 0.859375 -0.46875 C 0.503906 -0.851562 0.328125 -1.398438 0.328125 -2.109375 C 0.328125 -2.578125 0.398438 -2.984375 0.546875 -3.328125 C 0.703125 -3.671875 0.9375 -3.925781 1.25 -4.09375 C 1.5625 -4.269531 1.898438 -4.359375 2.265625 -4.359375 C 2.722656 -4.359375 3.097656 -4.238281 3.390625 -4 C 3.691406 -3.769531 3.882812 -3.441406 3.96875 -3.015625 L 3.265625 -2.90625 C 3.191406 -3.1875 3.070312 -3.398438 2.90625 -3.546875 C 2.738281 -3.691406 2.535156 -3.765625 2.296875 -3.765625 C 1.929688 -3.765625 1.632812 -3.632812 1.40625 -3.375 C 1.175781 -3.113281 1.0625 -2.703125 1.0625 -2.140625 C 1.0625 -1.566406 1.171875 -1.148438 1.390625 -0.890625 C 1.609375 -0.628906 1.894531 -0.5 2.25 -0.5 C 2.53125 -0.5 2.765625 -0.582031 2.953125 -0.75 C 3.148438 -0.925781 3.273438 -1.195312 3.328125 -1.5625 Z M 3.328125 -1.5625 "
           id="path50" />
      </symbol>
      <symbol
         overflow="visible"
         id="glyph1-6">
        <path
           style="stroke:none;"
           d=""
           id="path53" />
      </symbol>
      <symbol
         overflow="visible"
         id="glyph1-7">
        <path
           style="stroke:none;"
           d="M 0.640625 0 L 0.640625 -5.890625 L 3.25 -5.890625 C 3.78125 -5.890625 4.179688 -5.832031 4.453125 -5.71875 C 4.722656 -5.613281 4.9375 -5.425781 5.09375 -5.15625 C 5.257812 -4.894531 5.34375 -4.601562 5.34375 -4.28125 C 5.34375 -3.863281 5.207031 -3.507812 4.9375 -3.21875 C 4.664062 -2.9375 4.25 -2.753906 3.6875 -2.671875 C 3.894531 -2.578125 4.050781 -2.484375 4.15625 -2.390625 C 4.382812 -2.179688 4.601562 -1.914062 4.8125 -1.59375 L 5.828125 0 L 4.859375 0 L 4.078125 -1.21875 C 3.847656 -1.570312 3.660156 -1.84375 3.515625 -2.03125 C 3.367188 -2.21875 3.234375 -2.347656 3.109375 -2.421875 C 2.992188 -2.503906 2.878906 -2.554688 2.765625 -2.578125 C 2.671875 -2.597656 2.523438 -2.609375 2.328125 -2.609375 L 1.421875 -2.609375 L 1.421875 0 Z M 1.421875 -3.28125 L 3.09375 -3.28125 C 3.445312 -3.28125 3.722656 -3.316406 3.921875 -3.390625 C 4.128906 -3.460938 4.285156 -3.582031 4.390625 -3.75 C 4.492188 -3.914062 4.546875 -4.09375 4.546875 -4.28125 C 4.546875 -4.550781 4.441406 -4.773438 4.234375 -4.953125 C 4.035156 -5.140625 3.71875 -5.234375 3.28125 -5.234375 L 1.421875 -5.234375 Z M 1.421875 -3.28125 "
           id="path56" />
      </symbol>
      <symbol
         overflow="visible"
         id="glyph1-8">
        <path
           style="stroke:none;"
           d="M 3.453125 -1.375 L 4.203125 -1.28125 C 4.085938 -0.84375 3.867188 -0.503906 3.546875 -0.265625 C 3.234375 -0.0234375 2.828125 0.09375 2.328125 0.09375 C 1.703125 0.09375 1.207031 -0.0976562 0.84375 -0.484375 C 0.476562 -0.867188 0.296875 -1.40625 0.296875 -2.09375 C 0.296875 -2.8125 0.476562 -3.367188 0.84375 -3.765625 C 1.21875 -4.160156 1.703125 -4.359375 2.296875 -4.359375 C 2.859375 -4.359375 3.320312 -4.160156 3.6875 -3.765625 C 4.050781 -3.378906 4.234375 -2.835938 4.234375 -2.140625 C 4.234375 -2.097656 4.226562 -2.035156 4.21875 -1.953125 L 1.046875 -1.953125 C 1.078125 -1.484375 1.207031 -1.125 1.4375 -0.875 C 1.675781 -0.625 1.972656 -0.5 2.328125 -0.5 C 2.597656 -0.5 2.828125 -0.566406 3.015625 -0.703125 C 3.203125 -0.847656 3.347656 -1.070312 3.453125 -1.375 Z M 1.09375 -2.546875 L 3.46875 -2.546875 C 3.4375 -2.898438 3.34375 -3.164062 3.1875 -3.34375 C 2.957031 -3.625 2.660156 -3.765625 2.296875 -3.765625 C 1.960938 -3.765625 1.679688 -3.648438 1.453125 -3.421875 C 1.234375 -3.203125 1.113281 -2.910156 1.09375 -2.546875 Z M 1.09375 -2.546875 "
           id="path59" />
      </symbol>
      <symbol
         overflow="visible"
         id="glyph1-9">
        <path
           style="stroke:none;"
           d="M 0.40625 0.359375 L 1.109375 0.453125 C 1.140625 0.671875 1.222656 0.832031 1.359375 0.9375 C 1.535156 1.0625 1.78125 1.125 2.09375 1.125 C 2.425781 1.125 2.679688 1.054688 2.859375 0.921875 C 3.046875 0.796875 3.171875 0.613281 3.234375 0.375 C 3.273438 0.226562 3.289062 -0.0820312 3.28125 -0.5625 C 2.96875 -0.1875 2.578125 0 2.109375 0 C 1.523438 0 1.070312 -0.207031 0.75 -0.625 C 0.425781 -1.050781 0.265625 -1.5625 0.265625 -2.15625 C 0.265625 -2.5625 0.335938 -2.9375 0.484375 -3.28125 C 0.628906 -3.625 0.84375 -3.890625 1.125 -4.078125 C 1.40625 -4.265625 1.734375 -4.359375 2.109375 -4.359375 C 2.609375 -4.359375 3.023438 -4.15625 3.359375 -3.75 L 3.359375 -4.265625 L 4.015625 -4.265625 L 4.015625 -0.578125 C 4.015625 0.0859375 3.945312 0.554688 3.8125 0.828125 C 3.675781 1.109375 3.460938 1.328125 3.171875 1.484375 C 2.878906 1.648438 2.519531 1.734375 2.09375 1.734375 C 1.582031 1.734375 1.171875 1.617188 0.859375 1.390625 C 0.546875 1.160156 0.394531 0.816406 0.40625 0.359375 Z M 1 -2.203125 C 1 -1.648438 1.109375 -1.242188 1.328125 -0.984375 C 1.554688 -0.722656 1.835938 -0.59375 2.171875 -0.59375 C 2.503906 -0.59375 2.78125 -0.71875 3 -0.96875 C 3.226562 -1.226562 3.34375 -1.632812 3.34375 -2.1875 C 3.34375 -2.707031 3.226562 -3.097656 3 -3.359375 C 2.769531 -3.628906 2.488281 -3.765625 2.15625 -3.765625 C 1.84375 -3.765625 1.570312 -3.632812 1.34375 -3.375 C 1.113281 -3.113281 1 -2.722656 1 -2.203125 Z M 1 -2.203125 "
           id="path62" />
      </symbol>
      <symbol
         overflow="visible"
         id="glyph1-10">
        <path
           style="stroke:none;"
           d="M 1.65625 0 L 0.09375 -5.890625 L 0.90625 -5.890625 L 1.796875 -2.03125 C 1.890625 -1.625 1.972656 -1.222656 2.046875 -0.828125 C 2.191406 -1.453125 2.28125 -1.8125 2.3125 -1.90625 L 3.421875 -5.890625 L 4.359375 -5.890625 L 5.203125 -2.90625 C 5.421875 -2.164062 5.578125 -1.472656 5.671875 -0.828125 C 5.742188 -1.191406 5.835938 -1.617188 5.953125 -2.109375 L 6.875 -5.890625 L 7.671875 -5.890625 L 6.046875 0 L 5.296875 0 L 4.0625 -4.484375 C 3.957031 -4.859375 3.894531 -5.085938 3.875 -5.171875 C 3.8125 -4.898438 3.753906 -4.671875 3.703125 -4.484375 L 2.453125 0 Z M 1.65625 0 "
           id="path65" />
      </symbol>
      <symbol
         overflow="visible"
         id="glyph1-11">
        <path
           style="stroke:none;"
           d="M 0.546875 -5.046875 L 0.546875 -5.890625 L 1.265625 -5.890625 L 1.265625 -5.046875 Z M 0.546875 0 L 0.546875 -4.265625 L 1.265625 -4.265625 L 1.265625 0 Z M 0.546875 0 "
           id="path68" />
      </symbol>
      <symbol
         overflow="visible"
         id="glyph1-12">
        <path
           style="stroke:none;"
           d="M 2.125 -0.640625 L 2.21875 -0.015625 C 2.019531 0.0351562 1.835938 0.0625 1.671875 0.0625 C 1.410156 0.0625 1.207031 0.0195312 1.0625 -0.0625 C 0.914062 -0.144531 0.8125 -0.253906 0.75 -0.390625 C 0.695312 -0.523438 0.671875 -0.8125 0.671875 -1.25 L 0.671875 -3.703125 L 0.140625 -3.703125 L 0.140625 -4.265625 L 0.671875 -4.265625 L 0.671875 -5.3125 L 1.390625 -5.75 L 1.390625 -4.265625 L 2.125 -4.265625 L 2.125 -3.703125 L 1.390625 -3.703125 L 1.390625 -1.203125 C 1.390625 -1.003906 1.398438 -0.875 1.421875 -0.8125 C 1.453125 -0.75 1.492188 -0.703125 1.546875 -0.671875 C 1.609375 -0.640625 1.691406 -0.625 1.796875 -0.625 C 1.878906 -0.625 1.988281 -0.628906 2.125 -0.640625 Z M 2.125 -0.640625 "
           id="path71" />
      </symbol>
      <symbol
         overflow="visible"
         id="glyph1-13">
        <path
           style="stroke:none;"
           d="M 0.640625 0 L 0.640625 -5.890625 L 2.65625 -5.890625 C 3.113281 -5.890625 3.460938 -5.859375 3.703125 -5.796875 C 4.046875 -5.722656 4.335938 -5.582031 4.578125 -5.375 C 4.878906 -5.113281 5.109375 -4.78125 5.265625 -4.375 C 5.421875 -3.96875 5.5 -3.5 5.5 -2.96875 C 5.5 -2.519531 5.445312 -2.125 5.34375 -1.78125 C 5.238281 -1.4375 5.101562 -1.148438 4.9375 -0.921875 C 4.769531 -0.703125 4.585938 -0.523438 4.390625 -0.390625 C 4.203125 -0.265625 3.972656 -0.164062 3.703125 -0.09375 C 3.429688 -0.03125 3.113281 0 2.75 0 Z M 1.40625 -0.6875 L 2.671875 -0.6875 C 3.054688 -0.6875 3.359375 -0.722656 3.578125 -0.796875 C 3.796875 -0.867188 3.972656 -0.972656 4.109375 -1.109375 C 4.296875 -1.296875 4.4375 -1.539062 4.53125 -1.84375 C 4.632812 -2.15625 4.6875 -2.535156 4.6875 -2.984375 C 4.6875 -3.597656 4.585938 -4.070312 4.390625 -4.40625 C 4.191406 -4.738281 3.945312 -4.957031 3.65625 -5.0625 C 3.445312 -5.144531 3.113281 -5.1875 2.65625 -5.1875 L 1.40625 -5.1875 Z M 1.40625 -0.6875 "
           id="path74" />
      </symbol>
      <symbol
         overflow="visible"
         id="glyph1-14">
        <path
           style="stroke:none;"
           d="M 3.0625 0 L 2.34375 0 L 2.34375 -4.609375 C 2.164062 -4.441406 1.9375 -4.273438 1.65625 -4.109375 C 1.375 -3.941406 1.117188 -3.816406 0.890625 -3.734375 L 0.890625 -4.4375 C 1.296875 -4.625 1.648438 -4.851562 1.953125 -5.125 C 2.253906 -5.394531 2.46875 -5.65625 2.59375 -5.90625 L 3.0625 -5.90625 Z M 3.0625 0 "
           id="path77" />
      </symbol>
      <symbol
         overflow="visible"
         id="glyph1-15">
        <path
           style="stroke:none;"
           d="M 0.34375 -2.90625 C 0.34375 -3.59375 0.410156 -4.148438 0.546875 -4.578125 C 0.691406 -5.003906 0.90625 -5.332031 1.1875 -5.5625 C 1.476562 -5.789062 1.835938 -5.90625 2.265625 -5.90625 C 2.578125 -5.90625 2.851562 -5.84375 3.09375 -5.71875 C 3.332031 -5.59375 3.523438 -5.410156 3.671875 -5.171875 C 3.828125 -4.929688 3.945312 -4.640625 4.03125 -4.296875 C 4.125 -3.953125 4.171875 -3.488281 4.171875 -2.90625 C 4.171875 -2.207031 4.097656 -1.644531 3.953125 -1.21875 C 3.816406 -0.800781 3.609375 -0.476562 3.328125 -0.25 C 3.046875 -0.0195312 2.691406 0.09375 2.265625 0.09375 C 1.691406 0.09375 1.242188 -0.109375 0.921875 -0.515625 C 0.535156 -1.003906 0.34375 -1.800781 0.34375 -2.90625 Z M 1.078125 -2.90625 C 1.078125 -1.9375 1.191406 -1.289062 1.421875 -0.96875 C 1.648438 -0.65625 1.929688 -0.5 2.265625 -0.5 C 2.585938 -0.5 2.863281 -0.65625 3.09375 -0.96875 C 3.320312 -1.289062 3.4375 -1.9375 3.4375 -2.90625 C 3.4375 -3.875 3.320312 -4.515625 3.09375 -4.828125 C 2.863281 -5.148438 2.582031 -5.3125 2.25 -5.3125 C 1.914062 -5.3125 1.648438 -5.171875 1.453125 -4.890625 C 1.203125 -4.523438 1.078125 -3.863281 1.078125 -2.90625 Z M 1.078125 -2.90625 "
           id="path80" />
      </symbol>
      <symbol
         overflow="visible"
         id="glyph1-16">
        <path
           style="stroke:none;"
           d="M 0.609375 0 L 0.609375 -5.890625 L 1.78125 -5.890625 L 3.171875 -1.71875 C 3.296875 -1.332031 3.390625 -1.039062 3.453125 -0.84375 C 3.523438 -1.0625 3.628906 -1.378906 3.765625 -1.796875 L 5.171875 -5.890625 L 6.21875 -5.890625 L 6.21875 0 L 5.46875 0 L 5.46875 -4.921875 L 3.765625 0 L 3.0625 0 L 1.359375 -5.015625 L 1.359375 0 Z M 0.609375 0 "
           id="path83" />
      </symbol>
      <symbol
         overflow="visible"
         id="glyph1-17">
        <path
           style="stroke:none;"
           d="M 0.546875 0 L 0.546875 -4.265625 L 1.1875 -4.265625 L 1.1875 -3.65625 C 1.320312 -3.875 1.5 -4.046875 1.71875 -4.171875 C 1.945312 -4.296875 2.203125 -4.359375 2.484375 -4.359375 C 2.796875 -4.359375 3.050781 -4.289062 3.25 -4.15625 C 3.457031 -4.03125 3.601562 -3.847656 3.6875 -3.609375 C 4.019531 -4.109375 4.457031 -4.359375 5 -4.359375 C 5.425781 -4.359375 5.75 -4.238281 5.96875 -4 C 6.195312 -3.769531 6.3125 -3.410156 6.3125 -2.921875 L 6.3125 0 L 5.59375 0 L 5.59375 -2.6875 C 5.59375 -2.976562 5.566406 -3.1875 5.515625 -3.3125 C 5.472656 -3.4375 5.390625 -3.535156 5.265625 -3.609375 C 5.148438 -3.691406 5.007812 -3.734375 4.84375 -3.734375 C 4.539062 -3.734375 4.289062 -3.632812 4.09375 -3.4375 C 3.894531 -3.238281 3.796875 -2.914062 3.796875 -2.46875 L 3.796875 0 L 3.078125 0 L 3.078125 -2.765625 C 3.078125 -3.085938 3.015625 -3.328125 2.890625 -3.484375 C 2.773438 -3.648438 2.582031 -3.734375 2.3125 -3.734375 C 2.113281 -3.734375 1.925781 -3.675781 1.75 -3.5625 C 1.582031 -3.457031 1.457031 -3.300781 1.375 -3.09375 C 1.300781 -2.894531 1.265625 -2.601562 1.265625 -2.21875 L 1.265625 0 Z M 0.546875 0 "
           id="path86" />
      </symbol>
      <symbol
         overflow="visible"
         id="glyph1-18">
        <path
           style="stroke:none;"
           d="M 3.3125 0 L 3.3125 -0.53125 C 3.039062 -0.113281 2.640625 0.09375 2.109375 0.09375 C 1.773438 0.09375 1.460938 0 1.171875 -0.1875 C 0.890625 -0.375 0.671875 -0.632812 0.515625 -0.96875 C 0.359375 -1.300781 0.28125 -1.6875 0.28125 -2.125 C 0.28125 -2.550781 0.347656 -2.9375 0.484375 -3.28125 C 0.628906 -3.625 0.84375 -3.890625 1.125 -4.078125 C 1.414062 -4.265625 1.734375 -4.359375 2.078125 -4.359375 C 2.335938 -4.359375 2.566406 -4.300781 2.765625 -4.1875 C 2.960938 -4.082031 3.128906 -3.941406 3.265625 -3.765625 L 3.265625 -5.890625 L 3.984375 -5.890625 L 3.984375 0 Z M 1.015625 -2.125 C 1.015625 -1.582031 1.128906 -1.175781 1.359375 -0.90625 C 1.597656 -0.632812 1.875 -0.5 2.1875 -0.5 C 2.5 -0.5 2.765625 -0.625 2.984375 -0.875 C 3.203125 -1.132812 3.3125 -1.53125 3.3125 -2.0625 C 3.3125 -2.644531 3.195312 -3.070312 2.96875 -3.34375 C 2.75 -3.625 2.476562 -3.765625 2.15625 -3.765625 C 1.832031 -3.765625 1.5625 -3.628906 1.34375 -3.359375 C 1.125 -3.097656 1.015625 -2.6875 1.015625 -2.125 Z M 1.015625 -2.125 "
           id="path89" />
      </symbol>
      <symbol
         overflow="visible"
         id="glyph1-19">
        <path
           style="stroke:none;"
           d="M 0.546875 0 L 0.546875 -4.265625 L 1.1875 -4.265625 L 1.1875 -3.65625 C 1.5 -4.125 1.953125 -4.359375 2.546875 -4.359375 C 2.804688 -4.359375 3.039062 -4.3125 3.25 -4.21875 C 3.46875 -4.125 3.628906 -4 3.734375 -3.84375 C 3.847656 -3.695312 3.925781 -3.523438 3.96875 -3.328125 C 3.988281 -3.191406 4 -2.957031 4 -2.625 L 4 0 L 3.28125 0 L 3.28125 -2.59375 C 3.28125 -2.882812 3.25 -3.101562 3.1875 -3.25 C 3.132812 -3.394531 3.035156 -3.507812 2.890625 -3.59375 C 2.753906 -3.6875 2.585938 -3.734375 2.390625 -3.734375 C 2.085938 -3.734375 1.820312 -3.632812 1.59375 -3.4375 C 1.375 -3.238281 1.265625 -2.867188 1.265625 -2.328125 L 1.265625 0 Z M 0.546875 0 "
           id="path92" />
      </symbol>
      <symbol
         overflow="visible"
         id="glyph1-20">
        <path
           style="stroke:none;"
           d="M -0.015625 0 L 2.25 -5.890625 L 3.09375 -5.890625 L 5.5 0 L 4.609375 0 L 3.921875 -1.78125 L 1.453125 -1.78125 L 0.8125 0 Z M 1.6875 -2.421875 L 3.6875 -2.421875 L 3.0625 -4.046875 C 2.875 -4.535156 2.738281 -4.941406 2.65625 -5.265625 C 2.570312 -4.890625 2.460938 -4.515625 2.328125 -4.140625 Z M 1.6875 -2.421875 "
           id="path95" />
      </symbol>
      <symbol
         overflow="visible"
         id="glyph1-21">
        <path
           style="stroke:none;"
           d="M 0.609375 0 L 0.609375 -5.890625 L 1.375 -5.890625 L 1.375 -0.6875 L 4.28125 -0.6875 L 4.28125 0 Z M 0.609375 0 "
           id="path98" />
      </symbol>
      <symbol
         overflow="visible"
         id="glyph1-22">
        <path
           style="stroke:none;"
           d="M 4.5 -5.890625 L 5.265625 -5.890625 L 5.265625 -2.484375 C 5.265625 -1.890625 5.195312 -1.414062 5.0625 -1.0625 C 4.9375 -0.71875 4.695312 -0.4375 4.34375 -0.21875 C 4 -0.0078125 3.539062 0.09375 2.96875 0.09375 C 2.414062 0.09375 1.960938 0 1.609375 -0.1875 C 1.265625 -0.375 1.015625 -0.644531 0.859375 -1 C 0.710938 -1.363281 0.640625 -1.859375 0.640625 -2.484375 L 0.640625 -5.890625 L 1.421875 -5.890625 L 1.421875 -2.484375 C 1.421875 -1.972656 1.46875 -1.597656 1.5625 -1.359375 C 1.65625 -1.117188 1.816406 -0.929688 2.046875 -0.796875 C 2.285156 -0.671875 2.570312 -0.609375 2.90625 -0.609375 C 3.476562 -0.609375 3.882812 -0.734375 4.125 -0.984375 C 4.375 -1.242188 4.5 -1.742188 4.5 -2.484375 Z M 4.5 -5.890625 "
           id="path101" />
      </symbol>
      <symbol
         overflow="visible"
         id="glyph1-23">
        <path
           style="stroke:none;"
           d="M 0.390625 -2.859375 C 0.390625 -3.835938 0.648438 -4.601562 1.171875 -5.15625 C 1.703125 -5.707031 2.382812 -5.984375 3.21875 -5.984375 C 3.757812 -5.984375 4.25 -5.851562 4.6875 -5.59375 C 5.125 -5.332031 5.457031 -4.96875 5.6875 -4.5 C 5.914062 -4.039062 6.03125 -3.519531 6.03125 -2.9375 C 6.03125 -2.332031 5.90625 -1.796875 5.65625 -1.328125 C 5.414062 -0.859375 5.078125 -0.503906 4.640625 -0.265625 C 4.203125 -0.0234375 3.722656 0.09375 3.203125 0.09375 C 2.648438 0.09375 2.15625 -0.0351562 1.71875 -0.296875 C 1.289062 -0.566406 0.960938 -0.929688 0.734375 -1.390625 C 0.503906 -1.859375 0.390625 -2.347656 0.390625 -2.859375 Z M 1.203125 -2.859375 C 1.203125 -2.148438 1.390625 -1.585938 1.765625 -1.171875 C 2.148438 -0.765625 2.628906 -0.5625 3.203125 -0.5625 C 3.785156 -0.5625 4.265625 -0.765625 4.640625 -1.171875 C 5.023438 -1.585938 5.21875 -2.175781 5.21875 -2.9375 C 5.21875 -3.414062 5.132812 -3.832031 4.96875 -4.1875 C 4.8125 -4.550781 4.578125 -4.828125 4.265625 -5.015625 C 3.953125 -5.210938 3.601562 -5.3125 3.21875 -5.3125 C 2.664062 -5.3125 2.191406 -5.125 1.796875 -4.75 C 1.398438 -4.375 1.203125 -3.742188 1.203125 -2.859375 Z M 1.203125 -2.859375 "
           id="path104" />
      </symbol>
      <symbol
         overflow="visible"
         id="glyph1-24">
        <path
           style="stroke:none;"
           d="M 0.546875 1.640625 L 0.546875 -4.265625 L 1.203125 -4.265625 L 1.203125 -3.703125 C 1.359375 -3.921875 1.53125 -4.082031 1.71875 -4.1875 C 1.914062 -4.300781 2.15625 -4.359375 2.4375 -4.359375 C 2.800781 -4.359375 3.117188 -4.265625 3.390625 -4.078125 C 3.671875 -3.890625 3.878906 -3.625 4.015625 -3.28125 C 4.160156 -2.9375 4.234375 -2.5625 4.234375 -2.15625 C 4.234375 -1.726562 4.15625 -1.335938 4 -0.984375 C 3.84375 -0.640625 3.613281 -0.375 3.3125 -0.1875 C 3.019531 0 2.710938 0.09375 2.390625 0.09375 C 2.140625 0.09375 1.921875 0.046875 1.734375 -0.046875 C 1.546875 -0.148438 1.390625 -0.28125 1.265625 -0.4375 L 1.265625 1.640625 Z M 1.203125 -2.109375 C 1.203125 -1.554688 1.3125 -1.148438 1.53125 -0.890625 C 1.75 -0.628906 2.015625 -0.5 2.328125 -0.5 C 2.648438 -0.5 2.925781 -0.632812 3.15625 -0.90625 C 3.382812 -1.175781 3.5 -1.597656 3.5 -2.171875 C 3.5 -2.710938 3.382812 -3.117188 3.15625 -3.390625 C 2.9375 -3.660156 2.675781 -3.796875 2.375 -3.796875 C 2.0625 -3.796875 1.785156 -3.648438 1.546875 -3.359375 C 1.316406 -3.066406 1.203125 -2.648438 1.203125 -2.109375 Z M 1.203125 -2.109375 "
           id="path107" />
      </symbol>
      <symbol
         overflow="visible"
         id="glyph1-25">
        <path
           style="stroke:none;"
           d="M 4.140625 -0.6875 L 4.140625 0 L 0.25 0 C 0.238281 -0.175781 0.265625 -0.34375 0.328125 -0.5 C 0.429688 -0.769531 0.59375 -1.03125 0.8125 -1.28125 C 1.03125 -1.539062 1.34375 -1.835938 1.75 -2.171875 C 2.394531 -2.703125 2.828125 -3.117188 3.046875 -3.421875 C 3.273438 -3.722656 3.390625 -4.015625 3.390625 -4.296875 C 3.390625 -4.578125 3.285156 -4.816406 3.078125 -5.015625 C 2.867188 -5.210938 2.601562 -5.3125 2.28125 -5.3125 C 1.925781 -5.3125 1.644531 -5.207031 1.4375 -5 C 1.226562 -4.789062 1.125 -4.5 1.125 -4.125 L 0.390625 -4.203125 C 0.441406 -4.753906 0.628906 -5.175781 0.953125 -5.46875 C 1.285156 -5.757812 1.734375 -5.90625 2.296875 -5.90625 C 2.859375 -5.90625 3.300781 -5.75 3.625 -5.4375 C 3.957031 -5.125 4.125 -4.738281 4.125 -4.28125 C 4.125 -4.039062 4.078125 -3.804688 3.984375 -3.578125 C 3.890625 -3.347656 3.726562 -3.109375 3.5 -2.859375 C 3.28125 -2.609375 2.910156 -2.265625 2.390625 -1.828125 C 1.953125 -1.460938 1.671875 -1.210938 1.546875 -1.078125 C 1.429688 -0.953125 1.332031 -0.820312 1.25 -0.6875 Z M 4.140625 -0.6875 "
           id="path110" />
      </symbol>
    </g>
    <clipPath
       id="clip1">
      <path
         d="M 0 0 L 174 0 L 174 92.601562 L 0 92.601562 Z M 0 0 "
         id="path115" />
    </clipPath>
    <clipPath
       id="clip2">
      <path
         d="M 56 0 L 107 0 L 107 91.855469 L 56 91.855469 Z M 56 0 "
         id="path118" />
    </clipPath>
    <clipPath
       id="clip3">
      <path
         d="M 103 69 L 131 69 L 131 91.855469 L 103 91.855469 Z M 103 69 "
         id="path121" />
    </clipPath>
  </defs>
  <g
     id="surface1">
    <g
       clip-path="url(#clip1)"
       clip-rule="nonzero"
       id="g128">
      <path
         style="fill:#ffffff;fill-opacity:1;fill-rule:nonzero;stroke:none"
         d="M 0,0 H 174 V 92.601562 H 0 Z m 0,0"
         id="path126" />
    </g>
    <path
       style="fill:#ffffff;fill-opacity:1;fill-rule:nonzero;stroke:none"
       d="M 57.128906,1.121094 H 105.66797 V 90.734375 H 57.128906 Z m 0,0"
       id="path130" />
    <g
       clip-path="url(#clip2)"
       clip-rule="nonzero"
       id="g134">
      <path
         style="fill:none;stroke:#000000;stroke-width:1;stroke-linecap:butt;stroke-linejoin:miter;stroke-miterlimit:4;stroke-opacity:1"
         d="m 76.00021,1.001235 h 64.99772 V 121.00064 H 76.00021 Z m 0,0"
         transform="matrix(0.746781,0,0,0.746781,0.373391,0.373391)"
         id="path132" />
    </g>
    <g
       style="fill:#000000;fill-opacity:1"
       id="g140">
      <use
         xlink:href="#glyph0-1"
         x="74.549751"
         y="48.540768"
         id="use136"
         width="100%"
         height="100%" />
      <use
         xlink:href="#glyph0-2"
         x="81.02137"
         y="48.540768"
         id="use138"
         width="100%"
         height="100%" />
    </g>
    <path
       style="fill:none;stroke:#000000;stroke-width:1;stroke-linecap:butt;stroke-linejoin:miter;stroke-miterlimit:10;stroke-opacity:1"
       d="m 51.002295,30.999779 h 18.62682"
       transform="matrix(0.746781,0,0,0.746781,0.373391,0.373391)"
       id="path142" />
    <path
       style="fill:#000000;fill-opacity:1;fill-rule:nonzero;stroke:#000000;stroke-width:1;stroke-linecap:butt;stroke-linejoin:miter;stroke-miterlimit:10;stroke-opacity:1"
       d="m 74.880822,30.999779 -6.998788,3.499394 1.747081,-3.499394 -1.747081,-3.499395 z m 0,0"
       transform="matrix(0.746781,0,0,0.746781,0.373391,0.373391)"
       id="path144" />
    <path
       style="fill:none;stroke:#000000;stroke-width:1;stroke-linecap:butt;stroke-linejoin:miter;stroke-miterlimit:10;stroke-opacity:1"
       d="M 54.998614,36.000408 60.998322,25.99915"
       transform="matrix(0.746781,0,0,0.746781,0.373391,0.373391)"
       id="path146" />
    <g
       style="fill:#000000;fill-opacity:1"
       id="g150">
      <use
         xlink:href="#glyph0-3"
         x="43.429985"
         y="18.669525"
         id="use148"
         width="100%"
         height="100%" />
    </g>
    <g
       style="fill:#000000;fill-opacity:1"
       id="g164">
      <use
         xlink:href="#glyph0-4"
         x="5.0874462"
         y="26.137337"
         id="use152"
         width="100%"
         height="100%" />
      <use
         xlink:href="#glyph0-5"
         x="10.071334"
         y="26.137337"
         id="use154"
         width="100%"
         height="100%" />
      <use
         xlink:href="#glyph0-6"
         x="15.055222"
         y="26.137337"
         id="use156"
         width="100%"
         height="100%" />
      <use
         xlink:href="#glyph0-4"
         x="19.53591"
         y="26.137337"
         id="use158"
         width="100%"
         height="100%" />
      <use
         xlink:href="#glyph0-7"
         x="24.519796"
         y="26.137337"
         id="use160"
         width="100%"
         height="100%" />
      <use
         xlink:href="#glyph0-8"
         x="29.503685"
         y="26.137337"
         id="use162"
         width="100%"
         height="100%" />
    </g>
    <path
       style="fill:none;stroke:#000000;stroke-width:1;stroke-linecap:butt;stroke-linejoin:miter;stroke-miterlimit:10;stroke-opacity:1"
       d="m 51.002295,91.002097 h 18.62682"
       transform="matrix(0.746781,0,0,0.746781,0.373391,0.373391)"
       id="path166" />
    <path
       style="fill:#000000;fill-opacity:1;fill-rule:nonzero;stroke:#000000;stroke-width:1;stroke-linecap:butt;stroke-linejoin:miter;stroke-miterlimit:10;stroke-opacity:1"
       d="m 74.880822,91.002097 -6.998788,3.499394 1.747081,-3.499394 -1.747081,-3.504625 z m 0,0"
       transform="matrix(0.746781,0,0,0.746781,0.373391,0.373391)"
       id="path168" />
    <g
       style="fill:#000000;fill-opacity:1"
       id="g174">
      <use
         xlink:href="#glyph0-9"
         x="21.785004"
         y="70.944199"
         id="use170"
         width="100%"
         height="100%" />
      <use
         xlink:href="#glyph0-10"
         x="27.258966"
         y="70.944199"
         id="use172"
         width="100%"
         height="100%" />
    </g>
    <path
       style="fill:none;stroke:#000000;stroke-width:1;stroke-linecap:butt;stroke-linejoin:miter;stroke-miterlimit:10;stroke-opacity:1"
       d="m 140.99793,11.002493 h 13.63142"
       transform="matrix(0.746781,0,0,0.746781,0.373391,0.373391)"
       id="path176" />
    <path
       style="fill:#000000;fill-opacity:1;fill-rule:nonzero;stroke:#000000;stroke-width:1;stroke-linecap:butt;stroke-linejoin:miter;stroke-miterlimit:10;stroke-opacity:1"
       d="m 159.88105,11.002493 -6.99878,3.499394 1.74708,-3.499394 -1.74708,-3.504625 z m 0,0"
       transform="matrix(0.746781,0,0,0.746781,0.373391,0.373391)"
       id="path178" />
    <path
       style="fill:none;stroke:#000000;stroke-width:1;stroke-linecap:butt;stroke-linejoin:miter;stroke-miterlimit:10;stroke-opacity:1"
       d="m 140.99793,20.99852 h 13.63142"
       transform="matrix(0.746781,0,0,0.746781,0.373391,0.373391)"
       id="path180" />
    <path
       style="fill:#000000;fill-opacity:1;fill-rule:nonzero;stroke:#000000;stroke-width:1;stroke-linecap:butt;stroke-linejoin:miter;stroke-miterlimit:10;stroke-opacity:1"
       d="m 159.88105,20.99852 -6.99878,3.499395 1.74708,-3.499395 -1.74708,-3.499394 z m 0,0"
       transform="matrix(0.746781,0,0,0.746781,0.373391,0.373391)"
       id="path182" />
    <path
       style="fill:none;stroke:#000000;stroke-width:1;stroke-linecap:butt;stroke-linejoin:miter;stroke-miterlimit:10;stroke-opacity:1"
       d="m 140.99793,30.81147 h 13.63142"
       transform="matrix(0.746781,0,0,0.746781,0.373391,0.373391)"
       id="path184" />
    <path
       style="fill:#000000;fill-opacity:1;fill-rule:nonzero;stroke:#000000;stroke-width:1;stroke-linecap:butt;stroke-linejoin:miter;stroke-miterlimit:10;stroke-opacity:1"
       d="m 159.88105,30.81147 -6.99878,3.499395 1.74708,-3.499395 -1.74708,-3.499394 z m 0,0"
       transform="matrix(0.746781,0,0,0.746781,0.373391,0.373391)"
       id="path186" />
    <path
       style="fill:none;stroke:#000000;stroke-width:1;stroke-linecap:butt;stroke-linejoin:miter;stroke-miterlimit:10;stroke-opacity:1"
       d="m 140.99793,40.807498 h 13.63142"
       transform="matrix(0.746781,0,0,0.746781,0.373391,0.373391)"
       id="path188" />
    <path
       style="fill:#000000;fill-opacity:1;fill-rule:nonzero;stroke:#000000;stroke-width:1;stroke-linecap:butt;stroke-linejoin:miter;stroke-miterlimit:10;stroke-opacity:1"
       d="m 159.88105,40.807498 -6.99878,3.504625 1.74708,-3.504625 -1.74708,-3.499394 z m 0,0"
       transform="matrix(0.746781,0,0,0.746781,0.373391,0.373391)"
       id="path190" />
    <path
       style="fill:none;stroke:#000000;stroke-width:1;stroke-linecap:butt;stroke-linejoin:miter;stroke-miterlimit:10;stroke-opacity:1"
       d="m 140.99793,51.002295 h 13.63142"
       transform="matrix(0.746781,0,0,0.746781,0.373391,0.373391)"
       id="path192" />
    <path
       style="fill:#000000;fill-opacity:1;fill-rule:nonzero;stroke:#000000;stroke-width:1;stroke-linecap:butt;stroke-linejoin:miter;stroke-miterlimit:10;stroke-opacity:1"
       d="m 159.88105,51.002295 -6.99878,3.499394 1.74708,-3.499394 -1.74708,-3.504625 z m 0,0"
       transform="matrix(0.746781,0,0,0.746781,0.373391,0.373391)"
       id="path194" />
    <path
       style="fill:none;stroke:#000000;stroke-width:1;stroke-linecap:butt;stroke-linejoin:miter;stroke-miterlimit:10;stroke-opacity:1"
       d="m 140.99793,60.998322 h 13.63142"
       transform="matrix(0.746781,0,0,0.746781,0.373391,0.373391)"
       id="path196" />
    <path
       style="fill:#000000;fill-opacity:1;fill-rule:nonzero;stroke:#000000;stroke-width:1;stroke-linecap:butt;stroke-linejoin:miter;stroke-miterlimit:10;stroke-opacity:1"
       d="m 159.88105,60.998322 -6.99878,3.499395 1.74708,-3.499395 -1.74708,-3.499394 z m 0,0"
       transform="matrix(0.746781,0,0,0.746781,0.373391,0.373391)"
       id="path198" />
    <path
       style="fill:none;stroke:#000000;stroke-width:1;stroke-linecap:butt;stroke-linejoin:miter;stroke-miterlimit:10;stroke-opacity:1"
       d="m 140.99793,70.811272 h 13.63142"
       transform="matrix(0.746781,0,0,0.746781,0.373391,0.373391)"
       id="path200" />
    <path
       style="fill:#000000;fill-opacity:1;fill-rule:nonzero;stroke:#000000;stroke-width:1;stroke-linecap:butt;stroke-linejoin:miter;stroke-miterlimit:10;stroke-opacity:1"
       d="m 159.88105,70.811272 -6.99878,3.499395 1.74708,-3.499395 -1.74708,-3.499394 z m 0,0"
       transform="matrix(0.746781,0,0,0.746781,0.373391,0.373391)"
       id="path202" />
    <path
       style="fill:none;stroke:#000000;stroke-width:1;stroke-linecap:butt;stroke-linejoin:miter;stroke-miterlimit:10;stroke-opacity:1"
       d="m 140.99793,80.812531 h 13.63142"
       transform="matrix(0.746781,0,0,0.746781,0.373391,0.373391)"
       id="path204" />
    <path
       style="fill:#000000;fill-opacity:1;fill-rule:nonzero;stroke:#000000;stroke-width:1;stroke-linecap:butt;stroke-linejoin:miter;stroke-miterlimit:10;stroke-opacity:1"
       d="m 159.88105,80.812531 -6.99878,3.499394 1.74708,-3.499394 -1.74708,-3.504625 z m 0,0"
       transform="matrix(0.746781,0,0,0.746781,0.373391,0.373391)"
       id="path206" />
    <path
       style="fill:none;stroke:#000000;stroke-width:1;stroke-linecap:butt;stroke-linejoin:miter;stroke-miterlimit:10;stroke-opacity:1"
       d="m 140.99793,91.002097 h 13.63142"
       transform="matrix(0.746781,0,0,0.746781,0.373391,0.373391)"
       id="path208" />
    <path
       style="fill:#000000;fill-opacity:1;fill-rule:nonzero;stroke:#000000;stroke-width:1;stroke-linecap:butt;stroke-linejoin:miter;stroke-miterlimit:10;stroke-opacity:1"
       d="m 159.88105,91.002097 -6.99878,3.499394 1.74708,-3.499394 -1.74708,-3.504625 z m 0,0"
       transform="matrix(0.746781,0,0,0.746781,0.373391,0.373391)"
       id="path210" />
    <path
       style="fill:none;stroke:#000000;stroke-width:1;stroke-linecap:butt;stroke-linejoin:miter;stroke-miterlimit:10;stroke-opacity:1"
       d="m 140.99793,100.99812 h 13.63142"
       transform="matrix(0.746781,0,0,0.746781,0.373391,0.373391)"
       id="path212" />
    <path
       style="fill:#000000;fill-opacity:1;fill-rule:nonzero;stroke:#000000;stroke-width:1;stroke-linecap:butt;stroke-linejoin:miter;stroke-miterlimit:10;stroke-opacity:1"
       d="m 159.88105,100.99812 -6.99878,3.4994 1.74708,-3.4994 -1.74708,-3.49939 z m 0,0"
       transform="matrix(0.746781,0,0,0.746781,0.373391,0.373391)"
       id="path214" />
    <path
       style="fill:none;stroke:#000000;stroke-width:1;stroke-linecap:butt;stroke-linejoin:miter;stroke-miterlimit:10;stroke-opacity:1"
       d="m 140.99793,110.81107 h 13.63142"
       transform="matrix(0.746781,0,0,0.746781,0.373391,0.373391)"
       id="path216" />
    <path
       style="fill:#000000;fill-opacity:1;fill-rule:nonzero;stroke:none"
       d="m 119.76953,83.125 -5.22656,2.613281 1.30469,-2.613281 -1.30469,-2.613281 z m 0,0"
       id="path218" />
    <g
       clip-path="url(#clip3)"
       clip-rule="nonzero"
       id="g222">
      <path
         style="fill:none;stroke:#000000;stroke-width:1;stroke-linecap:butt;stroke-linejoin:miter;stroke-miterlimit:10;stroke-opacity:1"
         d="m 159.88105,110.81107 -6.99878,3.4994 1.74708,-3.4994 -1.74708,-3.49939 z m 0,0"
         transform="matrix(0.746781,0,0,0.746781,0.373391,0.373391)"
         id="path220" />
    </g>
    <g
       style="fill:#000000;fill-opacity:1"
       id="g234">
      <use
         xlink:href="#glyph1-1"
         x="127.40785"
         y="11.201716"
         id="use224"
         width="100%"
         height="100%" />
      <use
         xlink:href="#glyph1-2"
         x="132.88692"
         y="11.201716"
         id="use226"
         width="100%"
         height="100%" />
      <use
         xlink:href="#glyph1-3"
         x="138.81923"
         y="11.201716"
         id="use228"
         width="100%"
         height="100%" />
      <use
         xlink:href="#glyph1-4"
         x="144.29831"
         y="11.201716"
         id="use230"
         width="100%"
         height="100%" />
      <use
         xlink:href="#glyph1-5"
         x="147.03383"
         y="11.201716"
         id="use232"
         width="100%"
         height="100%" />
    </g>
    <g
       style="fill:#000000;fill-opacity:1"
       id="g238">
      <use
         xlink:href="#glyph1-6"
         x="124.82912"
         y="18.669525"
         id="use236"
         width="100%"
         height="100%" />
    </g>
    <g
       style="fill:#000000;fill-opacity:1"
       id="g248">
      <use
         xlink:href="#glyph1-7"
         x="127.1114"
         y="18.669525"
         id="use240"
         width="100%"
         height="100%" />
      <use
         xlink:href="#glyph1-8"
         x="133.04372"
         y="18.669525"
         id="use242"
         width="100%"
         height="100%" />
      <use
         xlink:href="#glyph1-9"
         x="137.61227"
         y="18.669525"
         id="use244"
         width="100%"
         height="100%" />
      <use
         xlink:href="#glyph1-10"
         x="142.18083"
         y="18.669525"
         id="use246"
         width="100%"
         height="100%" />
    </g>
    <g
       style="fill:#000000;fill-opacity:1"
       id="g258">
      <use
         xlink:href="#glyph1-4"
         x="149.78575"
         y="18.669525"
         id="use250"
         width="100%"
         height="100%" />
      <use
         xlink:href="#glyph1-11"
         x="152.52127"
         y="18.669525"
         id="use252"
         width="100%"
         height="100%" />
      <use
         xlink:href="#glyph1-12"
         x="154.3463"
         y="18.669525"
         id="use254"
         width="100%"
         height="100%" />
      <use
         xlink:href="#glyph1-8"
         x="156.62857"
         y="18.669525"
         id="use256"
         width="100%"
         height="100%" />
    </g>
    <g
       style="fill:#000000;fill-opacity:1"
       id="g272">
      <use
         xlink:href="#glyph1-10"
         x="127.72289"
         y="26.137337"
         id="use260"
         width="100%"
         height="100%" />
      <use
         xlink:href="#glyph1-13"
         x="135.47621"
         y="26.137337"
         id="use262"
         width="100%"
         height="100%" />
      <use
         xlink:href="#glyph1-3"
         x="141.40854"
         y="26.137337"
         id="use264"
         width="100%"
         height="100%" />
      <use
         xlink:href="#glyph1-4"
         x="146.8876"
         y="26.137337"
         id="use266"
         width="100%"
         height="100%" />
      <use
         xlink:href="#glyph1-5"
         x="149.62312"
         y="26.137337"
         id="use268"
         width="100%"
         height="100%" />
      <use
         xlink:href="#glyph1-14"
         x="153.73042"
         y="26.137337"
         id="use270"
         width="100%"
         height="100%" />
    </g>
    <g
       style="fill:#000000;fill-opacity:1"
       id="g286">
      <use
         xlink:href="#glyph1-10"
         x="127.72289"
         y="33.605148"
         id="use274"
         width="100%"
         height="100%" />
      <use
         xlink:href="#glyph1-13"
         x="135.47621"
         y="33.605148"
         id="use276"
         width="100%"
         height="100%" />
      <use
         xlink:href="#glyph1-3"
         x="141.40854"
         y="33.605148"
         id="use278"
         width="100%"
         height="100%" />
      <use
         xlink:href="#glyph1-4"
         x="146.8876"
         y="33.605148"
         id="use280"
         width="100%"
         height="100%" />
      <use
         xlink:href="#glyph1-5"
         x="149.62312"
         y="33.605148"
         id="use282"
         width="100%"
         height="100%" />
      <use
         xlink:href="#glyph1-15"
         x="153.73042"
         y="33.605148"
         id="use284"
         width="100%"
         height="100%" />
    </g>
    <g
       style="fill:#000000;fill-opacity:1"
       id="g296">
      <use
         xlink:href="#glyph1-16"
         x="128.10796"
         y="41.072956"
         id="use288"
         width="100%"
         height="100%" />
      <use
         xlink:href="#glyph1-8"
         x="134.95078"
         y="41.072956"
         id="use290"
         width="100%"
         height="100%" />
      <use
         xlink:href="#glyph1-17"
         x="139.51935"
         y="41.072956"
         id="use292"
         width="100%"
         height="100%" />
      <use
         xlink:href="#glyph1-10"
         x="146.36217"
         y="41.072956"
         id="use294"
         width="100%"
         height="100%" />
    </g>
    <g
       style="fill:#000000;fill-opacity:1"
       id="g306">
      <use
         xlink:href="#glyph1-4"
         x="153.96707"
         y="41.072956"
         id="use298"
         width="100%"
         height="100%" />
      <use
         xlink:href="#glyph1-11"
         x="156.70259"
         y="41.072956"
         id="use300"
         width="100%"
         height="100%" />
      <use
         xlink:href="#glyph1-12"
         x="158.52762"
         y="41.072956"
         id="use302"
         width="100%"
         height="100%" />
      <use
         xlink:href="#glyph1-8"
         x="160.80989"
         y="41.072956"
         id="use304"
         width="100%"
         height="100%" />
    </g>
    <g
       style="fill:#000000;fill-opacity:1"
       id="g320">
      <use
         xlink:href="#glyph1-7"
         x="128.63304"
         y="48.540768"
         id="use308"
         width="100%"
         height="100%" />
      <use
         xlink:href="#glyph1-7"
         x="134.56535"
         y="48.540768"
         id="use310"
         width="100%"
         height="100%" />
      <use
         xlink:href="#glyph1-15"
         x="140.49767"
         y="48.540768"
         id="use312"
         width="100%"
         height="100%" />
      <use
         xlink:href="#glyph1-3"
         x="145.06622"
         y="48.540768"
         id="use314"
         width="100%"
         height="100%" />
      <use
         xlink:href="#glyph1-4"
         x="150.5453"
         y="48.540768"
         id="use316"
         width="100%"
         height="100%" />
      <use
         xlink:href="#glyph1-5"
         x="153.28082"
         y="48.540768"
         id="use318"
         width="100%"
         height="100%" />
    </g>
    <g
       style="fill:#000000;fill-opacity:1"
       id="g324">
      <use
         xlink:href="#glyph1-6"
         x="123.86063"
         y="56.008579"
         id="use322"
         width="100%"
         height="100%" />
    </g>
    <g
       style="fill:#000000;fill-opacity:1"
       id="g340">
      <use
         xlink:href="#glyph1-6"
         x="126.14291"
         y="56.008579"
         id="use326"
         width="100%"
         height="100%" />
      <use
         xlink:href="#glyph1-18"
         x="128.42519"
         y="56.008579"
         id="use328"
         width="100%"
         height="100%" />
      <use
         xlink:href="#glyph1-11"
         x="132.99376"
         y="56.008579"
         id="use330"
         width="100%"
         height="100%" />
      <use
         xlink:href="#glyph1-19"
         x="134.81877"
         y="56.008579"
         id="use332"
         width="100%"
         height="100%" />
      <use
         xlink:href="#glyph1-3"
         x="139.38734"
         y="56.008579"
         id="use334"
         width="100%"
         height="100%" />
      <use
         xlink:href="#glyph1-4"
         x="144.86641"
         y="56.008579"
         id="use336"
         width="100%"
         height="100%" />
      <use
         xlink:href="#glyph1-5"
         x="147.60193"
         y="56.008579"
         id="use338"
         width="100%"
         height="100%" />
    </g>
    <g
       style="fill:#000000;fill-opacity:1"
       id="g344">
      <use
         xlink:href="#glyph1-6"
         x="121.38692"
         y="63.476387"
         id="use342"
         width="100%"
         height="100%" />
    </g>
    <g
       style="fill:#000000;fill-opacity:1"
       id="g348">
      <use
         xlink:href="#glyph1-6"
         x="123.6692"
         y="63.476387"
         id="use346"
         width="100%"
         height="100%" />
    </g>
    <g
       style="fill:#000000;fill-opacity:1"
       id="g364">
      <use
         xlink:href="#glyph1-6"
         x="125.95148"
         y="63.476387"
         id="use350"
         width="100%"
         height="100%" />
      <use
         xlink:href="#glyph1-18"
         x="128.23375"
         y="63.476387"
         id="use352"
         width="100%"
         height="100%" />
      <use
         xlink:href="#glyph1-11"
         x="132.80232"
         y="63.476387"
         id="use354"
         width="100%"
         height="100%" />
      <use
         xlink:href="#glyph1-4"
         x="134.62733"
         y="63.476387"
         id="use356"
         width="100%"
         height="100%" />
      <use
         xlink:href="#glyph1-3"
         x="137.36285"
         y="63.476387"
         id="use358"
         width="100%"
         height="100%" />
      <use
         xlink:href="#glyph1-4"
         x="142.84193"
         y="63.476387"
         id="use360"
         width="100%"
         height="100%" />
      <use
         xlink:href="#glyph1-5"
         x="145.57745"
         y="63.476387"
         id="use362"
         width="100%"
         height="100%" />
    </g>
    <g
       style="fill:#000000;fill-opacity:1"
       id="g378">
      <use
         xlink:href="#glyph1-20"
         x="127.25616"
         y="70.944199"
         id="use366"
         width="100%"
         height="100%" />
      <use
         xlink:href="#glyph1-21"
         x="132.73523"
         y="70.944199"
         id="use368"
         width="100%"
         height="100%" />
      <use
         xlink:href="#glyph1-22"
         x="137.30379"
         y="70.944199"
         id="use370"
         width="100%"
         height="100%" />
      <use
         xlink:href="#glyph1-23"
         x="143.2361"
         y="70.944199"
         id="use372"
         width="100%"
         height="100%" />
      <use
         xlink:href="#glyph1-24"
         x="149.62567"
         y="70.944199"
         id="use374"
         width="100%"
         height="100%" />
      <use
         xlink:href="#glyph1-25"
         x="154.19424"
         y="70.944199"
         id="use376"
         width="100%"
         height="100%" />
    </g>
    <g
       style="fill:#000000;fill-opacity:1"
       id="g392">
      <use
         xlink:href="#glyph1-20"
         x="127.25616"
         y="78.41201"
         id="use380"
         width="100%"
         height="100%" />
      <use
         xlink:href="#glyph1-21"
         x="132.73523"
         y="78.41201"
         id="use382"
         width="100%"
         height="100%" />
      <use
         xlink:href="#glyph1-22"
         x="137.30379"
         y="78.41201"
         id="use384"
         width="100%"
         height="100%" />
      <use
         xlink:href="#glyph1-23"
         x="143.2361"
         y="78.41201"
         id="use386"
         width="100%"
         height="100%" />
      <use
         xlink:href="#glyph1-24"
         x="149.62567"
         y="78.41201"
         id="use388"
         width="100%"
         height="100%" />
      <use
         xlink:href="#glyph1-14"
         x="154.19424"
         y="78.41201"
         id="use390"
         width="100%"
         height="100%" />
    </g>
    <g
       style="fill:#000000;fill-opacity:1"
       id="g406">
      <use
         xlink:href="#glyph1-20"
         x="127.25616"
         y="85.879822"
         id="use394"
         width="100%"
         height="100%" />
      <use
         xlink:href="#glyph1-21"
         x="132.73523"
         y="85.879822"
         id="use396"
         width="100%"
         height="100%" />
      <use
         xlink:href="#glyph1-22"
         x="137.30379"
         y="85.879822"
         id="use398"
         width="100%"
         height="100%" />
      <use
         xlink:href="#glyph1-23"
         x="143.2361"
         y="85.879822"
         id="use400"
         width="100%"
         height="100%" />
      <use
         xlink:href="#glyph1-24"
         x="149.62567"
         y="85.879822"
         id="use402"
         width="100%"
         height="100%" />
      <use
         xlink:href="#glyph1-15"
         x="154.19424"
         y="85.879822"
         id="use404"
         width="100%"
         height="100%" />
    </g>
  </g>
</svg>
