<?xml version="1.0" encoding="UTF-8" standalone="no"?>
<svg 
   width="144pt"
   height="63.119999pt"
   viewBox="0 0 144 63.119999"
   version="1.2"
   id="svg112"
   xmlns:xlink="http://www.w3.org/1999/xlink"
   xmlns="http://www.w3.org/2000/svg"
   xmlns:svg="http://www.w3.org/2000/svg" content="%3Cmxfile%20host%3D%22app.diagrams.net%22%20modified%3D%222022-01-31T17%3A37%3A00.003Z%22%20agent%3D%225.0%20(X11)%22%20etag%3D%22E5xNybqXLJXt176IPian%22%20version%3D%2216.5.2%22%20type%3D%22device%22%3E%3Cdiagram%20id%3D%22cwL0YR_ynh8NTkPDHcuc%22%20name%3D%22Page-1%22%3E5VhNc5swEP01HNMBCfxxTOw0nelkmowPTXPJKLABtTJyhIhxf30lIxkQdp1kEqcdn0BvxQPte7sCPDyZVxeCLLJLngDzkJ9UHp56CAVjNFQHjawMEowNkgqaGKwBZvQ3GNA3aEkTKDoTJedM0kUXjHmeQyw7GBGCL7vTHjjr3nVBUnNHvwFmMWHQm%2FadJjKr0VHUmv0FaJrZOwe%2BicyJnWyAIiMJX7YgfO7hieBc1mfzagJMZ8%2Fmpb7u847o5sEE5PI5F2SP1z9v%2FeLqsnz8lt4Nr%2BOvk9sTw%2FJEWGkW7KEBU3xnD1zRqqeWK5OKwWPJbeCkWAt1qiYE0aJqguos1ccpxDzBdyPLph6rJqzDJiMbbiR4mSegn9RX4WVGJcwWJNbRpXKWwjI5Z2oUbK5ur9wuA4SEqgWZTFwAn4MUKzXFRLFVxfgSWdmWLZENlLX0tRgxtko3zE3m1YlJ%2FguEQFuEcHIEeXKqHa1GMSNFQeNuWro5VLkRq5v24IcefEKRHU%2BrdnS6MqOd2ZVEpCD3mwmSFP6qQSvH0ZYcW0wAI5I%2BdQtxW%2BLNHa44XVvWSIzGjsTI0a7gpYjBXNUuHIcIBw5R4BDViekRrX2wWfbrrYEPZY3h0Vpj8Epr7CV6Z2uEPWtA3jOHaomyawfCaJprrygdQShAN06qNr1TE5jTJNGXnwlQnZ7cr6m0AxZ6Jeu1RWdeNNVcpeT1brCmLqTgv2DCGVe805znmuWBMuZCajcwu30QvU1PR4Noe522TIW3mMrtC2%2FW06O%2BOscrztCplKgvDjqkOIMXdVWTmJ0t9dkZ%2B2c6oFMrtnZevDn6DlHkEL1zBxz2ZMTHW2PubhR%2BcI2N3vrNxU0aVFTemJn6vH6PsZHmLUYP9r7E1Jb%2Fb15iQvcTxv02eW4Jh3iHbQ5UwuOj7sSh%2B3URvrIT9%2FyAD9uJ7TpaOo6OthWH7raIPrgVB%2F0%2FPbPjVQc56uB3%2B1JQw%2BYXX11qzZ9SfP4H%3C%2Fdiagram%3E%3C%2Fmxfile%3E">
  <defs
     id="defs43">
    <g
       id="g35">
      <symbol
         overflow="visible"
         id="glyph0-0">
        <path
           style="stroke:none;"
           d=""
           id="path2" />
      </symbol>
      <symbol
         overflow="visible"
         id="glyph0-1">
        <path
           style="stroke:none;"
           d="M 0.859375 0 L 0.859375 -8.015625 L 3.625 -8.015625 C 4.25 -8.015625 4.722656 -7.972656 5.046875 -7.890625 C 5.503906 -7.785156 5.894531 -7.59375 6.21875 -7.3125 C 6.644531 -6.957031 6.960938 -6.503906 7.171875 -5.953125 C 7.378906 -5.398438 7.484375 -4.765625 7.484375 -4.046875 C 7.484375 -3.441406 7.410156 -2.898438 7.265625 -2.421875 C 7.128906 -1.953125 6.945312 -1.5625 6.71875 -1.25 C 6.5 -0.945312 6.253906 -0.707031 5.984375 -0.53125 C 5.722656 -0.351562 5.40625 -0.21875 5.03125 -0.125 C 4.664062 -0.0390625 4.238281 0 3.75 0 Z M 1.921875 -0.9375 L 3.625 -0.9375 C 4.15625 -0.9375 4.570312 -0.984375 4.875 -1.078125 C 5.175781 -1.179688 5.414062 -1.320312 5.59375 -1.5 C 5.84375 -1.757812 6.035156 -2.097656 6.171875 -2.515625 C 6.316406 -2.941406 6.390625 -3.457031 6.390625 -4.0625 C 6.390625 -4.90625 6.25 -5.550781 5.96875 -6 C 5.695312 -6.445312 5.363281 -6.75 4.96875 -6.90625 C 4.6875 -7.007812 4.234375 -7.0625 3.609375 -7.0625 L 1.921875 -7.0625 Z M 1.921875 -0.9375 "
           id="path5" />
      </symbol>
      <symbol
         overflow="visible"
         id="glyph0-2">
        <path
           style="stroke:none;"
           d="M 4.703125 -1.875 L 5.71875 -1.75 C 5.5625 -1.15625 5.265625 -0.691406 4.828125 -0.359375 C 4.398438 -0.0351562 3.847656 0.125 3.171875 0.125 C 2.328125 0.125 1.65625 -0.132812 1.15625 -0.65625 C 0.65625 -1.175781 0.40625 -1.90625 0.40625 -2.84375 C 0.40625 -3.820312 0.65625 -4.582031 1.15625 -5.125 C 1.664062 -5.664062 2.320312 -5.9375 3.125 -5.9375 C 3.894531 -5.9375 4.523438 -5.671875 5.015625 -5.140625 C 5.503906 -4.609375 5.75 -3.863281 5.75 -2.90625 C 5.75 -2.851562 5.75 -2.769531 5.75 -2.65625 L 1.421875 -2.65625 C 1.460938 -2.007812 1.644531 -1.515625 1.96875 -1.171875 C 2.289062 -0.835938 2.691406 -0.671875 3.171875 -0.671875 C 3.535156 -0.671875 3.84375 -0.765625 4.09375 -0.953125 C 4.351562 -1.148438 4.554688 -1.457031 4.703125 -1.875 Z M 1.484375 -3.453125 L 4.71875 -3.453125 C 4.675781 -3.941406 4.550781 -4.3125 4.34375 -4.5625 C 4.03125 -4.9375 3.625 -5.125 3.125 -5.125 C 2.675781 -5.125 2.296875 -4.972656 1.984375 -4.671875 C 1.679688 -4.367188 1.515625 -3.960938 1.484375 -3.453125 Z M 1.484375 -3.453125 "
           id="path8" />
      </symbol>
      <symbol
         overflow="visible"
         id="glyph0-3">
        <path
           style="stroke:none;"
           d="M 4.515625 -2.125 L 5.484375 -2 C 5.378906 -1.332031 5.109375 -0.8125 4.671875 -0.4375 C 4.242188 -0.0625 3.710938 0.125 3.078125 0.125 C 2.285156 0.125 1.644531 -0.128906 1.15625 -0.640625 C 0.675781 -1.160156 0.4375 -1.90625 0.4375 -2.875 C 0.4375 -3.5 0.539062 -4.046875 0.75 -4.515625 C 0.957031 -4.992188 1.269531 -5.347656 1.6875 -5.578125 C 2.113281 -5.816406 2.578125 -5.9375 3.078125 -5.9375 C 3.710938 -5.9375 4.226562 -5.773438 4.625 -5.453125 C 5.03125 -5.128906 5.285156 -4.675781 5.390625 -4.09375 L 4.4375 -3.953125 C 4.34375 -4.335938 4.179688 -4.628906 3.953125 -4.828125 C 3.722656 -5.023438 3.445312 -5.125 3.125 -5.125 C 2.625 -5.125 2.21875 -4.945312 1.90625 -4.59375 C 1.601562 -4.238281 1.453125 -3.675781 1.453125 -2.90625 C 1.453125 -2.125 1.597656 -1.554688 1.890625 -1.203125 C 2.191406 -0.847656 2.582031 -0.671875 3.0625 -0.671875 C 3.445312 -0.671875 3.769531 -0.789062 4.03125 -1.03125 C 4.289062 -1.269531 4.453125 -1.632812 4.515625 -2.125 Z M 4.515625 -2.125 "
           id="path11" />
      </symbol>
      <symbol
         overflow="visible"
         id="glyph0-4">
        <path
           style="stroke:none;"
           d="M 0.375 -2.90625 C 0.375 -3.976562 0.671875 -4.769531 1.265625 -5.28125 C 1.765625 -5.71875 2.375 -5.9375 3.09375 -5.9375 C 3.882812 -5.9375 4.535156 -5.671875 5.046875 -5.140625 C 5.554688 -4.617188 5.8125 -3.898438 5.8125 -2.984375 C 5.8125 -2.234375 5.695312 -1.644531 5.46875 -1.21875 C 5.25 -0.789062 4.921875 -0.457031 4.484375 -0.21875 C 4.054688 0.0078125 3.59375 0.125 3.09375 0.125 C 2.28125 0.125 1.625 -0.132812 1.125 -0.65625 C 0.625 -1.175781 0.375 -1.925781 0.375 -2.90625 Z M 1.375 -2.90625 C 1.375 -2.15625 1.535156 -1.59375 1.859375 -1.21875 C 2.191406 -0.851562 2.601562 -0.671875 3.09375 -0.671875 C 3.582031 -0.671875 3.988281 -0.859375 4.3125 -1.234375 C 4.632812 -1.609375 4.796875 -2.175781 4.796875 -2.9375 C 4.796875 -3.65625 4.628906 -4.195312 4.296875 -4.5625 C 3.972656 -4.9375 3.570312 -5.125 3.09375 -5.125 C 2.601562 -5.125 2.191406 -4.9375 1.859375 -4.5625 C 1.535156 -4.195312 1.375 -3.644531 1.375 -2.90625 Z M 1.375 -2.90625 "
           id="path14" />
      </symbol>
      <symbol
         overflow="visible"
         id="glyph0-5">
        <path
           style="stroke:none;"
           d="M 4.5 0 L 4.5 -0.734375 C 4.132812 -0.160156 3.59375 0.125 2.875 0.125 C 2.414062 0.125 1.988281 0 1.59375 -0.25 C 1.207031 -0.507812 0.90625 -0.863281 0.6875 -1.3125 C 0.476562 -1.769531 0.375 -2.296875 0.375 -2.890625 C 0.375 -3.472656 0.472656 -4 0.671875 -4.46875 C 0.867188 -4.9375 1.160156 -5.296875 1.546875 -5.546875 C 1.929688 -5.804688 2.359375 -5.9375 2.828125 -5.9375 C 3.179688 -5.9375 3.492188 -5.859375 3.765625 -5.703125 C 4.035156 -5.554688 4.257812 -5.367188 4.4375 -5.140625 L 4.4375 -8.015625 L 5.40625 -8.015625 L 5.40625 0 Z M 1.390625 -2.890625 C 1.390625 -2.148438 1.546875 -1.59375 1.859375 -1.21875 C 2.171875 -0.851562 2.539062 -0.671875 2.96875 -0.671875 C 3.394531 -0.671875 3.757812 -0.847656 4.0625 -1.203125 C 4.363281 -1.554688 4.515625 -2.09375 4.515625 -2.8125 C 4.515625 -3.601562 4.359375 -4.1875 4.046875 -4.5625 C 3.742188 -4.9375 3.367188 -5.125 2.921875 -5.125 C 2.484375 -5.125 2.117188 -4.941406 1.828125 -4.578125 C 1.535156 -4.222656 1.390625 -3.660156 1.390625 -2.890625 Z M 1.390625 -2.890625 "
           id="path17" />
      </symbol>
      <symbol
         overflow="visible"
         id="glyph0-6">
        <path
           style="stroke:none;"
           d="M 0.46875 -2.109375 L 1.453125 -2.25 C 1.566406 -1.6875 1.757812 -1.28125 2.03125 -1.03125 C 2.300781 -0.789062 2.628906 -0.671875 3.015625 -0.671875 C 3.484375 -0.671875 3.875 -0.832031 4.1875 -1.15625 C 4.507812 -1.476562 4.671875 -1.875 4.671875 -2.34375 C 4.671875 -2.789062 4.519531 -3.160156 4.21875 -3.453125 C 3.925781 -3.753906 3.554688 -3.90625 3.109375 -3.90625 C 2.921875 -3.90625 2.6875 -3.867188 2.40625 -3.796875 L 2.515625 -4.65625 C 2.578125 -4.644531 2.628906 -4.640625 2.671875 -4.640625 C 3.097656 -4.640625 3.476562 -4.75 3.8125 -4.96875 C 4.144531 -5.1875 4.3125 -5.523438 4.3125 -5.984375 C 4.3125 -6.335938 4.1875 -6.632812 3.9375 -6.875 C 3.695312 -7.113281 3.382812 -7.234375 3 -7.234375 C 2.613281 -7.234375 2.289062 -7.113281 2.03125 -6.875 C 1.78125 -6.632812 1.617188 -6.273438 1.546875 -5.796875 L 0.5625 -5.96875 C 0.6875 -6.625 0.960938 -7.132812 1.390625 -7.5 C 1.816406 -7.863281 2.347656 -8.046875 2.984375 -8.046875 C 3.410156 -8.046875 3.804688 -7.953125 4.171875 -7.765625 C 4.546875 -7.578125 4.832031 -7.316406 5.03125 -6.984375 C 5.226562 -6.660156 5.328125 -6.316406 5.328125 -5.953125 C 5.328125 -5.609375 5.234375 -5.296875 5.046875 -5.015625 C 4.859375 -4.734375 4.582031 -4.507812 4.21875 -4.34375 C 4.6875 -4.226562 5.050781 -4 5.3125 -3.65625 C 5.582031 -3.3125 5.71875 -2.878906 5.71875 -2.359375 C 5.71875 -1.660156 5.460938 -1.066406 4.953125 -0.578125 C 4.441406 -0.0976562 3.796875 0.140625 3.015625 0.140625 C 2.316406 0.140625 1.734375 -0.0664062 1.265625 -0.484375 C 0.796875 -0.898438 0.53125 -1.441406 0.46875 -2.109375 Z M 0.46875 -2.109375 "
           id="path20" />
      </symbol>
      <symbol
         overflow="visible"
         id="glyph0-7">
        <path
           style="stroke:none;"
           d="M -0.171875 2.21875 L -0.171875 1.515625 L 6.34375 1.515625 L 6.34375 2.21875 Z M -0.171875 2.21875 "
           id="path23" />
      </symbol>
      <symbol
         overflow="visible"
         id="glyph0-8">
        <path
           style="stroke:none;"
           d="M 1.984375 -4.34375 C 1.566406 -4.488281 1.257812 -4.695312 1.0625 -4.96875 C 0.875 -5.25 0.78125 -5.582031 0.78125 -5.96875 C 0.78125 -6.550781 0.988281 -7.039062 1.40625 -7.4375 C 1.820312 -7.84375 2.378906 -8.046875 3.078125 -8.046875 C 3.773438 -8.046875 4.335938 -7.84375 4.765625 -7.4375 C 5.191406 -7.03125 5.40625 -6.535156 5.40625 -5.953125 C 5.40625 -5.578125 5.304688 -5.25 5.109375 -4.96875 C 4.910156 -4.695312 4.613281 -4.488281 4.21875 -4.34375 C 4.707031 -4.1875 5.082031 -3.925781 5.34375 -3.5625 C 5.601562 -3.207031 5.734375 -2.78125 5.734375 -2.28125 C 5.734375 -1.601562 5.488281 -1.03125 5 -0.5625 C 4.519531 -0.09375 3.882812 0.140625 3.09375 0.140625 C 2.300781 0.140625 1.660156 -0.09375 1.171875 -0.5625 C 0.691406 -1.03125 0.453125 -1.613281 0.453125 -2.3125 C 0.453125 -2.832031 0.582031 -3.269531 0.84375 -3.625 C 1.113281 -3.976562 1.492188 -4.21875 1.984375 -4.34375 Z M 1.78125 -6.015625 C 1.78125 -5.628906 1.898438 -5.316406 2.140625 -5.078125 C 2.390625 -4.835938 2.707031 -4.71875 3.09375 -4.71875 C 3.476562 -4.71875 3.789062 -4.835938 4.03125 -5.078125 C 4.269531 -5.316406 4.390625 -5.609375 4.390625 -5.953125 C 4.390625 -6.316406 4.265625 -6.617188 4.015625 -6.859375 C 3.765625 -7.109375 3.457031 -7.234375 3.09375 -7.234375 C 2.71875 -7.234375 2.40625 -7.113281 2.15625 -6.875 C 1.90625 -6.632812 1.78125 -6.347656 1.78125 -6.015625 Z M 1.46875 -2.3125 C 1.46875 -2.03125 1.53125 -1.757812 1.65625 -1.5 C 1.789062 -1.238281 1.988281 -1.035156 2.25 -0.890625 C 2.519531 -0.742188 2.804688 -0.671875 3.109375 -0.671875 C 3.578125 -0.671875 3.960938 -0.820312 4.265625 -1.125 C 4.566406 -1.425781 4.71875 -1.8125 4.71875 -2.28125 C 4.71875 -2.75 4.5625 -3.140625 4.25 -3.453125 C 3.9375 -3.765625 3.539062 -3.921875 3.0625 -3.921875 C 2.601562 -3.921875 2.222656 -3.765625 1.921875 -3.453125 C 1.617188 -3.148438 1.46875 -2.769531 1.46875 -2.3125 Z M 1.46875 -2.3125 "
           id="path26" />
      </symbol>
      <symbol
         overflow="visible"
         id="glyph0-9">
        <path
           style="stroke:none;"
           d="M 0.734375 0 L 0.734375 -5.796875 L 1.625 -5.796875 L 1.625 -4.96875 C 2.050781 -5.613281 2.664062 -5.9375 3.46875 -5.9375 C 3.820312 -5.9375 4.144531 -5.875 4.4375 -5.75 C 4.726562 -5.625 4.945312 -5.457031 5.09375 -5.25 C 5.238281 -5.039062 5.335938 -4.796875 5.390625 -4.515625 C 5.429688 -4.335938 5.453125 -4.019531 5.453125 -3.5625 L 5.453125 0 L 4.46875 0 L 4.46875 -3.53125 C 4.46875 -3.925781 4.425781 -4.222656 4.34375 -4.421875 C 4.269531 -4.617188 4.132812 -4.773438 3.9375 -4.890625 C 3.75 -5.015625 3.523438 -5.078125 3.265625 -5.078125 C 2.847656 -5.078125 2.484375 -4.941406 2.171875 -4.671875 C 1.867188 -4.410156 1.71875 -3.910156 1.71875 -3.171875 L 1.71875 0 Z M 0.734375 0 "
           id="path29" />
      </symbol>
      <symbol
         overflow="visible"
         id="glyph0-10">
        <path
           style="stroke:none;"
           d="M 0.5 -2.578125 L 1.5 -2.65625 C 1.550781 -2.257812 1.660156 -1.929688 1.828125 -1.671875 C 2.003906 -1.421875 2.273438 -1.210938 2.640625 -1.046875 C 3.003906 -0.890625 3.414062 -0.8125 3.875 -0.8125 C 4.269531 -0.8125 4.625 -0.867188 4.9375 -0.984375 C 5.25 -1.109375 5.476562 -1.273438 5.625 -1.484375 C 5.78125 -1.691406 5.859375 -1.921875 5.859375 -2.171875 C 5.859375 -2.421875 5.785156 -2.640625 5.640625 -2.828125 C 5.492188 -3.015625 5.253906 -3.175781 4.921875 -3.3125 C 4.703125 -3.394531 4.222656 -3.519531 3.484375 -3.6875 C 2.753906 -3.863281 2.238281 -4.035156 1.9375 -4.203125 C 1.5625 -4.398438 1.28125 -4.644531 1.09375 -4.9375 C 0.90625 -5.238281 0.8125 -5.570312 0.8125 -5.9375 C 0.8125 -6.34375 0.925781 -6.71875 1.15625 -7.0625 C 1.382812 -7.414062 1.71875 -7.679688 2.15625 -7.859375 C 2.59375 -8.046875 3.082031 -8.140625 3.625 -8.140625 C 4.21875 -8.140625 4.738281 -8.046875 5.1875 -7.859375 C 5.644531 -7.671875 5.992188 -7.390625 6.234375 -7.015625 C 6.484375 -6.640625 6.617188 -6.21875 6.640625 -5.75 L 5.625 -5.671875 C 5.570312 -6.179688 5.382812 -6.5625 5.0625 -6.8125 C 4.75 -7.070312 4.285156 -7.203125 3.671875 -7.203125 C 3.023438 -7.203125 2.554688 -7.082031 2.265625 -6.84375 C 1.972656 -6.613281 1.828125 -6.335938 1.828125 -6.015625 C 1.828125 -5.722656 1.929688 -5.484375 2.140625 -5.296875 C 2.347656 -5.109375 2.878906 -4.914062 3.734375 -4.71875 C 4.597656 -4.53125 5.191406 -4.363281 5.515625 -4.21875 C 5.984375 -4 6.328125 -3.722656 6.546875 -3.390625 C 6.765625 -3.066406 6.875 -2.691406 6.875 -2.265625 C 6.875 -1.835938 6.75 -1.429688 6.5 -1.046875 C 6.257812 -0.671875 5.910156 -0.378906 5.453125 -0.171875 C 5.003906 0.0351562 4.492188 0.140625 3.921875 0.140625 C 3.191406 0.140625 2.582031 0.0351562 2.09375 -0.171875 C 1.601562 -0.390625 1.21875 -0.707031 0.9375 -1.125 C 0.664062 -1.550781 0.519531 -2.035156 0.5 -2.578125 Z M 0.5 -2.578125 "
           id="path32" />
      </symbol>
    </g>
    <clipPath
       id="clip1">
      <path
         d="M 0 0 L 144 0 L 144 62.671875 L 0 62.671875 Z M 0 0 "
         id="path37" />
    </clipPath>
    <clipPath
       id="clip2">
      <path
         d="M 41 0 L 103 0 L 103 61.925781 L 41 61.925781 Z M 41 0 "
         id="path40" />
    </clipPath>
  </defs>
  <g
     id="surface1">
    <g
       clip-path="url(#clip1)"
       clip-rule="nonzero"
       id="g47">
      <path
         style="fill:#ffffff;fill-opacity:1;fill-rule:nonzero;stroke:none"
         d="M 0,0 H 144 V 62.671875 H 0 Z m 0,0"
         id="path45" />
    </g>
    <path
       style="fill:#ffffff;fill-opacity:1;fill-rule:nonzero;stroke:none"
       d="m 42.15625,1.121094 h 59.6875 v 59.6875 h -59.6875 z m 0,0"
       id="path49" />
    <g
       clip-path="url(#clip2)"
       clip-rule="nonzero"
       id="g53">
      <path
         style="fill:none;stroke:#000000;stroke-width:1;stroke-linecap:butt;stroke-linejoin:miter;stroke-miterlimit:4;stroke-opacity:1"
         d="M 56.001087,1.002577 H 135.99892 V 81.00041 H 56.001087 Z m 0,0"
         transform="matrix(0.746114,0,0,0.746114,0.373057,0.373057)"
         id="path51" />
    </g>
    <g
       style="fill:#000000;fill-opacity:1"
       id="g71">
      <use
         xlink:href="#glyph0-1"
         x="46.10751"
         y="35.067356"
         id="use55"
         width="100%"
         height="100%" />
      <use
         xlink:href="#glyph0-2"
         x="54.189804"
         y="35.067356"
         id="use57"
         width="100%"
         height="100%" />
      <use
         xlink:href="#glyph0-3"
         x="60.414101"
         y="35.067356"
         id="use59"
         width="100%"
         height="100%" />
      <use
         xlink:href="#glyph0-4"
         x="66.009956"
         y="35.067356"
         id="use61"
         width="100%"
         height="100%" />
      <use
         xlink:href="#glyph0-5"
         x="72.234253"
         y="35.067356"
         id="use63"
         width="100%"
         height="100%" />
      <use
         xlink:href="#glyph0-6"
         x="78.458549"
         y="35.067356"
         id="use65"
         width="100%"
         height="100%" />
      <use
         xlink:href="#glyph0-7"
         x="84.682838"
         y="35.067356"
         id="use67"
         width="100%"
         height="100%" />
      <use
         xlink:href="#glyph0-8"
         x="90.907135"
         y="35.067356"
         id="use69"
         width="100%"
         height="100%" />
    </g>
    <path
       style="fill:none;stroke:#000000;stroke-width:1;stroke-linecap:butt;stroke-linejoin:miter;stroke-miterlimit:10;stroke-opacity:1"
       d="M 26.0019,21.002035 H 49.629532"
       transform="matrix(0.746114,0,0,0.746114,0.373057,0.373057)"
       id="path73" />
    <path
       style="fill:#000000;fill-opacity:1;fill-rule:nonzero;stroke:#000000;stroke-width:1;stroke-linecap:butt;stroke-linejoin:miter;stroke-miterlimit:10;stroke-opacity:1"
       d="m 54.880699,21.002035 -6.999811,3.497288 1.748644,-3.497288 -1.748644,-3.502523 z m 0,0"
       transform="matrix(0.746114,0,0,0.746114,0.373057,0.373057)"
       id="path75" />
    <path
       style="fill:none;stroke:#000000;stroke-width:1;stroke-linecap:butt;stroke-linejoin:miter;stroke-miterlimit:10;stroke-opacity:1"
       d="M 26.0019,61.000952 H 49.629532"
       transform="matrix(0.746114,0,0,0.746114,0.373057,0.373057)"
       id="path77" />
    <path
       style="fill:#000000;fill-opacity:1;fill-rule:nonzero;stroke:#000000;stroke-width:1;stroke-linecap:butt;stroke-linejoin:miter;stroke-miterlimit:10;stroke-opacity:1"
       d="m 54.880699,61.000952 -6.999811,3.497287 1.748644,-3.497287 -1.748644,-3.502523 z m 0,0"
       transform="matrix(0.746114,0,0,0.746114,0.373057,0.373057)"
       id="path79" />
    <g
       style="fill:#000000;fill-opacity:1"
       id="g85">
      <use
         xlink:href="#glyph0-2"
         x="6.0854921"
         y="20.145077"
         id="use81"
         width="100%"
         height="100%" />
      <use
         xlink:href="#glyph0-9"
         x="12.309787"
         y="20.145077"
         id="use83"
         width="100%"
         height="100%" />
    </g>
    <g
       style="fill:#000000;fill-opacity:1"
       id="g89">
      <use
         xlink:href="#glyph0-2"
         x="9.1981859"
         y="49.989635"
         id="use87"
         width="100%"
         height="100%" />
    </g>
    <path
       style="fill:none;stroke:#000000;stroke-width:1;stroke-linecap:butt;stroke-linejoin:miter;stroke-miterlimit:10;stroke-opacity:1"
       d="m 31.001764,66.000816 9.99973,-9.999729"
       transform="matrix(0.746114,0,0,0.746114,0.373057,0.373057)"
       id="path91" />
    <g
       style="fill:#000000;fill-opacity:1"
       id="g95">
      <use
         xlink:href="#glyph0-6"
         x="24.120464"
         y="42.528496"
         id="use93"
         width="100%"
         height="100%" />
    </g>
    <path
       style="fill:none;stroke:#000000;stroke-width:1;stroke-linecap:butt;stroke-linejoin:miter;stroke-miterlimit:10;stroke-opacity:1"
       d="m 135.99892,41.001494 h 23.63287"
       transform="matrix(0.746114,0,0,0.746114,0.373057,0.373057)"
       id="path97" />
    <path
       style="fill:#000000;fill-opacity:1;fill-rule:nonzero;stroke:#000000;stroke-width:1;stroke-linecap:butt;stroke-linejoin:miter;stroke-miterlimit:10;stroke-opacity:1"
       d="m 164.87772,41.001494 -6.99981,3.497287 1.75388,-3.497287 -1.75388,-3.502523 z m 0,0"
       transform="matrix(0.746114,0,0,0.746114,0.373057,0.373057)"
       id="path99" />
    <path
       style="fill:none;stroke:#000000;stroke-width:1;stroke-linecap:butt;stroke-linejoin:miter;stroke-miterlimit:10;stroke-opacity:1"
       d="m 145.99865,46.001358 9.99973,-9.999729"
       transform="matrix(0.746114,0,0,0.746114,0.373057,0.373057)"
       id="path101" />
    <g
       style="fill:#000000;fill-opacity:1"
       id="g105">
      <use
         xlink:href="#glyph0-8"
         x="109.92357"
         y="27.606216"
         id="use103"
         width="100%"
         height="100%" />
    </g>
    <g
       style="fill:#000000;fill-opacity:1"
       id="g109">
      <use
         xlink:href="#glyph0-10"
         x="127.95854"
         y="35.067356"
         id="use107"
         width="100%"
         height="100%" />
    </g>
  </g>
</svg>
