<?xml version="1.0" encoding="UTF-8" standalone="no"?>
<svg 
   width="144pt"
   height="63.119999pt"
   viewBox="0 0 144 63.119999"
   version="1.2"
   id="svg112"
   xmlns:xlink="http://www.w3.org/1999/xlink"
   xmlns="http://www.w3.org/2000/svg"
   xmlns:svg="http://www.w3.org/2000/svg" content="%3Cmxfile%20host%3D%22app.diagrams.net%22%20modified%3D%222022-01-31T17%3A36%3A22.930Z%22%20agent%3D%225.0%20(X11)%22%20etag%3D%22QBGNddRlz0VwOzOtLyGT%22%20version%3D%2216.5.2%22%20type%3D%22device%22%3E%3Cdiagram%20id%3D%22Uao8GnqSIZbQW0yXVpAg%22%20name%3D%22Page-1%22%3E5VjRbpswFP0aHjsFA0nz2CZdp0mbOmXamqfKhVuw5uDMOA3Z188O1wFM0jZRm27KE%2Fhcc8HnnHsNeMFoVl5LOs%2B%2BiAS4R3pJ6QVjjxB%2FSAb6YJAVIv4QkVSyBLEamLA%2FgGAP0QVLoGhNVEJwxeZtMBZ5DrFqYVRKsWxPexC8fdc5TfGOvRqYxJRDZ9pPlqisQs%2BjxuxPwNLM3tnvYWRG7WQEiowmYtmAgisvGEkhVHU2K0fADXuWl%2Bq6jzuimweTkKuXXDCc0pv%2Btx%2FL%2B7PP91M6%2Bj74WtydYZZHyhe4YI%2F0uc53%2BSB0Wv3UaoVU9H8vhA2cFWuhLvQEP5qXdVCfpeY4hlgk5C602fRjVQmrMDKyyU2kWOQJmCft6fAyYwomcxqb6FI7S2OZmnE98jdXN1dulwFSQdmAkIlrEDNQcqWnYDSwqqAviZVt2RAZoayhr8Uo2irdZK6Z1ydI%2Fh5CkC1COBxBnlwYR%2BtRzGlRsLhNS5tDzY1c3TYHUzP4QCI7HpfN6HiFo53sKipTUM%2BbCZIUntSgwXG0hWOLSeBUscd2IW4jHu9wI9jasigxGToSE0e7QixkDHhVs3CcRIHvJPKdRBUxnURrH2yWfbg1wmNZY3Cy1ugfaI1nE72xNaKONSDvmEO3RNW2A%2BUszY1XtI4gNWAaJ9Ob3gUGZixJzOWXEnSnp%2FfrVMYBc7OS9dqiSy8am1wLJardYJ26UFL8gpHgQucd5yI3WR4Y5y6kdwPc7f3odXo66Ufb67RhqmCLqdy%2B8Go9vd9V53TFGTiVEnXFIccUZ7BXV0VidrbUFzP2z3RAp1Zs7ey9OfacRJGT6I074HlHxq6OJ1Nj7m4UvnONDV%2F7zcUlDUqmbnGmOa%2FeY2ykfosxg2dfYirL%2FzcvMaH7CeN%2Bm7y0hMNgh22OVMJ2mz7RVhy6nxfhga24Y4jguK3Y7%2F5MCE%2B2F4fuvkjeuRf73T8Mk9NVhzjqBG%2F2qaCH9T%2B%2BqtTqX6XB1V8%3D%3C%2Fdiagram%3E%3C%2Fmxfile%3E">
  <defs
     id="defs43">
    <g
       id="g35">
      <symbol
         overflow="visible"
         id="glyph0-0">
        <path
           style="stroke:none;"
           d=""
           id="path2" />
      </symbol>
      <symbol
         overflow="visible"
         id="glyph0-1">
        <path
           style="stroke:none;"
           d="M 0.859375 0 L 0.859375 -8.015625 L 3.625 -8.015625 C 4.25 -8.015625 4.722656 -7.972656 5.046875 -7.890625 C 5.503906 -7.785156 5.894531 -7.59375 6.21875 -7.3125 C 6.644531 -6.957031 6.960938 -6.503906 7.171875 -5.953125 C 7.378906 -5.398438 7.484375 -4.765625 7.484375 -4.046875 C 7.484375 -3.441406 7.410156 -2.898438 7.265625 -2.421875 C 7.128906 -1.953125 6.945312 -1.5625 6.71875 -1.25 C 6.5 -0.945312 6.253906 -0.707031 5.984375 -0.53125 C 5.722656 -0.351562 5.40625 -0.21875 5.03125 -0.125 C 4.664062 -0.0390625 4.238281 0 3.75 0 Z M 1.921875 -0.9375 L 3.625 -0.9375 C 4.15625 -0.9375 4.570312 -0.984375 4.875 -1.078125 C 5.175781 -1.179688 5.414062 -1.320312 5.59375 -1.5 C 5.84375 -1.757812 6.035156 -2.097656 6.171875 -2.515625 C 6.316406 -2.941406 6.390625 -3.457031 6.390625 -4.0625 C 6.390625 -4.90625 6.25 -5.550781 5.96875 -6 C 5.695312 -6.445312 5.363281 -6.75 4.96875 -6.90625 C 4.6875 -7.007812 4.234375 -7.0625 3.609375 -7.0625 L 1.921875 -7.0625 Z M 1.921875 -0.9375 "
           id="path5" />
      </symbol>
      <symbol
         overflow="visible"
         id="glyph0-2">
        <path
           style="stroke:none;"
           d="M 4.703125 -1.875 L 5.71875 -1.75 C 5.5625 -1.15625 5.265625 -0.691406 4.828125 -0.359375 C 4.398438 -0.0351562 3.847656 0.125 3.171875 0.125 C 2.328125 0.125 1.65625 -0.132812 1.15625 -0.65625 C 0.65625 -1.175781 0.40625 -1.90625 0.40625 -2.84375 C 0.40625 -3.820312 0.65625 -4.582031 1.15625 -5.125 C 1.664062 -5.664062 2.320312 -5.9375 3.125 -5.9375 C 3.894531 -5.9375 4.523438 -5.671875 5.015625 -5.140625 C 5.503906 -4.609375 5.75 -3.863281 5.75 -2.90625 C 5.75 -2.851562 5.75 -2.769531 5.75 -2.65625 L 1.421875 -2.65625 C 1.460938 -2.007812 1.644531 -1.515625 1.96875 -1.171875 C 2.289062 -0.835938 2.691406 -0.671875 3.171875 -0.671875 C 3.535156 -0.671875 3.84375 -0.765625 4.09375 -0.953125 C 4.351562 -1.148438 4.554688 -1.457031 4.703125 -1.875 Z M 1.484375 -3.453125 L 4.71875 -3.453125 C 4.675781 -3.941406 4.550781 -4.3125 4.34375 -4.5625 C 4.03125 -4.9375 3.625 -5.125 3.125 -5.125 C 2.675781 -5.125 2.296875 -4.972656 1.984375 -4.671875 C 1.679688 -4.367188 1.515625 -3.960938 1.484375 -3.453125 Z M 1.484375 -3.453125 "
           id="path8" />
      </symbol>
      <symbol
         overflow="visible"
         id="glyph0-3">
        <path
           style="stroke:none;"
           d="M 4.515625 -2.125 L 5.484375 -2 C 5.378906 -1.332031 5.109375 -0.8125 4.671875 -0.4375 C 4.242188 -0.0625 3.710938 0.125 3.078125 0.125 C 2.285156 0.125 1.644531 -0.128906 1.15625 -0.640625 C 0.675781 -1.160156 0.4375 -1.90625 0.4375 -2.875 C 0.4375 -3.5 0.539062 -4.046875 0.75 -4.515625 C 0.957031 -4.992188 1.269531 -5.347656 1.6875 -5.578125 C 2.113281 -5.816406 2.578125 -5.9375 3.078125 -5.9375 C 3.710938 -5.9375 4.226562 -5.773438 4.625 -5.453125 C 5.03125 -5.128906 5.285156 -4.675781 5.390625 -4.09375 L 4.4375 -3.953125 C 4.34375 -4.335938 4.179688 -4.628906 3.953125 -4.828125 C 3.722656 -5.023438 3.445312 -5.125 3.125 -5.125 C 2.625 -5.125 2.21875 -4.945312 1.90625 -4.59375 C 1.601562 -4.238281 1.453125 -3.675781 1.453125 -2.90625 C 1.453125 -2.125 1.597656 -1.554688 1.890625 -1.203125 C 2.191406 -0.847656 2.582031 -0.671875 3.0625 -0.671875 C 3.445312 -0.671875 3.769531 -0.789062 4.03125 -1.03125 C 4.289062 -1.269531 4.453125 -1.632812 4.515625 -2.125 Z M 4.515625 -2.125 "
           id="path11" />
      </symbol>
      <symbol
         overflow="visible"
         id="glyph0-4">
        <path
           style="stroke:none;"
           d="M 0.375 -2.90625 C 0.375 -3.976562 0.671875 -4.769531 1.265625 -5.28125 C 1.765625 -5.71875 2.375 -5.9375 3.09375 -5.9375 C 3.882812 -5.9375 4.535156 -5.671875 5.046875 -5.140625 C 5.554688 -4.617188 5.8125 -3.898438 5.8125 -2.984375 C 5.8125 -2.234375 5.695312 -1.644531 5.46875 -1.21875 C 5.25 -0.789062 4.921875 -0.457031 4.484375 -0.21875 C 4.054688 0.0078125 3.59375 0.125 3.09375 0.125 C 2.28125 0.125 1.625 -0.132812 1.125 -0.65625 C 0.625 -1.175781 0.375 -1.925781 0.375 -2.90625 Z M 1.375 -2.90625 C 1.375 -2.15625 1.535156 -1.59375 1.859375 -1.21875 C 2.191406 -0.851562 2.601562 -0.671875 3.09375 -0.671875 C 3.582031 -0.671875 3.988281 -0.859375 4.3125 -1.234375 C 4.632812 -1.609375 4.796875 -2.175781 4.796875 -2.9375 C 4.796875 -3.65625 4.628906 -4.195312 4.296875 -4.5625 C 3.972656 -4.9375 3.570312 -5.125 3.09375 -5.125 C 2.601562 -5.125 2.191406 -4.9375 1.859375 -4.5625 C 1.535156 -4.195312 1.375 -3.644531 1.375 -2.90625 Z M 1.375 -2.90625 "
           id="path14" />
      </symbol>
      <symbol
         overflow="visible"
         id="glyph0-5">
        <path
           style="stroke:none;"
           d="M 4.5 0 L 4.5 -0.734375 C 4.132812 -0.160156 3.59375 0.125 2.875 0.125 C 2.414062 0.125 1.988281 0 1.59375 -0.25 C 1.207031 -0.507812 0.90625 -0.863281 0.6875 -1.3125 C 0.476562 -1.769531 0.375 -2.296875 0.375 -2.890625 C 0.375 -3.472656 0.472656 -4 0.671875 -4.46875 C 0.867188 -4.9375 1.160156 -5.296875 1.546875 -5.546875 C 1.929688 -5.804688 2.359375 -5.9375 2.828125 -5.9375 C 3.179688 -5.9375 3.492188 -5.859375 3.765625 -5.703125 C 4.035156 -5.554688 4.257812 -5.367188 4.4375 -5.140625 L 4.4375 -8.015625 L 5.40625 -8.015625 L 5.40625 0 Z M 1.390625 -2.890625 C 1.390625 -2.148438 1.546875 -1.59375 1.859375 -1.21875 C 2.171875 -0.851562 2.539062 -0.671875 2.96875 -0.671875 C 3.394531 -0.671875 3.757812 -0.847656 4.0625 -1.203125 C 4.363281 -1.554688 4.515625 -2.09375 4.515625 -2.8125 C 4.515625 -3.601562 4.359375 -4.1875 4.046875 -4.5625 C 3.742188 -4.9375 3.367188 -5.125 2.921875 -5.125 C 2.484375 -5.125 2.117188 -4.941406 1.828125 -4.578125 C 1.535156 -4.222656 1.390625 -3.660156 1.390625 -2.890625 Z M 1.390625 -2.890625 "
           id="path17" />
      </symbol>
      <symbol
         overflow="visible"
         id="glyph0-6">
        <path
           style="stroke:none;"
           d="M 5.625 -0.9375 L 5.625 0 L 0.34375 0 C 0.332031 -0.238281 0.367188 -0.46875 0.453125 -0.6875 C 0.585938 -1.039062 0.800781 -1.390625 1.09375 -1.734375 C 1.394531 -2.085938 1.828125 -2.492188 2.390625 -2.953125 C 3.253906 -3.671875 3.835938 -4.238281 4.140625 -4.65625 C 4.453125 -5.070312 4.609375 -5.46875 4.609375 -5.84375 C 4.609375 -6.226562 4.46875 -6.554688 4.1875 -6.828125 C 3.914062 -7.097656 3.554688 -7.234375 3.109375 -7.234375 C 2.628906 -7.234375 2.25 -7.085938 1.96875 -6.796875 C 1.6875 -6.515625 1.539062 -6.125 1.53125 -5.625 L 0.53125 -5.71875 C 0.59375 -6.476562 0.847656 -7.054688 1.296875 -7.453125 C 1.753906 -7.847656 2.363281 -8.046875 3.125 -8.046875 C 3.894531 -8.046875 4.503906 -7.832031 4.953125 -7.40625 C 5.398438 -6.976562 5.625 -6.445312 5.625 -5.8125 C 5.625 -5.5 5.554688 -5.1875 5.421875 -4.875 C 5.296875 -4.5625 5.078125 -4.234375 4.765625 -3.890625 C 4.460938 -3.546875 3.957031 -3.078125 3.25 -2.484375 C 2.664062 -1.992188 2.289062 -1.660156 2.125 -1.484375 C 1.957031 -1.304688 1.816406 -1.125 1.703125 -0.9375 Z M 5.625 -0.9375 "
           id="path20" />
      </symbol>
      <symbol
         overflow="visible"
         id="glyph0-7">
        <path
           style="stroke:none;"
           d="M -0.171875 2.21875 L -0.171875 1.515625 L 6.34375 1.515625 L 6.34375 2.21875 Z M -0.171875 2.21875 "
           id="path23" />
      </symbol>
      <symbol
         overflow="visible"
         id="glyph0-8">
        <path
           style="stroke:none;"
           d="M 3.609375 0 L 3.609375 -1.921875 L 0.140625 -1.921875 L 0.140625 -2.8125 L 3.796875 -8.015625 L 4.59375 -8.015625 L 4.59375 -2.8125 L 5.6875 -2.8125 L 5.6875 -1.921875 L 4.59375 -1.921875 L 4.59375 0 Z M 3.609375 -2.8125 L 3.609375 -6.421875 L 1.109375 -2.8125 Z M 3.609375 -2.8125 "
           id="path26" />
      </symbol>
      <symbol
         overflow="visible"
         id="glyph0-9">
        <path
           style="stroke:none;"
           d="M 0.734375 0 L 0.734375 -5.796875 L 1.625 -5.796875 L 1.625 -4.96875 C 2.050781 -5.613281 2.664062 -5.9375 3.46875 -5.9375 C 3.820312 -5.9375 4.144531 -5.875 4.4375 -5.75 C 4.726562 -5.625 4.945312 -5.457031 5.09375 -5.25 C 5.238281 -5.039062 5.335938 -4.796875 5.390625 -4.515625 C 5.429688 -4.335938 5.453125 -4.019531 5.453125 -3.5625 L 5.453125 0 L 4.46875 0 L 4.46875 -3.53125 C 4.46875 -3.925781 4.425781 -4.222656 4.34375 -4.421875 C 4.269531 -4.617188 4.132812 -4.773438 3.9375 -4.890625 C 3.75 -5.015625 3.523438 -5.078125 3.265625 -5.078125 C 2.847656 -5.078125 2.484375 -4.941406 2.171875 -4.671875 C 1.867188 -4.410156 1.71875 -3.910156 1.71875 -3.171875 L 1.71875 0 Z M 0.734375 0 "
           id="path29" />
      </symbol>
      <symbol
         overflow="visible"
         id="glyph0-10">
        <path
           style="stroke:none;"
           d="M 0.5 -2.578125 L 1.5 -2.65625 C 1.550781 -2.257812 1.660156 -1.929688 1.828125 -1.671875 C 2.003906 -1.421875 2.273438 -1.210938 2.640625 -1.046875 C 3.003906 -0.890625 3.414062 -0.8125 3.875 -0.8125 C 4.269531 -0.8125 4.625 -0.867188 4.9375 -0.984375 C 5.25 -1.109375 5.476562 -1.273438 5.625 -1.484375 C 5.78125 -1.691406 5.859375 -1.921875 5.859375 -2.171875 C 5.859375 -2.421875 5.785156 -2.640625 5.640625 -2.828125 C 5.492188 -3.015625 5.253906 -3.175781 4.921875 -3.3125 C 4.703125 -3.394531 4.222656 -3.519531 3.484375 -3.6875 C 2.753906 -3.863281 2.238281 -4.035156 1.9375 -4.203125 C 1.5625 -4.398438 1.28125 -4.644531 1.09375 -4.9375 C 0.90625 -5.238281 0.8125 -5.570312 0.8125 -5.9375 C 0.8125 -6.34375 0.925781 -6.71875 1.15625 -7.0625 C 1.382812 -7.414062 1.71875 -7.679688 2.15625 -7.859375 C 2.59375 -8.046875 3.082031 -8.140625 3.625 -8.140625 C 4.21875 -8.140625 4.738281 -8.046875 5.1875 -7.859375 C 5.644531 -7.671875 5.992188 -7.390625 6.234375 -7.015625 C 6.484375 -6.640625 6.617188 -6.21875 6.640625 -5.75 L 5.625 -5.671875 C 5.570312 -6.179688 5.382812 -6.5625 5.0625 -6.8125 C 4.75 -7.070312 4.285156 -7.203125 3.671875 -7.203125 C 3.023438 -7.203125 2.554688 -7.082031 2.265625 -6.84375 C 1.972656 -6.613281 1.828125 -6.335938 1.828125 -6.015625 C 1.828125 -5.722656 1.929688 -5.484375 2.140625 -5.296875 C 2.347656 -5.109375 2.878906 -4.914062 3.734375 -4.71875 C 4.597656 -4.53125 5.191406 -4.363281 5.515625 -4.21875 C 5.984375 -4 6.328125 -3.722656 6.546875 -3.390625 C 6.765625 -3.066406 6.875 -2.691406 6.875 -2.265625 C 6.875 -1.835938 6.75 -1.429688 6.5 -1.046875 C 6.257812 -0.671875 5.910156 -0.378906 5.453125 -0.171875 C 5.003906 0.0351562 4.492188 0.140625 3.921875 0.140625 C 3.191406 0.140625 2.582031 0.0351562 2.09375 -0.171875 C 1.601562 -0.390625 1.21875 -0.707031 0.9375 -1.125 C 0.664062 -1.550781 0.519531 -2.035156 0.5 -2.578125 Z M 0.5 -2.578125 "
           id="path32" />
      </symbol>
    </g>
    <clipPath
       id="clip1">
      <path
         d="M 0 0 L 144 0 L 144 62.671875 L 0 62.671875 Z M 0 0 "
         id="path37" />
    </clipPath>
    <clipPath
       id="clip2">
      <path
         d="M 41 0 L 103 0 L 103 61.925781 L 41 61.925781 Z M 41 0 "
         id="path40" />
    </clipPath>
  </defs>
  <g
     id="surface1">
    <g
       clip-path="url(#clip1)"
       clip-rule="nonzero"
       id="g47">
      <path
         style="fill:#ffffff;fill-opacity:1;fill-rule:nonzero;stroke:none"
         d="M 0,0 H 144 V 62.671875 H 0 Z m 0,0"
         id="path45" />
    </g>
    <path
       style="fill:#ffffff;fill-opacity:1;fill-rule:nonzero;stroke:none"
       d="m 42.15625,1.121094 h 59.6875 v 59.6875 h -59.6875 z m 0,0"
       id="path49" />
    <g
       clip-path="url(#clip2)"
       clip-rule="nonzero"
       id="g53">
      <path
         style="fill:none;stroke:#000000;stroke-width:1;stroke-linecap:butt;stroke-linejoin:miter;stroke-miterlimit:4;stroke-opacity:1"
         d="M 56.001087,1.002577 H 135.99892 V 81.00041 H 56.001087 Z m 0,0"
         transform="matrix(0.746114,0,0,0.746114,0.373057,0.373057)"
         id="path51" />
    </g>
    <g
       style="fill:#000000;fill-opacity:1"
       id="g71">
      <use
         xlink:href="#glyph0-1"
         x="46.10751"
         y="35.067356"
         id="use55"
         width="100%"
         height="100%" />
      <use
         xlink:href="#glyph0-2"
         x="54.189804"
         y="35.067356"
         id="use57"
         width="100%"
         height="100%" />
      <use
         xlink:href="#glyph0-3"
         x="60.414101"
         y="35.067356"
         id="use59"
         width="100%"
         height="100%" />
      <use
         xlink:href="#glyph0-4"
         x="66.009956"
         y="35.067356"
         id="use61"
         width="100%"
         height="100%" />
      <use
         xlink:href="#glyph0-5"
         x="72.234253"
         y="35.067356"
         id="use63"
         width="100%"
         height="100%" />
      <use
         xlink:href="#glyph0-6"
         x="78.458549"
         y="35.067356"
         id="use65"
         width="100%"
         height="100%" />
      <use
         xlink:href="#glyph0-7"
         x="84.682838"
         y="35.067356"
         id="use67"
         width="100%"
         height="100%" />
      <use
         xlink:href="#glyph0-8"
         x="90.907135"
         y="35.067356"
         id="use69"
         width="100%"
         height="100%" />
    </g>
    <path
       style="fill:none;stroke:#000000;stroke-width:1;stroke-linecap:butt;stroke-linejoin:miter;stroke-miterlimit:10;stroke-opacity:1"
       d="M 26.0019,21.002035 H 49.629532"
       transform="matrix(0.746114,0,0,0.746114,0.373057,0.373057)"
       id="path73" />
    <path
       style="fill:#000000;fill-opacity:1;fill-rule:nonzero;stroke:#000000;stroke-width:1;stroke-linecap:butt;stroke-linejoin:miter;stroke-miterlimit:10;stroke-opacity:1"
       d="m 54.880699,21.002035 -6.999811,3.497288 1.748644,-3.497288 -1.748644,-3.502523 z m 0,0"
       transform="matrix(0.746114,0,0,0.746114,0.373057,0.373057)"
       id="path75" />
    <path
       style="fill:none;stroke:#000000;stroke-width:1;stroke-linecap:butt;stroke-linejoin:miter;stroke-miterlimit:10;stroke-opacity:1"
       d="M 26.0019,61.000952 H 49.629532"
       transform="matrix(0.746114,0,0,0.746114,0.373057,0.373057)"
       id="path77" />
    <path
       style="fill:#000000;fill-opacity:1;fill-rule:nonzero;stroke:#000000;stroke-width:1;stroke-linecap:butt;stroke-linejoin:miter;stroke-miterlimit:10;stroke-opacity:1"
       d="m 54.880699,61.000952 -6.999811,3.497287 1.748644,-3.497287 -1.748644,-3.502523 z m 0,0"
       transform="matrix(0.746114,0,0,0.746114,0.373057,0.373057)"
       id="path79" />
    <g
       style="fill:#000000;fill-opacity:1"
       id="g85">
      <use
         xlink:href="#glyph0-2"
         x="6.0854921"
         y="20.145077"
         id="use81"
         width="100%"
         height="100%" />
      <use
         xlink:href="#glyph0-9"
         x="12.309787"
         y="20.145077"
         id="use83"
         width="100%"
         height="100%" />
    </g>
    <g
       style="fill:#000000;fill-opacity:1"
       id="g89">
      <use
         xlink:href="#glyph0-2"
         x="9.1981859"
         y="49.989635"
         id="use87"
         width="100%"
         height="100%" />
    </g>
    <path
       style="fill:none;stroke:#000000;stroke-width:1;stroke-linecap:butt;stroke-linejoin:miter;stroke-miterlimit:10;stroke-opacity:1"
       d="m 31.001764,66.000816 9.99973,-9.999729"
       transform="matrix(0.746114,0,0,0.746114,0.373057,0.373057)"
       id="path91" />
    <g
       style="fill:#000000;fill-opacity:1"
       id="g95">
      <use
         xlink:href="#glyph0-6"
         x="24.120464"
         y="42.528496"
         id="use93"
         width="100%"
         height="100%" />
    </g>
    <path
       style="fill:none;stroke:#000000;stroke-width:1;stroke-linecap:butt;stroke-linejoin:miter;stroke-miterlimit:10;stroke-opacity:1"
       d="m 135.99892,41.001494 h 23.63287"
       transform="matrix(0.746114,0,0,0.746114,0.373057,0.373057)"
       id="path97" />
    <path
       style="fill:#000000;fill-opacity:1;fill-rule:nonzero;stroke:#000000;stroke-width:1;stroke-linecap:butt;stroke-linejoin:miter;stroke-miterlimit:10;stroke-opacity:1"
       d="m 164.87772,41.001494 -6.99981,3.497287 1.75388,-3.497287 -1.75388,-3.502523 z m 0,0"
       transform="matrix(0.746114,0,0,0.746114,0.373057,0.373057)"
       id="path99" />
    <path
       style="fill:none;stroke:#000000;stroke-width:1;stroke-linecap:butt;stroke-linejoin:miter;stroke-miterlimit:10;stroke-opacity:1"
       d="m 145.99865,46.001358 9.99973,-9.999729"
       transform="matrix(0.746114,0,0,0.746114,0.373057,0.373057)"
       id="path101" />
    <g
       style="fill:#000000;fill-opacity:1"
       id="g105">
      <use
         xlink:href="#glyph0-8"
         x="109.92357"
         y="27.606216"
         id="use103"
         width="100%"
         height="100%" />
    </g>
    <g
       style="fill:#000000;fill-opacity:1"
       id="g109">
      <use
         xlink:href="#glyph0-10"
         x="127.95854"
         y="35.067356"
         id="use107"
         width="100%"
         height="100%" />
    </g>
  </g>
</svg>
