<?xml version="1.0" encoding="UTF-8" standalone="no"?>
<svg 
   width="357.12pt"
   height="228pt"
   viewBox="0 0 357.12 228"
   version="1.2"
   id="svg670"
   xmlns:xlink="http://www.w3.org/1999/xlink"
   xmlns="http://www.w3.org/2000/svg"
   xmlns:svg="http://www.w3.org/2000/svg" content="%3Cmxfile%20host%3D%22app.diagrams.net%22%20modified%3D%222022-02-21T08%3A51%3A03.428Z%22%20agent%3D%225.0%20(Windows)%22%20etag%3D%22NWApd4j38VnqzsjtAm07%22%20version%3D%2216.6.1%22%20type%3D%22device%22%3E%3Cdiagram%20id%3D%22Rx3Pv7EkvRbEKN_ov4cD%22%20name%3D%22Page-1%22%3E7V1bd6I6FP41Pk4XEC762Go7NzvTqZ0zl5ezqGSUOWhcmF6cX38SCQrZUekUggvsQwubEOD79jWEtIP6s%2Be3sb%2BYXpMARx3LCJ47aNCxLMswLfaHS1aJxDQdN5FM4jAQsq1gFP7BQmgI6UMY4GWuISUkouEiLxyT%2BRyPaU7mxzF5yjf7RaL8VRf%2BRFzR2ApGYz%2FCoNm3MKDTRIqQkWn%2BDoeTqbi07XbFKTM%2FbS2aLqd%2BQJ4yInTZQf2YEJpszZ77OOLwpcAk513tOLq5sxjPaZETPvaurodfpsbPa%2FJxPgy%2Fv%2Fs9%2FvBG9PLoRw%2FiiW%2F6o3gs7piuUhxi8jAPMO%2FJ6KCLp2lI8Wjhj%2FnRJ0Y9k03pLGJ7JtuEd5ZeBscUP2dE4k7fYjLDNF6xJuKoa9vJKUJxNig%2BbVnoCtE0i7%2BQ%2BYL3yabnLTJsQ4DzAqAcAAkOmKaIXRLTKZmQuR9dbqUXedC2bYaELARUvzGlK6H2%2FgMleSAZfvHquzh%2FvfOD75x5Tro%2FeM4eHayyezc4DtnD43gjDM65SbDdOZnjRHIVchzWx3fStiQP8RjvAUdYOfXjCaZ72qGkHUdurxLEOPJp%2BJi3wdIptYDuA465wobMGwz9exzdkGVIQzJnh%2B4JpWTGMNsYNQcw8JfTDd1%2BFE540zFDk1OQ5TXt9ly0oVwfeF8Lft3Z84R70zMcMY8W83ZnEZmE438nPsXLzDZXqgWOfXFT%2Fjwox%2FjsnmR8NjQ%2BV2F8qCrjc4%2FJ%2BA7bXlVmhgqamXlUZoYaZmYkLsfKHE8OcU69VuYBoj5c3wCu2NPRPMyAAhn3WRgEiU3iZfjHv193xclbkHBO14%2FhXHScAe%2BLmeEysUje9ZLG5D%2FcJxEHPTWnMrBPPdqe9MJWYG9VhX0PYH9x%2BaWZ2NtON489gnqvFfu01siA%2FxPHhEmuIn%2FSUBKQZAAONABPKwmwErnFk28xKzQAA7UXI92aixHTPiVEaxyKFh7mcaVEZj3V5HNIN%2FSx7YQ9yxG7W%2Fb4ziqzo6%2BQTAktjydx6g13tJn47%2BYtGslJVaJR4iyJ7c1tvEIBmlZ7lpYUu7KrrTkpNl3A1PmA%2FXYjngTcx2xrwrdGXy%2Bg8PyTouXnWyj7rhIOFScPB%2B%2BhMJUE4WMquv78Typlj5050Mx0xjEOq40qpzSry2dgNQV9PvCjRfKWg74x88yO4plTWdkutOfku0icPXChhzuyenp9May9GsYU6uUBNo2SmJI7qpiplJj2MGWVZlNOIaYYdP4q00w49N037KivsyU%2B6bFcNSgwotgsNUBeSWogd1S1wdotY8oqKwiCjqpmymkZU8hBJdmU3FHVTMGCpOFMuWV5P7mjqplqfAkgM9UtK7GUO6qaqW7bmCqtWNMdp2Cx9m0wiscG4Ev3S4KuJUXwumcsIRNg0sSXBAfH%2FlOVqXpMuSuPQdnGmZH5sYolHGVZSjoiehpilgzVc6Scve55FwgOawwHgKtGjNN6low9dJJIgX1lw7QIjiWsh9hbAb5iWp9e8OHwwDqYw8BVezCv%2B40%2FOqr5x%2FUF81RldAdzZEjBXG8sL1Dzn2J55wheFyNY87cnniicpN54Asv49XvwZoIPHBQAX%2BssSgQr82s8ExP4ruCkhdtb4xg%2BNJIjPVIkRVojvX0q23P6pD3Su3VGevtUtReL9MiuOdLbsGof3TU01qDDPlJroLdh1T66a2qWJYPv1g0%2BTHGDcH4MsVyep19%2FLO%2B2IpYfnNZt9woG%2FVS3jmSevg1z2sb6Gacrz2uo2c84MBUKwvgY%2FYytqL30Lk7QjprhoJ9xrIJ%2BJtWtI%2FEz6X230c%2FYpj4%2FM%2Fe8vr94vLu8DH78fHz%2F5e3HNxeKJVDOh18%2FL2DdVffQhE43o0QKQtJEL5N1HvsURvfAhG1pGphQPvRpFYdi4xK2oW9cQkkUfKe6%2FjStiaFEHgNXOciqxsCV2MNJ1P2mrqABsNe4goYSe8V3mjyMH99cAltRWGkN494pjGcURnsY9%2BoM4wUmOp%2FC%2BNpIaw7jcORp%2FY14K0KJwkFqDSWKBYHW3%2Fy3AnyvbvB31OP1z%2FAHw351B%2FJ0FZG2R%2FLyV%2FdRh3IX2kqNodw8leQ7Rhi9I4vlZotq8k38SMHXuLqfGvwWFeUAfIXm6wX%2FNHF5h48yJaY0LrGsZqrAx8onpjhTGqeYq9%2FCWIeZ2vuxcj4D%2FEXm9MqfhRF%2Fvj5LWULGj2V8wk%2FioEgEzewSgul2JvN74QqC6hzy7xa238ly9oXxXq0%2FnGIWXbpe0%2FfckqN3XEnbin7P7VpSRwWXdHrxQkFSTuaIofqyFgpSW8prFzV5jaWkGm52XlglKRS8tJU7X2EpisXn94b8Y7EUaaFju%2Fe3a1R0d0Tsii0lzeGqtZQdq1y2IklWfLakNUlWrBPT1KFe23OUYaCCyT9sd%2Fu%2FlRI72f6PKnT5Pw%3D%3D%3C%2Fdiagram%3E%3C%2Fmxfile%3E">
  <defs
     id="defs133">
    <g
       id="g125">
      <symbol
         overflow="visible"
         id="glyph0-0">
        <path
           style="stroke:none;"
           d=""
           id="path2" />
      </symbol>
      <symbol
         overflow="visible"
         id="glyph0-1">
        <path
           style="stroke:none;"
           d="M 0.6875 0 L 0.6875 -6.4375 L 3.125 -6.4375 C 3.550781 -6.4375 3.875 -6.414062 4.09375 -6.375 C 4.414062 -6.320312 4.679688 -6.21875 4.890625 -6.0625 C 5.109375 -5.914062 5.28125 -5.707031 5.40625 -5.4375 C 5.539062 -5.175781 5.609375 -4.890625 5.609375 -4.578125 C 5.609375 -4.023438 5.429688 -3.554688 5.078125 -3.171875 C 4.734375 -2.796875 4.101562 -2.609375 3.1875 -2.609375 L 1.546875 -2.609375 L 1.546875 0 Z M 1.546875 -3.375 L 3.203125 -3.375 C 3.753906 -3.375 4.144531 -3.472656 4.375 -3.671875 C 4.601562 -3.878906 4.71875 -4.171875 4.71875 -4.546875 C 4.71875 -4.816406 4.648438 -5.046875 4.515625 -5.234375 C 4.378906 -5.421875 4.203125 -5.546875 3.984375 -5.609375 C 3.835938 -5.648438 3.570312 -5.671875 3.1875 -5.671875 L 1.546875 -5.671875 Z M 1.546875 -3.375 "
           id="path5" />
      </symbol>
      <symbol
         overflow="visible"
         id="glyph0-2">
        <path
           style="stroke:none;"
           d="M 5.28125 -2.25 L 6.140625 -2.046875 C 5.953125 -1.335938 5.625 -0.800781 5.15625 -0.4375 C 4.695312 -0.0703125 4.132812 0.109375 3.46875 0.109375 C 2.78125 0.109375 2.21875 -0.03125 1.78125 -0.3125 C 1.34375 -0.59375 1.007812 -1 0.78125 -1.53125 C 0.5625 -2.070312 0.453125 -2.648438 0.453125 -3.265625 C 0.453125 -3.929688 0.578125 -4.515625 0.828125 -5.015625 C 1.085938 -5.515625 1.453125 -5.894531 1.921875 -6.15625 C 2.390625 -6.414062 2.910156 -6.546875 3.484375 -6.546875 C 4.128906 -6.546875 4.671875 -6.378906 5.109375 -6.046875 C 5.546875 -5.722656 5.847656 -5.265625 6.015625 -4.671875 L 5.1875 -4.46875 C 5.039062 -4.9375 4.820312 -5.273438 4.53125 -5.484375 C 4.25 -5.703125 3.894531 -5.8125 3.46875 -5.8125 C 2.96875 -5.8125 2.550781 -5.691406 2.21875 -5.453125 C 1.894531 -5.222656 1.664062 -4.90625 1.53125 -4.5 C 1.394531 -4.101562 1.328125 -3.691406 1.328125 -3.265625 C 1.328125 -2.722656 1.40625 -2.242188 1.5625 -1.828125 C 1.71875 -1.421875 1.960938 -1.117188 2.296875 -0.921875 C 2.640625 -0.722656 3.007812 -0.625 3.40625 -0.625 C 3.875 -0.625 4.273438 -0.757812 4.609375 -1.03125 C 4.941406 -1.300781 5.164062 -1.707031 5.28125 -2.25 Z M 5.28125 -2.25 "
           id="path8" />
      </symbol>
      <symbol
         overflow="visible"
         id="glyph0-3">
        <path
           style="stroke:none;"
           d="M 0.40625 -2.0625 L 1.203125 -2.140625 C 1.242188 -1.816406 1.332031 -1.550781 1.46875 -1.34375 C 1.613281 -1.132812 1.832031 -0.96875 2.125 -0.84375 C 2.414062 -0.71875 2.742188 -0.65625 3.109375 -0.65625 C 3.429688 -0.65625 3.71875 -0.703125 3.96875 -0.796875 C 4.21875 -0.890625 4.398438 -1.019531 4.515625 -1.1875 C 4.640625 -1.363281 4.703125 -1.550781 4.703125 -1.75 C 4.703125 -1.945312 4.644531 -2.117188 4.53125 -2.265625 C 4.414062 -2.421875 4.222656 -2.550781 3.953125 -2.65625 C 3.773438 -2.71875 3.390625 -2.820312 2.796875 -2.96875 C 2.210938 -3.113281 1.800781 -3.25 1.5625 -3.375 C 1.25 -3.53125 1.019531 -3.726562 0.875 -3.96875 C 0.726562 -4.207031 0.65625 -4.472656 0.65625 -4.765625 C 0.65625 -5.085938 0.742188 -5.390625 0.921875 -5.671875 C 1.109375 -5.960938 1.378906 -6.179688 1.734375 -6.328125 C 2.085938 -6.472656 2.476562 -6.546875 2.90625 -6.546875 C 3.382812 -6.546875 3.804688 -6.46875 4.171875 -6.3125 C 4.535156 -6.15625 4.816406 -5.925781 5.015625 -5.625 C 5.210938 -5.332031 5.316406 -5 5.328125 -4.625 L 4.515625 -4.5625 C 4.472656 -4.96875 4.320312 -5.273438 4.0625 -5.484375 C 3.8125 -5.691406 3.441406 -5.796875 2.953125 -5.796875 C 2.429688 -5.796875 2.050781 -5.695312 1.8125 -5.5 C 1.582031 -5.3125 1.46875 -5.085938 1.46875 -4.828125 C 1.46875 -4.597656 1.550781 -4.40625 1.71875 -4.25 C 1.882812 -4.101562 2.3125 -3.953125 3 -3.796875 C 3.695312 -3.640625 4.171875 -3.503906 4.421875 -3.390625 C 4.796875 -3.210938 5.070312 -2.988281 5.25 -2.71875 C 5.425781 -2.457031 5.515625 -2.15625 5.515625 -1.8125 C 5.515625 -1.46875 5.414062 -1.144531 5.21875 -0.84375 C 5.03125 -0.539062 4.75 -0.304688 4.375 -0.140625 C 4.007812 0.0234375 3.597656 0.109375 3.140625 0.109375 C 2.554688 0.109375 2.066406 0.0234375 1.671875 -0.140625 C 1.285156 -0.316406 0.976562 -0.570312 0.75 -0.90625 C 0.53125 -1.25 0.414062 -1.632812 0.40625 -2.0625 Z M 0.40625 -2.0625 "
           id="path11" />
      </symbol>
      <symbol
         overflow="visible"
         id="glyph0-4">
        <path
           style="stroke:none;"
           d="M 0.578125 0 L 0.578125 -4.65625 L 1.296875 -4.65625 L 1.296875 -3.953125 C 1.472656 -4.285156 1.640625 -4.503906 1.796875 -4.609375 C 1.953125 -4.710938 2.117188 -4.765625 2.296875 -4.765625 C 2.566406 -4.765625 2.835938 -4.679688 3.109375 -4.515625 L 2.84375 -3.78125 C 2.644531 -3.894531 2.453125 -3.953125 2.265625 -3.953125 C 2.085938 -3.953125 1.929688 -3.898438 1.796875 -3.796875 C 1.660156 -3.691406 1.5625 -3.546875 1.5 -3.359375 C 1.414062 -3.078125 1.375 -2.769531 1.375 -2.4375 L 1.375 0 Z M 0.578125 0 "
           id="path14" />
      </symbol>
      <symbol
         overflow="visible"
         id="glyph0-5">
        <path
           style="stroke:none;"
           d="M 3.625 -1.703125 L 4.40625 -1.609375 C 4.320312 -1.066406 4.101562 -0.644531 3.75 -0.34375 C 3.40625 -0.0390625 2.976562 0.109375 2.46875 0.109375 C 1.832031 0.109375 1.316406 -0.0976562 0.921875 -0.515625 C 0.535156 -0.929688 0.34375 -1.53125 0.34375 -2.3125 C 0.34375 -2.8125 0.425781 -3.25 0.59375 -3.625 C 0.757812 -4.007812 1.015625 -4.296875 1.359375 -4.484375 C 1.703125 -4.671875 2.070312 -4.765625 2.46875 -4.765625 C 2.976562 -4.765625 3.394531 -4.632812 3.71875 -4.375 C 4.039062 -4.125 4.242188 -3.765625 4.328125 -3.296875 L 3.5625 -3.171875 C 3.488281 -3.484375 3.359375 -3.71875 3.171875 -3.875 C 2.992188 -4.03125 2.769531 -4.109375 2.5 -4.109375 C 2.101562 -4.109375 1.78125 -3.96875 1.53125 -3.6875 C 1.28125 -3.40625 1.15625 -2.953125 1.15625 -2.328125 C 1.15625 -1.703125 1.273438 -1.25 1.515625 -0.96875 C 1.753906 -0.6875 2.070312 -0.546875 2.46875 -0.546875 C 2.769531 -0.546875 3.023438 -0.640625 3.234375 -0.828125 C 3.441406 -1.015625 3.570312 -1.304688 3.625 -1.703125 Z M 3.625 -1.703125 "
           id="path17" />
      </symbol>
      <symbol
         overflow="visible"
         id="glyph0-6">
        <path
           style="stroke:none;"
           d="M 0.265625 -1.828125 L 1.03125 -1.9375 C 1.050781 -1.4375 1.140625 -1.097656 1.296875 -0.921875 C 1.460938 -0.742188 1.691406 -0.65625 1.984375 -0.65625 C 2.191406 -0.65625 2.375 -0.703125 2.53125 -0.796875 C 2.6875 -0.890625 2.789062 -1.019531 2.84375 -1.1875 C 2.90625 -1.363281 2.9375 -1.632812 2.9375 -2 L 2.9375 -6.4375 L 3.796875 -6.4375 L 3.796875 -2.046875 C 3.796875 -1.503906 3.726562 -1.085938 3.59375 -0.796875 C 3.46875 -0.503906 3.265625 -0.28125 2.984375 -0.125 C 2.703125 0.03125 2.367188 0.109375 1.984375 0.109375 C 1.421875 0.109375 0.988281 -0.0507812 0.6875 -0.375 C 0.382812 -0.695312 0.242188 -1.179688 0.265625 -1.828125 Z M 0.265625 -1.828125 "
           id="path20" />
      </symbol>
      <symbol
         overflow="visible"
         id="glyph0-7">
        <path
           style="stroke:none;"
           d="M 0.671875 0 L 0.671875 -6.4375 L 1.953125 -6.4375 L 3.46875 -1.875 C 3.613281 -1.445312 3.71875 -1.128906 3.78125 -0.921875 C 3.851562 -1.160156 3.96875 -1.503906 4.125 -1.953125 L 5.65625 -6.4375 L 6.796875 -6.4375 L 6.796875 0 L 5.984375 0 L 5.984375 -5.375 L 4.109375 0 L 3.34375 0 L 1.484375 -5.46875 L 1.484375 0 Z M 0.671875 0 "
           id="path23" />
      </symbol>
      <symbol
         overflow="visible"
         id="glyph0-8">
        <path
           style="stroke:none;"
           d="M 0.65625 0 L 0.65625 -6.4375 L 3.078125 -6.4375 C 3.566406 -6.4375 3.957031 -6.367188 4.25 -6.234375 C 4.550781 -6.109375 4.785156 -5.910156 4.953125 -5.640625 C 5.117188 -5.367188 5.203125 -5.082031 5.203125 -4.78125 C 5.203125 -4.507812 5.125 -4.25 4.96875 -4 C 4.820312 -3.757812 4.597656 -3.566406 4.296875 -3.421875 C 4.691406 -3.304688 4.992188 -3.109375 5.203125 -2.828125 C 5.410156 -2.554688 5.515625 -2.234375 5.515625 -1.859375 C 5.515625 -1.554688 5.445312 -1.273438 5.3125 -1.015625 C 5.1875 -0.765625 5.03125 -0.566406 4.84375 -0.421875 C 4.664062 -0.285156 4.429688 -0.179688 4.140625 -0.109375 C 3.859375 -0.0351562 3.515625 0 3.109375 0 Z M 1.515625 -3.734375 L 2.90625 -3.734375 C 3.28125 -3.734375 3.550781 -3.753906 3.71875 -3.796875 C 3.925781 -3.867188 4.082031 -3.976562 4.1875 -4.125 C 4.300781 -4.269531 4.359375 -4.457031 4.359375 -4.6875 C 4.359375 -4.894531 4.304688 -5.082031 4.203125 -5.25 C 4.109375 -5.414062 3.960938 -5.523438 3.765625 -5.578125 C 3.578125 -5.640625 3.253906 -5.671875 2.796875 -5.671875 L 1.515625 -5.671875 Z M 1.515625 -0.765625 L 3.109375 -0.765625 C 3.378906 -0.765625 3.570312 -0.773438 3.6875 -0.796875 C 3.882812 -0.828125 4.046875 -0.882812 4.171875 -0.96875 C 4.304688 -1.050781 4.414062 -1.171875 4.5 -1.328125 C 4.582031 -1.484375 4.625 -1.660156 4.625 -1.859375 C 4.625 -2.097656 4.5625 -2.304688 4.4375 -2.484375 C 4.320312 -2.660156 4.15625 -2.785156 3.9375 -2.859375 C 3.71875 -2.929688 3.40625 -2.96875 3 -2.96875 L 1.515625 -2.96875 Z M 1.515625 -0.765625 "
           id="path26" />
      </symbol>
      <symbol
         overflow="visible"
         id="glyph0-9">
        <path
           style="stroke:none;"
           d="M 0.703125 0 L 0.703125 -6.4375 L 5.359375 -6.4375 L 5.359375 -5.671875 L 1.5625 -5.671875 L 1.5625 -3.703125 L 5.125 -3.703125 L 5.125 -2.953125 L 1.5625 -2.953125 L 1.5625 -0.765625 L 5.515625 -0.765625 L 5.515625 0 Z M 0.703125 0 "
           id="path29" />
      </symbol>
      <symbol
         overflow="visible"
         id="glyph0-10">
        <path
           style="stroke:none;"
           d="M 5.5625 -0.6875 C 5.957031 -0.414062 6.320312 -0.21875 6.65625 -0.09375 L 6.40625 0.5 C 5.945312 0.332031 5.488281 0.0664062 5.03125 -0.296875 C 4.550781 -0.0234375 4.023438 0.109375 3.453125 0.109375 C 2.867188 0.109375 2.335938 -0.03125 1.859375 -0.3125 C 1.390625 -0.59375 1.023438 -0.988281 0.765625 -1.5 C 0.515625 -2.007812 0.390625 -2.582031 0.390625 -3.21875 C 0.390625 -3.851562 0.515625 -4.429688 0.765625 -4.953125 C 1.023438 -5.472656 1.390625 -5.867188 1.859375 -6.140625 C 2.335938 -6.410156 2.875 -6.546875 3.46875 -6.546875 C 4.0625 -6.546875 4.59375 -6.40625 5.0625 -6.125 C 5.539062 -5.84375 5.90625 -5.445312 6.15625 -4.9375 C 6.40625 -4.425781 6.53125 -3.851562 6.53125 -3.21875 C 6.53125 -2.6875 6.445312 -2.207031 6.28125 -1.78125 C 6.125 -1.363281 5.882812 -1 5.5625 -0.6875 Z M 3.6875 -1.78125 C 4.1875 -1.644531 4.59375 -1.4375 4.90625 -1.15625 C 5.40625 -1.613281 5.65625 -2.300781 5.65625 -3.21875 C 5.65625 -3.738281 5.566406 -4.191406 5.390625 -4.578125 C 5.210938 -4.972656 4.953125 -5.273438 4.609375 -5.484375 C 4.273438 -5.703125 3.894531 -5.8125 3.46875 -5.8125 C 2.832031 -5.8125 2.304688 -5.59375 1.890625 -5.15625 C 1.472656 -4.726562 1.265625 -4.082031 1.265625 -3.21875 C 1.265625 -2.382812 1.46875 -1.742188 1.875 -1.296875 C 2.289062 -0.847656 2.820312 -0.625 3.46875 -0.625 C 3.769531 -0.625 4.054688 -0.679688 4.328125 -0.796875 C 4.066406 -0.960938 3.785156 -1.082031 3.484375 -1.15625 Z M 3.6875 -1.78125 "
           id="path32" />
      </symbol>
      <symbol
         overflow="visible"
         id="glyph0-11">
        <path
           style="stroke:none;"
           d="M 0.1875 0 L 0.1875 -0.796875 L 3.46875 -4.90625 C 3.707031 -5.195312 3.929688 -5.453125 4.140625 -5.671875 L 0.546875 -5.671875 L 0.546875 -6.4375 L 5.15625 -6.4375 L 5.15625 -5.671875 L 1.546875 -1.203125 L 1.15625 -0.765625 L 5.265625 -0.765625 L 5.265625 0 Z M 0.1875 0 "
           id="path35" />
      </symbol>
      <symbol
         overflow="visible"
         id="glyph0-12">
        <path
           style="stroke:none;"
           d="M 3.78125 -1.5 L 4.59375 -1.40625 C 4.46875 -0.925781 4.226562 -0.550781 3.875 -0.28125 C 3.53125 -0.0195312 3.085938 0.109375 2.546875 0.109375 C 1.867188 0.109375 1.328125 -0.0976562 0.921875 -0.515625 C 0.523438 -0.941406 0.328125 -1.535156 0.328125 -2.296875 C 0.328125 -3.078125 0.53125 -3.679688 0.9375 -4.109375 C 1.34375 -4.546875 1.863281 -4.765625 2.5 -4.765625 C 3.125 -4.765625 3.632812 -4.550781 4.03125 -4.125 C 4.425781 -3.695312 4.625 -3.101562 4.625 -2.34375 C 4.625 -2.289062 4.625 -2.21875 4.625 -2.125 L 1.140625 -2.125 C 1.171875 -1.613281 1.316406 -1.222656 1.578125 -0.953125 C 1.835938 -0.679688 2.160156 -0.546875 2.546875 -0.546875 C 2.835938 -0.546875 3.085938 -0.617188 3.296875 -0.765625 C 3.503906 -0.921875 3.664062 -1.164062 3.78125 -1.5 Z M 1.1875 -2.78125 L 3.796875 -2.78125 C 3.753906 -3.164062 3.648438 -3.457031 3.484375 -3.65625 C 3.234375 -3.957031 2.910156 -4.109375 2.515625 -4.109375 C 2.148438 -4.109375 1.84375 -3.988281 1.59375 -3.75 C 1.351562 -3.507812 1.21875 -3.1875 1.1875 -2.78125 Z M 1.1875 -2.78125 "
           id="path38" />
      </symbol>
      <symbol
         overflow="visible"
         id="glyph0-13">
        <path
           style="stroke:none;"
           d="M 0.296875 -2.328125 C 0.296875 -3.191406 0.535156 -3.832031 1.015625 -4.25 C 1.421875 -4.59375 1.910156 -4.765625 2.484375 -4.765625 C 3.117188 -4.765625 3.640625 -4.550781 4.046875 -4.125 C 4.453125 -3.707031 4.65625 -3.128906 4.65625 -2.390625 C 4.65625 -1.796875 4.566406 -1.328125 4.390625 -0.984375 C 4.210938 -0.640625 3.953125 -0.367188 3.609375 -0.171875 C 3.265625 0.015625 2.890625 0.109375 2.484375 0.109375 C 1.828125 0.109375 1.296875 -0.0976562 0.890625 -0.515625 C 0.492188 -0.941406 0.296875 -1.546875 0.296875 -2.328125 Z M 1.109375 -2.328125 C 1.109375 -1.734375 1.238281 -1.285156 1.5 -0.984375 C 1.757812 -0.691406 2.085938 -0.546875 2.484375 -0.546875 C 2.878906 -0.546875 3.207031 -0.691406 3.46875 -0.984375 C 3.726562 -1.285156 3.859375 -1.742188 3.859375 -2.359375 C 3.859375 -2.929688 3.722656 -3.363281 3.453125 -3.65625 C 3.191406 -3.957031 2.867188 -4.109375 2.484375 -4.109375 C 2.085938 -4.109375 1.757812 -3.957031 1.5 -3.65625 C 1.238281 -3.363281 1.109375 -2.921875 1.109375 -2.328125 Z M 1.109375 -2.328125 "
           id="path41" />
      </symbol>
      <symbol
         overflow="visible"
         id="glyph0-14">
        <path
           style="stroke:none;"
           d=""
           id="path44" />
      </symbol>
      <symbol
         overflow="visible"
         id="glyph0-15">
        <path
           style="stroke:none;"
           d="M 0.734375 0 L 0.734375 -6.4375 L 5.078125 -6.4375 L 5.078125 -5.671875 L 1.59375 -5.671875 L 1.59375 -3.6875 L 4.609375 -3.6875 L 4.609375 -2.921875 L 1.59375 -2.921875 L 1.59375 0 Z M 0.734375 0 "
           id="path47" />
      </symbol>
      <symbol
         overflow="visible"
         id="glyph0-16">
        <path
           style="stroke:none;"
           d="M 0.578125 0 L 0.578125 -6.4375 L 1.359375 -6.4375 L 1.359375 0 Z M 0.578125 0 "
           id="path50" />
      </symbol>
      <symbol
         overflow="visible"
         id="glyph0-17">
        <path
           style="stroke:none;"
           d="M 3.625 -0.578125 C 3.332031 -0.328125 3.050781 -0.148438 2.78125 -0.046875 C 2.507812 0.0546875 2.222656 0.109375 1.921875 0.109375 C 1.410156 0.109375 1.015625 -0.015625 0.734375 -0.265625 C 0.460938 -0.515625 0.328125 -0.835938 0.328125 -1.234375 C 0.328125 -1.460938 0.378906 -1.671875 0.484375 -1.859375 C 0.585938 -2.046875 0.722656 -2.195312 0.890625 -2.3125 C 1.054688 -2.425781 1.242188 -2.507812 1.453125 -2.5625 C 1.609375 -2.601562 1.84375 -2.644531 2.15625 -2.6875 C 2.789062 -2.757812 3.257812 -2.847656 3.5625 -2.953125 C 3.570312 -3.066406 3.578125 -3.132812 3.578125 -3.15625 C 3.578125 -3.476562 3.5 -3.707031 3.34375 -3.84375 C 3.144531 -4.019531 2.847656 -4.109375 2.453125 -4.109375 C 2.078125 -4.109375 1.800781 -4.039062 1.625 -3.90625 C 1.445312 -3.78125 1.316406 -3.550781 1.234375 -3.21875 L 0.453125 -3.328125 C 0.523438 -3.660156 0.640625 -3.925781 0.796875 -4.125 C 0.960938 -4.332031 1.195312 -4.488281 1.5 -4.59375 C 1.8125 -4.707031 2.164062 -4.765625 2.5625 -4.765625 C 2.957031 -4.765625 3.28125 -4.71875 3.53125 -4.625 C 3.78125 -4.53125 3.960938 -4.410156 4.078125 -4.265625 C 4.191406 -4.128906 4.273438 -3.953125 4.328125 -3.734375 C 4.347656 -3.597656 4.359375 -3.351562 4.359375 -3 L 4.359375 -1.953125 C 4.359375 -1.210938 4.375 -0.742188 4.40625 -0.546875 C 4.445312 -0.359375 4.515625 -0.175781 4.609375 0 L 3.796875 0 C 3.710938 -0.164062 3.65625 -0.359375 3.625 -0.578125 Z M 3.5625 -2.34375 C 3.28125 -2.21875 2.851562 -2.117188 2.28125 -2.046875 C 1.957031 -1.992188 1.726562 -1.9375 1.59375 -1.875 C 1.457031 -1.820312 1.351562 -1.738281 1.28125 -1.625 C 1.207031 -1.507812 1.171875 -1.382812 1.171875 -1.25 C 1.171875 -1.039062 1.25 -0.863281 1.40625 -0.71875 C 1.5625 -0.582031 1.796875 -0.515625 2.109375 -0.515625 C 2.410156 -0.515625 2.675781 -0.578125 2.90625 -0.703125 C 3.144531 -0.835938 3.320312 -1.023438 3.4375 -1.265625 C 3.519531 -1.441406 3.5625 -1.703125 3.5625 -2.046875 Z M 3.5625 -2.34375 "
           id="path53" />
      </symbol>
      <symbol
         overflow="visible"
         id="glyph0-18">
        <path
           style="stroke:none;"
           d="M 0.453125 0.390625 L 1.21875 0.5 C 1.25 0.738281 1.335938 0.910156 1.484375 1.015625 C 1.679688 1.160156 1.945312 1.234375 2.28125 1.234375 C 2.644531 1.234375 2.925781 1.160156 3.125 1.015625 C 3.332031 0.867188 3.46875 0.664062 3.53125 0.40625 C 3.570312 0.238281 3.59375 -0.0976562 3.59375 -0.609375 C 3.25 -0.203125 2.816406 0 2.296875 0 C 1.660156 0 1.164062 -0.226562 0.8125 -0.6875 C 0.46875 -1.15625 0.296875 -1.710938 0.296875 -2.359375 C 0.296875 -2.796875 0.375 -3.203125 0.53125 -3.578125 C 0.6875 -3.960938 0.914062 -4.253906 1.21875 -4.453125 C 1.53125 -4.660156 1.894531 -4.765625 2.3125 -4.765625 C 2.851562 -4.765625 3.304688 -4.539062 3.671875 -4.09375 L 3.671875 -4.65625 L 4.390625 -4.65625 L 4.390625 -0.625 C 4.390625 0.09375 4.316406 0.601562 4.171875 0.90625 C 4.023438 1.207031 3.789062 1.445312 3.46875 1.625 C 3.144531 1.800781 2.753906 1.890625 2.296875 1.890625 C 1.734375 1.890625 1.28125 1.765625 0.9375 1.515625 C 0.601562 1.265625 0.441406 0.890625 0.453125 0.390625 Z M 1.09375 -2.40625 C 1.09375 -1.800781 1.210938 -1.359375 1.453125 -1.078125 C 1.703125 -0.796875 2.007812 -0.65625 2.375 -0.65625 C 2.738281 -0.65625 3.039062 -0.789062 3.28125 -1.0625 C 3.53125 -1.34375 3.65625 -1.785156 3.65625 -2.390625 C 3.65625 -2.953125 3.53125 -3.378906 3.28125 -3.671875 C 3.03125 -3.960938 2.722656 -4.109375 2.359375 -4.109375 C 2.015625 -4.109375 1.71875 -3.960938 1.46875 -3.671875 C 1.21875 -3.390625 1.09375 -2.96875 1.09375 -2.40625 Z M 1.09375 -2.40625 "
           id="path56" />
      </symbol>
      <symbol
         overflow="visible"
         id="glyph0-19">
        <path
           style="stroke:none;"
           d="M 0.703125 0 L 0.703125 -6.4375 L 3.5625 -6.4375 C 4.132812 -6.4375 4.566406 -6.375 4.859375 -6.25 C 5.160156 -6.132812 5.398438 -5.929688 5.578125 -5.640625 C 5.753906 -5.347656 5.84375 -5.023438 5.84375 -4.671875 C 5.84375 -4.210938 5.695312 -3.828125 5.40625 -3.515625 C 5.113281 -3.203125 4.65625 -3.003906 4.03125 -2.921875 C 4.257812 -2.816406 4.429688 -2.710938 4.546875 -2.609375 C 4.796875 -2.378906 5.03125 -2.09375 5.25 -1.75 L 6.375 0 L 5.296875 0 L 4.453125 -1.34375 C 4.203125 -1.726562 3.992188 -2.019531 3.828125 -2.21875 C 3.671875 -2.425781 3.53125 -2.570312 3.40625 -2.65625 C 3.28125 -2.738281 3.148438 -2.796875 3.015625 -2.828125 C 2.921875 -2.847656 2.765625 -2.859375 2.546875 -2.859375 L 1.5625 -2.859375 L 1.5625 0 Z M 1.5625 -3.59375 L 3.390625 -3.59375 C 3.773438 -3.59375 4.078125 -3.628906 4.296875 -3.703125 C 4.515625 -3.785156 4.679688 -3.914062 4.796875 -4.09375 C 4.910156 -4.269531 4.96875 -4.460938 4.96875 -4.671875 C 4.96875 -4.972656 4.859375 -5.222656 4.640625 -5.421875 C 4.421875 -5.617188 4.070312 -5.71875 3.59375 -5.71875 L 1.5625 -5.71875 Z M 1.5625 -3.59375 "
           id="path59" />
      </symbol>
      <symbol
         overflow="visible"
         id="glyph0-20">
        <path
           style="stroke:none;"
           d="M 1.8125 0 L 0.109375 -6.4375 L 0.984375 -6.4375 L 1.96875 -2.21875 C 2.070312 -1.769531 2.160156 -1.332031 2.234375 -0.90625 C 2.398438 -1.59375 2.492188 -1.988281 2.515625 -2.09375 L 3.75 -6.4375 L 4.765625 -6.4375 L 5.6875 -3.171875 C 5.925781 -2.367188 6.09375 -1.613281 6.1875 -0.90625 C 6.269531 -1.3125 6.378906 -1.773438 6.515625 -2.296875 L 7.53125 -6.4375 L 8.375 -6.4375 L 6.609375 0 L 5.796875 0 L 4.4375 -4.90625 C 4.320312 -5.3125 4.253906 -5.5625 4.234375 -5.65625 C 4.171875 -5.363281 4.109375 -5.113281 4.046875 -4.90625 L 2.6875 0 Z M 1.8125 0 "
           id="path62" />
      </symbol>
      <symbol
         overflow="visible"
         id="glyph0-21">
        <path
           style="stroke:none;"
           d="M 0.59375 -5.515625 L 0.59375 -6.4375 L 1.390625 -6.4375 L 1.390625 -5.515625 Z M 0.59375 0 L 0.59375 -4.65625 L 1.390625 -4.65625 L 1.390625 0 Z M 0.59375 0 "
           id="path65" />
      </symbol>
      <symbol
         overflow="visible"
         id="glyph0-22">
        <path
           style="stroke:none;"
           d="M 2.3125 -0.703125 L 2.4375 -0.015625 C 2.207031 0.0351562 2.003906 0.0625 1.828125 0.0625 C 1.546875 0.0625 1.328125 0.0195312 1.171875 -0.0625 C 1.015625 -0.15625 0.898438 -0.273438 0.828125 -0.421875 C 0.765625 -0.578125 0.734375 -0.890625 0.734375 -1.359375 L 0.734375 -4.046875 L 0.15625 -4.046875 L 0.15625 -4.65625 L 0.734375 -4.65625 L 0.734375 -5.8125 L 1.515625 -6.28125 L 1.515625 -4.65625 L 2.3125 -4.65625 L 2.3125 -4.046875 L 1.515625 -4.046875 L 1.515625 -1.328125 C 1.515625 -1.097656 1.53125 -0.953125 1.5625 -0.890625 C 1.59375 -0.828125 1.640625 -0.773438 1.703125 -0.734375 C 1.765625 -0.691406 1.851562 -0.671875 1.96875 -0.671875 C 2.050781 -0.671875 2.164062 -0.679688 2.3125 -0.703125 Z M 2.3125 -0.703125 "
           id="path68" />
      </symbol>
      <symbol
         overflow="visible"
         id="glyph0-23">
        <path
           style="stroke:none;"
           d="M -0.015625 0 L 2.453125 -6.4375 L 3.375 -6.4375 L 6 0 L 5.03125 0 L 4.28125 -1.953125 L 1.59375 -1.953125 L 0.890625 0 Z M 1.84375 -2.640625 L 4.015625 -2.640625 L 3.359375 -4.421875 C 3.148438 -4.960938 2.992188 -5.40625 2.890625 -5.75 C 2.804688 -5.34375 2.691406 -4.9375 2.546875 -4.53125 Z M 1.84375 -2.640625 "
           id="path71" />
      </symbol>
      <symbol
         overflow="visible"
         id="glyph0-24">
        <path
           style="stroke:none;"
           d="M 0.6875 0 L 0.6875 -6.4375 L 2.90625 -6.4375 C 3.40625 -6.4375 3.785156 -6.40625 4.046875 -6.34375 C 4.421875 -6.257812 4.738281 -6.101562 5 -5.875 C 5.332031 -5.59375 5.582031 -5.226562 5.75 -4.78125 C 5.925781 -4.332031 6.015625 -3.820312 6.015625 -3.25 C 6.015625 -2.757812 5.957031 -2.328125 5.84375 -1.953125 C 5.726562 -1.578125 5.578125 -1.265625 5.390625 -1.015625 C 5.210938 -0.765625 5.019531 -0.566406 4.8125 -0.421875 C 4.601562 -0.285156 4.347656 -0.179688 4.046875 -0.109375 C 3.742188 -0.0351562 3.398438 0 3.015625 0 Z M 1.546875 -0.765625 L 2.921875 -0.765625 C 3.335938 -0.765625 3.664062 -0.800781 3.90625 -0.875 C 4.15625 -0.957031 4.351562 -1.066406 4.5 -1.203125 C 4.695312 -1.410156 4.847656 -1.679688 4.953125 -2.015625 C 5.066406 -2.359375 5.125 -2.773438 5.125 -3.265625 C 5.125 -3.929688 5.015625 -4.445312 4.796875 -4.8125 C 4.578125 -5.175781 4.3125 -5.421875 4 -5.546875 C 3.769531 -5.628906 3.398438 -5.671875 2.890625 -5.671875 L 1.546875 -5.671875 Z M 1.546875 -0.765625 "
           id="path74" />
      </symbol>
      <symbol
         overflow="visible"
         id="glyph0-25">
        <path
           style="stroke:none;"
           d="M 4.90625 -6.4375 L 5.765625 -6.4375 L 5.765625 -2.71875 C 5.765625 -2.070312 5.691406 -1.554688 5.546875 -1.171875 C 5.398438 -0.796875 5.132812 -0.488281 4.75 -0.25 C 4.375 -0.0078125 3.875 0.109375 3.25 0.109375 C 2.644531 0.109375 2.148438 0.00390625 1.765625 -0.203125 C 1.390625 -0.410156 1.117188 -0.707031 0.953125 -1.09375 C 0.785156 -1.488281 0.703125 -2.03125 0.703125 -2.71875 L 0.703125 -6.4375 L 1.5625 -6.4375 L 1.5625 -2.71875 C 1.5625 -2.15625 1.613281 -1.742188 1.71875 -1.484375 C 1.820312 -1.222656 2 -1.019531 2.25 -0.875 C 2.5 -0.726562 2.804688 -0.65625 3.171875 -0.65625 C 3.796875 -0.65625 4.238281 -0.796875 4.5 -1.078125 C 4.769531 -1.367188 4.90625 -1.914062 4.90625 -2.71875 Z M 4.90625 -6.4375 "
           id="path77" />
      </symbol>
      <symbol
         overflow="visible"
         id="glyph0-26">
        <path
           style="stroke:none;"
           d="M 0.6875 0 L 0.6875 -6.4375 L 1.5625 -6.4375 L 4.9375 -1.375 L 4.9375 -6.4375 L 5.75 -6.4375 L 5.75 0 L 4.875 0 L 1.5 -5.046875 L 1.5 0 Z M 0.6875 0 "
           id="path80" />
      </symbol>
      <symbol
         overflow="visible"
         id="glyph0-27">
        <path
           style="stroke:none;"
           d="M 0.4375 -3.125 C 0.4375 -4.195312 0.722656 -5.035156 1.296875 -5.640625 C 1.867188 -6.242188 2.609375 -6.546875 3.515625 -6.546875 C 4.109375 -6.546875 4.640625 -6.398438 5.109375 -6.109375 C 5.585938 -5.828125 5.953125 -5.429688 6.203125 -4.921875 C 6.453125 -4.421875 6.578125 -3.847656 6.578125 -3.203125 C 6.578125 -2.554688 6.445312 -1.972656 6.1875 -1.453125 C 5.925781 -0.941406 5.550781 -0.550781 5.0625 -0.28125 C 4.582031 -0.0195312 4.066406 0.109375 3.515625 0.109375 C 2.898438 0.109375 2.351562 -0.0351562 1.875 -0.328125 C 1.40625 -0.617188 1.046875 -1.015625 0.796875 -1.515625 C 0.554688 -2.023438 0.4375 -2.5625 0.4375 -3.125 Z M 1.3125 -3.125 C 1.3125 -2.34375 1.519531 -1.726562 1.9375 -1.28125 C 2.351562 -0.84375 2.875 -0.625 3.5 -0.625 C 4.144531 -0.625 4.671875 -0.847656 5.078125 -1.296875 C 5.492188 -1.742188 5.703125 -2.382812 5.703125 -3.21875 C 5.703125 -3.738281 5.613281 -4.191406 5.4375 -4.578125 C 5.257812 -4.972656 5 -5.273438 4.65625 -5.484375 C 4.320312 -5.703125 3.941406 -5.8125 3.515625 -5.8125 C 2.910156 -5.8125 2.390625 -5.601562 1.953125 -5.1875 C 1.523438 -4.78125 1.3125 -4.09375 1.3125 -3.125 Z M 1.3125 -3.125 "
           id="path83" />
      </symbol>
      <symbol
         overflow="visible"
         id="glyph0-28">
        <path
           style="stroke:none;"
           d="M 0.046875 0 L 2.53125 -3.359375 L 0.328125 -6.4375 L 1.34375 -6.4375 L 2.515625 -4.78125 C 2.753906 -4.4375 2.925781 -4.171875 3.03125 -3.984375 C 3.175781 -4.222656 3.347656 -4.46875 3.546875 -4.71875 L 4.828125 -6.4375 L 5.765625 -6.4375 L 3.5 -3.40625 L 5.9375 0 L 4.875 0 L 3.265625 -2.296875 C 3.171875 -2.421875 3.078125 -2.5625 2.984375 -2.71875 C 2.835938 -2.488281 2.734375 -2.328125 2.671875 -2.234375 L 1.0625 0 Z M 0.046875 0 "
           id="path86" />
      </symbol>
      <symbol
         overflow="visible"
         id="glyph0-29">
        <path
           style="stroke:none;"
           d="M 0.65625 0 L 0.65625 -6.4375 L 1.515625 -6.4375 L 1.515625 -0.765625 L 4.671875 -0.765625 L 4.671875 0 Z M 0.65625 0 "
           id="path89" />
      </symbol>
      <symbol
         overflow="visible"
         id="glyph0-30">
        <path
           style="stroke:none;"
           d="M 0.84375 0 L 0.84375 -6.4375 L 1.6875 -6.4375 L 1.6875 0 Z M 0.84375 0 "
           id="path92" />
      </symbol>
      <symbol
         overflow="visible"
         id="glyph0-31">
        <path
           style="stroke:none;"
           d="M 2.53125 0 L 0.046875 -6.4375 L 0.953125 -6.4375 L 2.625 -1.765625 C 2.757812 -1.390625 2.875 -1.035156 2.96875 -0.703125 C 3.070312 -1.054688 3.1875 -1.410156 3.3125 -1.765625 L 5.046875 -6.4375 L 5.921875 -6.4375 L 3.40625 0 Z M 2.53125 0 "
           id="path95" />
      </symbol>
      <symbol
         overflow="visible"
         id="glyph0-32">
        <path
           style="stroke:none;"
           d="M 0.375 -3.171875 C 0.375 -3.929688 0.453125 -4.539062 0.609375 -5 C 0.765625 -5.46875 0.992188 -5.828125 1.296875 -6.078125 C 1.609375 -6.328125 2 -6.453125 2.46875 -6.453125 C 2.8125 -6.453125 3.113281 -6.382812 3.375 -6.25 C 3.632812 -6.113281 3.847656 -5.910156 4.015625 -5.640625 C 4.191406 -5.378906 4.328125 -5.0625 4.421875 -4.6875 C 4.515625 -4.3125 4.5625 -3.804688 4.5625 -3.171875 C 4.5625 -2.421875 4.484375 -1.8125 4.328125 -1.34375 C 4.179688 -0.882812 3.953125 -0.523438 3.640625 -0.265625 C 3.328125 -0.015625 2.9375 0.109375 2.46875 0.109375 C 1.851562 0.109375 1.367188 -0.113281 1.015625 -0.5625 C 0.585938 -1.09375 0.375 -1.960938 0.375 -3.171875 Z M 1.1875 -3.171875 C 1.1875 -2.117188 1.304688 -1.414062 1.546875 -1.0625 C 1.796875 -0.71875 2.101562 -0.546875 2.46875 -0.546875 C 2.832031 -0.546875 3.132812 -0.71875 3.375 -1.0625 C 3.625 -1.414062 3.75 -2.117188 3.75 -3.171875 C 3.75 -4.234375 3.625 -4.9375 3.375 -5.28125 C 3.132812 -5.625 2.832031 -5.796875 2.46875 -5.796875 C 2.101562 -5.796875 1.8125 -5.644531 1.59375 -5.34375 C 1.320312 -4.945312 1.1875 -4.222656 1.1875 -3.171875 Z M 1.1875 -3.171875 "
           id="path98" />
      </symbol>
      <symbol
         overflow="visible"
         id="glyph0-33">
        <path
           style="stroke:none;"
           d="M 3.34375 0 L 2.5625 0 L 2.5625 -5.03125 C 2.363281 -4.851562 2.109375 -4.671875 1.796875 -4.484375 C 1.492188 -4.304688 1.222656 -4.171875 0.984375 -4.078125 L 0.984375 -4.84375 C 1.421875 -5.050781 1.800781 -5.300781 2.125 -5.59375 C 2.457031 -5.894531 2.695312 -6.179688 2.84375 -6.453125 L 3.34375 -6.453125 Z M 3.34375 0 "
           id="path101" />
      </symbol>
      <symbol
         overflow="visible"
         id="glyph0-34">
        <path
           style="stroke:none;"
           d="M 0.59375 0 L 0.59375 -4.65625 L 1.296875 -4.65625 L 1.296875 -4 C 1.441406 -4.226562 1.632812 -4.410156 1.875 -4.546875 C 2.125 -4.691406 2.40625 -4.765625 2.71875 -4.765625 C 3.0625 -4.765625 3.34375 -4.691406 3.5625 -4.546875 C 3.78125 -4.398438 3.9375 -4.203125 4.03125 -3.953125 C 4.394531 -4.492188 4.875 -4.765625 5.46875 -4.765625 C 5.925781 -4.765625 6.28125 -4.632812 6.53125 -4.375 C 6.78125 -4.125 6.90625 -3.734375 6.90625 -3.203125 L 6.90625 0 L 6.125 0 L 6.125 -2.9375 C 6.125 -3.25 6.097656 -3.472656 6.046875 -3.609375 C 5.992188 -3.753906 5.898438 -3.867188 5.765625 -3.953125 C 5.628906 -4.035156 5.472656 -4.078125 5.296875 -4.078125 C 4.960938 -4.078125 4.6875 -3.96875 4.46875 -3.75 C 4.257812 -3.53125 4.15625 -3.179688 4.15625 -2.703125 L 4.15625 0 L 3.359375 0 L 3.359375 -3.03125 C 3.359375 -3.375 3.289062 -3.632812 3.15625 -3.8125 C 3.03125 -3.988281 2.820312 -4.078125 2.53125 -4.078125 C 2.3125 -4.078125 2.109375 -4.019531 1.921875 -3.90625 C 1.734375 -3.789062 1.59375 -3.617188 1.5 -3.390625 C 1.414062 -3.160156 1.375 -2.835938 1.375 -2.421875 L 1.375 0 Z M 0.59375 0 "
           id="path104" />
      </symbol>
      <symbol
         overflow="visible"
         id="glyph0-35">
        <path
           style="stroke:none;"
           d="M 0 0.109375 L 1.859375 -6.546875 L 2.5 -6.546875 L 0.640625 0.109375 Z M 0 0.109375 "
           id="path107" />
      </symbol>
      <symbol
         overflow="visible"
         id="glyph0-36">
        <path
           style="stroke:none;"
           d="M 2.328125 0 L 2.328125 -5.671875 L 0.203125 -5.671875 L 0.203125 -6.4375 L 5.3125 -6.4375 L 5.3125 -5.671875 L 3.1875 -5.671875 L 3.1875 0 Z M 2.328125 0 "
           id="path110" />
      </symbol>
      <symbol
         overflow="visible"
         id="glyph0-37">
        <path
           style="stroke:none;"
           d="M 3.609375 0 L 3.609375 -0.59375 C 3.316406 -0.125 2.882812 0.109375 2.3125 0.109375 C 1.9375 0.109375 1.59375 0.00390625 1.28125 -0.203125 C 0.976562 -0.410156 0.738281 -0.695312 0.5625 -1.0625 C 0.394531 -1.425781 0.3125 -1.847656 0.3125 -2.328125 C 0.3125 -2.785156 0.382812 -3.203125 0.53125 -3.578125 C 0.6875 -3.960938 0.921875 -4.253906 1.234375 -4.453125 C 1.546875 -4.660156 1.894531 -4.765625 2.28125 -4.765625 C 2.5625 -4.765625 2.8125 -4.703125 3.03125 -4.578125 C 3.25 -4.460938 3.425781 -4.3125 3.5625 -4.125 L 3.5625 -6.4375 L 4.34375 -6.4375 L 4.34375 0 Z M 1.125 -2.328125 C 1.125 -1.734375 1.25 -1.285156 1.5 -0.984375 C 1.75 -0.691406 2.046875 -0.546875 2.390625 -0.546875 C 2.734375 -0.546875 3.023438 -0.6875 3.265625 -0.96875 C 3.503906 -1.25 3.625 -1.679688 3.625 -2.265625 C 3.625 -2.898438 3.5 -3.363281 3.25 -3.65625 C 3.007812 -3.957031 2.707031 -4.109375 2.34375 -4.109375 C 2 -4.109375 1.707031 -3.960938 1.46875 -3.671875 C 1.238281 -3.390625 1.125 -2.941406 1.125 -2.328125 Z M 1.125 -2.328125 "
           id="path113" />
      </symbol>
      <symbol
         overflow="visible"
         id="glyph0-38">
        <path
           style="stroke:none;"
           d="M 0.59375 0 L 0.59375 -4.65625 L 1.296875 -4.65625 L 1.296875 -4 C 1.640625 -4.507812 2.132812 -4.765625 2.78125 -4.765625 C 3.0625 -4.765625 3.316406 -4.710938 3.546875 -4.609375 C 3.785156 -4.515625 3.960938 -4.382812 4.078125 -4.21875 C 4.203125 -4.050781 4.285156 -3.851562 4.328125 -3.625 C 4.359375 -3.476562 4.375 -3.222656 4.375 -2.859375 L 4.375 0 L 3.59375 0 L 3.59375 -2.828125 C 3.59375 -3.148438 3.5625 -3.390625 3.5 -3.546875 C 3.4375 -3.710938 3.328125 -3.84375 3.171875 -3.9375 C 3.015625 -4.03125 2.832031 -4.078125 2.625 -4.078125 C 2.28125 -4.078125 1.984375 -3.96875 1.734375 -3.75 C 1.492188 -3.539062 1.375 -3.140625 1.375 -2.546875 L 1.375 0 Z M 0.59375 0 "
           id="path116" />
      </symbol>
      <symbol
         overflow="visible"
         id="glyph0-39">
        <path
           style="stroke:none;"
           d="M 0.59375 1.78125 L 0.59375 -4.65625 L 1.3125 -4.65625 L 1.3125 -4.046875 C 1.476562 -4.285156 1.664062 -4.460938 1.875 -4.578125 C 2.09375 -4.703125 2.351562 -4.765625 2.65625 -4.765625 C 3.0625 -4.765625 3.414062 -4.660156 3.71875 -4.453125 C 4.019531 -4.253906 4.25 -3.96875 4.40625 -3.59375 C 4.5625 -3.21875 4.640625 -2.804688 4.640625 -2.359375 C 4.640625 -1.890625 4.550781 -1.460938 4.375 -1.078125 C 4.207031 -0.691406 3.957031 -0.394531 3.625 -0.1875 C 3.300781 0.0078125 2.960938 0.109375 2.609375 0.109375 C 2.347656 0.109375 2.109375 0.0507812 1.890625 -0.0625 C 1.679688 -0.175781 1.507812 -0.316406 1.375 -0.484375 L 1.375 1.78125 Z M 1.3125 -2.296875 C 1.3125 -1.703125 1.429688 -1.257812 1.671875 -0.96875 C 1.910156 -0.6875 2.203125 -0.546875 2.546875 -0.546875 C 2.898438 -0.546875 3.203125 -0.691406 3.453125 -0.984375 C 3.703125 -1.285156 3.828125 -1.75 3.828125 -2.375 C 3.828125 -2.96875 3.703125 -3.410156 3.453125 -3.703125 C 3.210938 -3.992188 2.925781 -4.140625 2.59375 -4.140625 C 2.25 -4.140625 1.945312 -3.984375 1.6875 -3.671875 C 1.4375 -3.359375 1.3125 -2.898438 1.3125 -2.296875 Z M 1.3125 -2.296875 "
           id="path119" />
      </symbol>
      <symbol
         overflow="visible"
         id="glyph0-40">
        <path
           style="stroke:none;"
           d="M 4.515625 -0.765625 L 4.515625 0 L 0.265625 0 C 0.265625 -0.1875 0.296875 -0.367188 0.359375 -0.546875 C 0.472656 -0.835938 0.644531 -1.125 0.875 -1.40625 C 1.113281 -1.6875 1.460938 -2.007812 1.921875 -2.375 C 2.617188 -2.945312 3.085938 -3.398438 3.328125 -3.734375 C 3.578125 -4.066406 3.703125 -4.382812 3.703125 -4.6875 C 3.703125 -5 3.585938 -5.257812 3.359375 -5.46875 C 3.140625 -5.6875 2.847656 -5.796875 2.484375 -5.796875 C 2.109375 -5.796875 1.804688 -5.679688 1.578125 -5.453125 C 1.347656 -5.234375 1.234375 -4.921875 1.234375 -4.515625 L 0.421875 -4.59375 C 0.472656 -5.195312 0.679688 -5.65625 1.046875 -5.96875 C 1.410156 -6.289062 1.898438 -6.453125 2.515625 -6.453125 C 3.128906 -6.453125 3.613281 -6.28125 3.96875 -5.9375 C 4.332031 -5.601562 4.515625 -5.179688 4.515625 -4.671875 C 4.515625 -4.410156 4.460938 -4.15625 4.359375 -3.90625 C 4.253906 -3.664062 4.078125 -3.40625 3.828125 -3.125 C 3.585938 -2.851562 3.179688 -2.476562 2.609375 -2 C 2.140625 -1.601562 1.835938 -1.332031 1.703125 -1.1875 C 1.566406 -1.039062 1.457031 -0.898438 1.375 -0.765625 Z M 4.515625 -0.765625 "
           id="path122" />
      </symbol>
    </g>
    <clipPath
       id="clip1">
      <path
         d="M 0 0 L 357 0 L 357 227.523438 L 0 227.523438 Z M 0 0 "
         id="path127" />
    </clipPath>
    <clipPath
       id="clip2">
      <path
         d="M 57 188 L 108 188 L 108 226.773438 L 57 226.773438 Z M 57 188 "
         id="path130" />
    </clipPath>
  </defs>
  <g
     id="surface1">
    <g
       clip-path="url(#clip1)"
       clip-rule="nonzero"
       id="g137">
      <path
         style="fill:#ffffff;fill-opacity:1;fill-rule:nonzero;stroke:none"
         d="M 0,0 H 357 V 227.52344 H 0 Z m 0,0"
         id="path135" />
    </g>
    <path
       style="fill:#ffffff;fill-opacity:1;fill-rule:nonzero;stroke:#000000;stroke-width:1;stroke-linecap:butt;stroke-linejoin:miter;stroke-miterlimit:4;stroke-opacity:1"
       d="m 214.99867,0.997932 h 80.00106 v 40.000529 h -80.00106 z m 0,0"
       transform="matrix(0.748428,0,0,0.748428,0.374214,0.374214)"
       id="path139" />
    <g
       style="fill:#000000;fill-opacity:1"
       id="g151">
      <use
         xlink:href="#glyph0-1"
         x="177.8685"
         y="18.71069"
         id="use141"
         width="100%"
         height="100%" />
      <use
         xlink:href="#glyph0-2"
         x="183.85884"
         y="18.71069"
         id="use143"
         width="100%"
         height="100%" />
      <use
         xlink:href="#glyph0-3"
         x="190.34473"
         y="18.71069"
         id="use145"
         width="100%"
         height="100%" />
      <use
         xlink:href="#glyph0-4"
         x="196.33507"
         y="18.71069"
         id="use147"
         width="100%"
         height="100%" />
      <use
         xlink:href="#glyph0-5"
         x="199.32587"
         y="18.71069"
         id="use149"
         width="100%"
         height="100%" />
    </g>
    <path
       style="fill:none;stroke:#000000;stroke-width:1;stroke-linecap:butt;stroke-linejoin:miter;stroke-miterlimit:10;stroke-opacity:1"
       d="m 124.99748,35.998395 h 20.00027 v -7.500099"
       transform="matrix(0.748428,0,0,0.748428,0.374214,0.374214)"
       id="path153" />
    <path
       style="fill:none;stroke:#000000;stroke-width:1;stroke-linecap:butt;stroke-linejoin:miter;stroke-miterlimit:10;stroke-opacity:1"
       d="m 112.99837,35.998395 h 11.99911 M 65.00191,28.498296 H 77.001024 M 65.00191,43.498494 h 11.999114"
       transform="matrix(0.748428,0,0,0.748428,0.374214,0.374214)"
       id="path155" />
    <path
       style="fill:#ffffff;fill-opacity:1;fill-rule:nonzero;stroke:#000000;stroke-width:1;stroke-linecap:butt;stroke-linejoin:miter;stroke-miterlimit:10;stroke-opacity:1"
       d="m 77.001024,20.998196 h 18.001282 c 9.937504,0 17.996064,6.722427 17.996064,15.000199 0,8.28299 -8.05856,15.000198 -17.996064,15.000198 H 77.001024 Z m 0,0"
       transform="matrix(0.748428,0,0,0.748428,0.374214,0.374214)"
       id="path157" />
    <path
       style="fill:none;stroke:#000000;stroke-width:1;stroke-linecap:butt;stroke-linejoin:miter;stroke-miterlimit:10;stroke-opacity:1"
       d="m 204.99854,20.998196 h 20.00026 -30.00039 20.00026"
       transform="matrix(0.748428,0,0,0.748428,0.374214,0.374214)"
       id="path159" />
    <path
       style="fill:none;stroke:#000000;stroke-width:1;stroke-linecap:butt;stroke-linejoin:miter;stroke-miterlimit:10;stroke-opacity:1"
       d="m 192.99943,20.998196 h 11.99911 m -60.00079,-7.500099 h 13.79976 m -13.79976,15.000199 h 13.79976"
       transform="matrix(0.748428,0,0,0.748428,0.374214,0.374214)"
       id="path161" />
    <path
       style="fill:#ffffff;fill-opacity:1;fill-rule:nonzero;stroke:#000000;stroke-width:1;stroke-linecap:butt;stroke-linejoin:miter;stroke-miterlimit:10;stroke-opacity:1"
       d="m 169.0012,5.997998 c 10.4803,0.281841 19.83846,6.132649 23.99823,15.000198 -4.15977,8.872769 -13.51793,14.723577 -23.99823,15.000199 H 154.001 c 6.43015,-9.279872 6.43015,-20.720525 0,-30.000397 z m 0,0"
       transform="matrix(0.748428,0,0,0.748428,0.374214,0.374214)"
       id="path163" />
    <g
       style="fill:#000000;fill-opacity:1"
       id="g171">
      <use
         xlink:href="#glyph0-6"
         x="89.437096"
         y="11.226414"
         id="use165"
         width="100%"
         height="100%" />
      <use
         xlink:href="#glyph0-7"
         x="93.927666"
         y="11.226414"
         id="use167"
         width="100%"
         height="100%" />
      <use
         xlink:href="#glyph0-1"
         x="101.40902"
         y="11.226414"
         id="use169"
         width="100%"
         height="100%" />
    </g>
    <g
       style="fill:#000000;fill-opacity:1"
       id="g179">
      <use
         xlink:href="#glyph0-8"
         x="27.563187"
         y="22.452827"
         id="use173"
         width="100%"
         height="100%" />
      <use
         xlink:href="#glyph0-9"
         x="33.553532"
         y="22.452827"
         id="use175"
         width="100%"
         height="100%" />
      <use
         xlink:href="#glyph0-10"
         x="39.543873"
         y="22.452827"
         id="use177"
         width="100%"
         height="100%" />
    </g>
    <g
       style="fill:#000000;fill-opacity:1"
       id="g199">
      <use
         xlink:href="#glyph0-11"
         x="8.1040678"
         y="33.679241"
         id="use181"
         width="100%"
         height="100%" />
      <use
         xlink:href="#glyph0-12"
         x="13.590101"
         y="33.679241"
         id="use183"
         width="100%"
         height="100%" />
      <use
         xlink:href="#glyph0-4"
         x="18.584978"
         y="33.679241"
         id="use185"
         width="100%"
         height="100%" />
      <use
         xlink:href="#glyph0-13"
         x="21.575766"
         y="33.679241"
         id="use187"
         width="100%"
         height="100%" />
      <use
         xlink:href="#glyph0-14"
         x="26.570642"
         y="33.679241"
         id="use189"
         width="100%"
         height="100%" />
      <use
         xlink:href="#glyph0-15"
         x="29.065887"
         y="33.679241"
         id="use191"
         width="100%"
         height="100%" />
      <use
         xlink:href="#glyph0-16"
         x="34.551922"
         y="33.679241"
         id="use193"
         width="100%"
         height="100%" />
      <use
         xlink:href="#glyph0-17"
         x="36.547241"
         y="33.679241"
         id="use195"
         width="100%"
         height="100%" />
      <use
         xlink:href="#glyph0-18"
         x="41.542118"
         y="33.679241"
         id="use197"
         width="100%"
         height="100%" />
    </g>
    <path
       style="fill:#ffffff;fill-opacity:1;fill-rule:nonzero;stroke:#000000;stroke-width:1;stroke-linecap:butt;stroke-linejoin:miter;stroke-miterlimit:4;stroke-opacity:1"
       d="m 214.99867,60.998725 h 80.00106 v 40.000525 h -80.00106 z m 0,0"
       transform="matrix(0.748428,0,0,0.748428,0.374214,0.374214)"
       id="path201" />
    <g
       style="fill:#000000;fill-opacity:1"
       id="g211">
      <use
         xlink:href="#glyph0-19"
         x="172.20851"
         y="63.616348"
         id="use203"
         width="100%"
         height="100%" />
      <use
         xlink:href="#glyph0-12"
         x="178.6944"
         y="63.616348"
         id="use205"
         width="100%"
         height="100%" />
      <use
         xlink:href="#glyph0-18"
         x="183.68929"
         y="63.616348"
         id="use207"
         width="100%"
         height="100%" />
      <use
         xlink:href="#glyph0-20"
         x="188.68416"
         y="63.616348"
         id="use209"
         width="100%"
         height="100%" />
    </g>
    <g
       style="fill:#000000;fill-opacity:1"
       id="g221">
      <use
         xlink:href="#glyph0-4"
         x="196.99872"
         y="63.616348"
         id="use213"
         width="100%"
         height="100%" />
      <use
         xlink:href="#glyph0-21"
         x="199.9895"
         y="63.616348"
         id="use215"
         width="100%"
         height="100%" />
      <use
         xlink:href="#glyph0-22"
         x="201.98482"
         y="63.616348"
         id="use217"
         width="100%"
         height="100%" />
      <use
         xlink:href="#glyph0-12"
         x="204.48007"
         y="63.616348"
         id="use219"
         width="100%"
         height="100%" />
    </g>
    <path
       style="fill:none;stroke:#000000;stroke-width:1;stroke-linecap:butt;stroke-linejoin:miter;stroke-miterlimit:10;stroke-opacity:1"
       d="m 194.99841,80.998989 h 20.00026 -20.00026 20.00026"
       transform="matrix(0.748428,0,0,0.748428,0.374214,0.374214)"
       id="path223" />
    <path
       style="fill:none;stroke:#000000;stroke-width:1;stroke-linecap:butt;stroke-linejoin:miter;stroke-miterlimit:10;stroke-opacity:1"
       d="m 134.99761,73.49889 v 37.5005"
       transform="matrix(0.748428,0,0,0.748428,0.374214,0.374214)"
       id="path225" />
    <path
       style="fill:none;stroke:#000000;stroke-width:1;stroke-linecap:butt;stroke-linejoin:miter;stroke-miterlimit:10;stroke-opacity:1"
       d="m 182.99929,80.998989 h 11.99912 m -60.0008,-7.500099 h 13.80499 m -13.80499,15.000199 h 13.80499"
       transform="matrix(0.748428,0,0,0.748428,0.374214,0.374214)"
       id="path227" />
    <path
       style="fill:#ffffff;fill-opacity:1;fill-rule:nonzero;stroke:#000000;stroke-width:1;stroke-linecap:butt;stroke-linejoin:miter;stroke-miterlimit:10;stroke-opacity:1"
       d="m 159.00106,65.998791 c 10.48031,0.281841 19.83847,6.132649 23.99823,15.000198 -4.15976,8.872769 -13.51792,14.723577 -23.99823,15.000199 h -15.00019 c 6.43014,-9.279872 6.43014,-20.720525 0,-30.000397 z m 0,0"
       transform="matrix(0.748428,0,0,0.748428,0.374214,0.374214)"
       id="path229" />
    <g
       style="fill:#000000;fill-opacity:1"
       id="g237">
      <use
         xlink:href="#glyph0-23"
         x="61.990856"
         y="59.87421"
         id="use231"
         width="100%"
         height="100%" />
      <use
         xlink:href="#glyph0-24"
         x="67.981201"
         y="59.87421"
         id="use233"
         width="100%"
         height="100%" />
      <use
         xlink:href="#glyph0-24"
         x="74.467087"
         y="59.87421"
         id="use235"
         width="100%"
         height="100%" />
    </g>
    <g
       style="fill:#000000;fill-opacity:1"
       id="g241">
      <use
         xlink:href="#glyph0-14"
         x="80.947121"
         y="59.87421"
         id="use239"
         width="100%"
         height="100%" />
    </g>
    <g
       style="fill:#000000;fill-opacity:1"
       id="g249">
      <use
         xlink:href="#glyph0-3"
         x="62.236431"
         y="70.352196"
         id="use243"
         width="100%"
         height="100%" />
      <use
         xlink:href="#glyph0-25"
         x="68.226776"
         y="70.352196"
         id="use245"
         width="100%"
         height="100%" />
      <use
         xlink:href="#glyph0-8"
         x="74.712662"
         y="70.352196"
         id="use247"
         width="100%"
         height="100%" />
    </g>
    <g
       style="fill:#000000;fill-opacity:1"
       id="g253">
      <use
         xlink:href="#glyph0-14"
         x="80.701546"
         y="70.352196"
         id="use251"
         width="100%"
         height="100%" />
    </g>
    <g
       style="fill:#000000;fill-opacity:1"
       id="g261">
      <use
         xlink:href="#glyph0-23"
         x="61.990856"
         y="81.578606"
         id="use255"
         width="100%"
         height="100%" />
      <use
         xlink:href="#glyph0-26"
         x="67.981201"
         y="81.578606"
         id="use257"
         width="100%"
         height="100%" />
      <use
         xlink:href="#glyph0-24"
         x="74.467087"
         y="81.578606"
         id="use259"
         width="100%"
         height="100%" />
    </g>
    <g
       style="fill:#000000;fill-opacity:1"
       id="g265">
      <use
         xlink:href="#glyph0-14"
         x="80.947121"
         y="81.578606"
         id="use263"
         width="100%"
         height="100%" />
    </g>
    <g
       style="fill:#000000;fill-opacity:1"
       id="g271">
      <use
         xlink:href="#glyph0-27"
         x="64.738991"
         y="92.056595"
         id="use267"
         width="100%"
         height="100%" />
      <use
         xlink:href="#glyph0-19"
         x="71.7248"
         y="92.056595"
         id="use269"
         width="100%"
         height="100%" />
    </g>
    <g
       style="fill:#000000;fill-opacity:1"
       id="g275">
      <use
         xlink:href="#glyph0-14"
         x="78.210686"
         y="92.056595"
         id="use273"
         width="100%"
         height="100%" />
    </g>
    <g
       style="fill:#000000;fill-opacity:1"
       id="g283">
      <use
         xlink:href="#glyph0-28"
         x="61.745277"
         y="103.28301"
         id="use277"
         width="100%"
         height="100%" />
      <use
         xlink:href="#glyph0-27"
         x="67.735619"
         y="103.28301"
         id="use279"
         width="100%"
         height="100%" />
      <use
         xlink:href="#glyph0-19"
         x="74.721436"
         y="103.28301"
         id="use281"
         width="100%"
         height="100%" />
    </g>
    <g
       style="fill:#000000;fill-opacity:1"
       id="g287">
      <use
         xlink:href="#glyph0-14"
         x="81.204399"
         y="103.28301"
         id="use285"
         width="100%"
         height="100%" />
    </g>
    <g
       style="fill:#000000;fill-opacity:1"
       id="g293">
      <use
         xlink:href="#glyph0-29"
         x="65.732994"
         y="113.76099"
         id="use289"
         width="100%"
         height="100%" />
      <use
         xlink:href="#glyph0-24"
         x="70.727875"
         y="113.76099"
         id="use291"
         width="100%"
         height="100%" />
    </g>
    <g
       style="fill:#000000;fill-opacity:1"
       id="g297">
      <use
         xlink:href="#glyph0-14"
         x="77.204987"
         y="113.76099"
         id="use295"
         width="100%"
         height="100%" />
    </g>
    <g
       style="fill:#000000;fill-opacity:1"
       id="g305">
      <use
         xlink:href="#glyph0-29"
         x="64.481712"
         y="124.23898"
         id="use299"
         width="100%"
         height="100%" />
      <use
         xlink:href="#glyph0-24"
         x="69.476593"
         y="124.23898"
         id="use301"
         width="100%"
         height="100%" />
      <use
         xlink:href="#glyph0-30"
         x="75.962479"
         y="124.23898"
         id="use303"
         width="100%"
         height="100%" />
    </g>
    <g
       style="fill:#000000;fill-opacity:1"
       id="g309">
      <use
         xlink:href="#glyph0-14"
         x="78.456261"
         y="124.23898"
         id="use307"
         width="100%"
         height="100%" />
    </g>
    <g
       style="fill:#000000;fill-opacity:1"
       id="g317">
      <use
         xlink:href="#glyph0-7"
         x="61.242428"
         y="135.46539"
         id="use311"
         width="100%"
         height="100%" />
      <use
         xlink:href="#glyph0-27"
         x="68.723778"
         y="135.46539"
         id="use313"
         width="100%"
         height="100%" />
      <use
         xlink:href="#glyph0-31"
         x="75.709595"
         y="135.46539"
         id="use315"
         width="100%"
         height="100%" />
    </g>
    <path
       style="fill:none;stroke:#000000;stroke-width:1;stroke-linecap:butt;stroke-linejoin:miter;stroke-miterlimit:10;stroke-opacity:1"
       d="M 134.99761,176.00024 V 110.0025"
       transform="matrix(0.748428,0,0,0.748428,0.374214,0.374214)"
       id="path319" />
    <path
       style="fill:none;stroke:#000000;stroke-width:1;stroke-linecap:butt;stroke-linejoin:miter;stroke-miterlimit:10;stroke-opacity:1"
       d="m 110.0025,90.999122 h 24.99511"
       transform="matrix(0.748428,0,0,0.748428,0.374214,0.374214)"
       id="path321" />
    <path
       style="fill:none;stroke:#000000;stroke-width:1;stroke-linecap:butt;stroke-linejoin:miter;stroke-miterlimit:10;stroke-opacity:1"
       d="m 110.0025,105.99932 h 7.5001 c 4.99485,0 9.16505,0 12.49495,0 h 5.00006"
       transform="matrix(0.748428,0,0,0.748428,0.374214,0.374214)"
       id="path323" />
    <path
       style="fill:none;stroke:#000000;stroke-width:1;stroke-linecap:butt;stroke-linejoin:miter;stroke-miterlimit:10;stroke-opacity:1"
       d="m 110.0025,117.99844 h 24.99511"
       transform="matrix(0.748428,0,0,0.748428,0.374214,0.374214)"
       id="path325" />
    <path
       style="fill:none;stroke:#000000;stroke-width:1;stroke-linecap:butt;stroke-linejoin:miter;stroke-miterlimit:10;stroke-opacity:1"
       d="m 110.0025,75.998923 h 24.99511"
       transform="matrix(0.748428,0,0,0.748428,0.374214,0.374214)"
       id="path327" />
    <path
       style="fill:none;stroke:#000000;stroke-width:1;stroke-linecap:butt;stroke-linejoin:miter;stroke-miterlimit:10;stroke-opacity:1"
       d="m 110.0025,134.00073 h 24.99511"
       transform="matrix(0.748428,0,0,0.748428,0.374214,0.374214)"
       id="path329" />
    <path
       style="fill:none;stroke:#000000;stroke-width:1;stroke-linecap:butt;stroke-linejoin:miter;stroke-miterlimit:10;stroke-opacity:1"
       d="m 110.0025,147.99883 h 24.99511"
       transform="matrix(0.748428,0,0,0.748428,0.374214,0.374214)"
       id="path331" />
    <path
       style="fill:none;stroke:#000000;stroke-width:1;stroke-linecap:butt;stroke-linejoin:miter;stroke-miterlimit:10;stroke-opacity:1"
       d="m 110.0025,161.00005 h 24.99511"
       transform="matrix(0.748428,0,0,0.748428,0.374214,0.374214)"
       id="path333" />
    <path
       style="fill:none;stroke:#000000;stroke-width:1;stroke-linecap:butt;stroke-linejoin:miter;stroke-miterlimit:10;stroke-opacity:1"
       d="m 110.0025,176.00024 h 24.99511"
       transform="matrix(0.748428,0,0,0.748428,0.374214,0.374214)"
       id="path335" />
    <path
       style="fill:#ffffff;fill-opacity:1;fill-rule:nonzero;stroke:#000000;stroke-width:1;stroke-linecap:butt;stroke-linejoin:miter;stroke-miterlimit:4;stroke-opacity:1"
       d="m 395.00105,0.997932 h 80.00106 v 40.000529 h -80.00106 z m 0,0"
       transform="matrix(0.748428,0,0,0.748428,0.374214,0.374214)"
       id="path337" />
    <g
       style="fill:#000000;fill-opacity:1"
       id="g351">
      <use
         xlink:href="#glyph0-20"
         x="308.84332"
         y="18.71069"
         id="use339"
         width="100%"
         height="100%" />
      <use
         xlink:href="#glyph0-24"
         x="317.32016"
         y="18.71069"
         id="use341"
         width="100%"
         height="100%" />
      <use
         xlink:href="#glyph0-3"
         x="323.80603"
         y="18.71069"
         id="use343"
         width="100%"
         height="100%" />
      <use
         xlink:href="#glyph0-4"
         x="329.79639"
         y="18.71069"
         id="use345"
         width="100%"
         height="100%" />
      <use
         xlink:href="#glyph0-5"
         x="332.78717"
         y="18.71069"
         id="use347"
         width="100%"
         height="100%" />
      <use
         xlink:href="#glyph0-32"
         x="337.27774"
         y="18.71069"
         id="use349"
         width="100%"
         height="100%" />
    </g>
    <path
       style="fill:none;stroke:#000000;stroke-width:1;stroke-linecap:butt;stroke-linejoin:miter;stroke-miterlimit:10;stroke-opacity:1"
       d="m 375.00079,20.998196 h 20.00026"
       transform="matrix(0.748428,0,0,0.748428,0.374214,0.374214)"
       id="path353" />
    <path
       style="fill:none;stroke:#000000;stroke-width:1;stroke-linecap:butt;stroke-linejoin:miter;stroke-miterlimit:10;stroke-opacity:1"
       d="m 378.00187,20.998196 h 11.99912 m -60.0008,-7.500099 h 13.79977 m -13.79977,15.000199 h 13.79977"
       transform="matrix(0.748428,0,0,0.748428,0.374214,0.374214)"
       id="path355" />
    <path
       style="fill:#ffffff;fill-opacity:1;fill-rule:nonzero;stroke:#000000;stroke-width:1;stroke-linecap:butt;stroke-linejoin:miter;stroke-miterlimit:10;stroke-opacity:1"
       d="m 353.99842,5.997998 c 10.48031,0.281841 19.84369,6.132649 24.00345,15.000198 -4.15976,8.872769 -13.52314,14.723577 -24.00345,15.000199 h -15.0002 c 6.43015,-9.279872 6.43015,-20.720525 0,-30.000397 z m 0,0"
       transform="matrix(0.748428,0,0,0.748428,0.374214,0.374214)"
       id="path357" />
    <g
       style="fill:#000000;fill-opacity:1"
       id="g363">
      <use
         xlink:href="#glyph0-29"
         x="230.38707"
         y="11.226414"
         id="use359"
         width="100%"
         height="100%" />
      <use
         xlink:href="#glyph0-24"
         x="235.38194"
         y="11.226414"
         id="use361"
         width="100%"
         height="100%" />
    </g>
    <g
       style="fill:#000000;fill-opacity:1"
       id="g371">
      <use
         xlink:href="#glyph0-29"
         x="229.13579"
         y="26.194965"
         id="use365"
         width="100%"
         height="100%" />
      <use
         xlink:href="#glyph0-24"
         x="234.13066"
         y="26.194965"
         id="use367"
         width="100%"
         height="100%" />
      <use
         xlink:href="#glyph0-30"
         x="240.61655"
         y="26.194965"
         id="use369"
         width="100%"
         height="100%" />
    </g>
    <path
       style="fill:#ffffff;fill-opacity:1;fill-rule:nonzero;stroke:#000000;stroke-width:1;stroke-linecap:butt;stroke-linejoin:miter;stroke-miterlimit:4;stroke-opacity:1"
       d="m 395.00105,60.998725 h 80.00106 v 40.000525 h -80.00106 z m 0,0"
       transform="matrix(0.748428,0,0,0.748428,0.374214,0.374214)"
       id="path373" />
    <g
       style="fill:#000000;fill-opacity:1"
       id="g387">
      <use
         xlink:href="#glyph0-20"
         x="308.84332"
         y="63.616348"
         id="use375"
         width="100%"
         height="100%" />
      <use
         xlink:href="#glyph0-24"
         x="317.32016"
         y="63.616348"
         id="use377"
         width="100%"
         height="100%" />
      <use
         xlink:href="#glyph0-3"
         x="323.80603"
         y="63.616348"
         id="use379"
         width="100%"
         height="100%" />
      <use
         xlink:href="#glyph0-4"
         x="329.79639"
         y="63.616348"
         id="use381"
         width="100%"
         height="100%" />
      <use
         xlink:href="#glyph0-5"
         x="332.78717"
         y="63.616348"
         id="use383"
         width="100%"
         height="100%" />
      <use
         xlink:href="#glyph0-33"
         x="337.27774"
         y="63.616348"
         id="use385"
         width="100%"
         height="100%" />
    </g>
    <path
       style="fill:none;stroke:#000000;stroke-width:1;stroke-linecap:butt;stroke-linejoin:miter;stroke-miterlimit:10;stroke-opacity:1"
       d="m 375.00079,80.998989 h 20.00026"
       transform="matrix(0.748428,0,0,0.748428,0.374214,0.374214)"
       id="path389" />
    <path
       style="fill:none;stroke:#000000;stroke-width:1;stroke-linecap:butt;stroke-linejoin:miter;stroke-miterlimit:10;stroke-opacity:1"
       d="m 378.00187,80.998989 h 11.99912 m -60.0008,-7.500099 h 13.79977 m -13.79977,15.000199 h 13.79977"
       transform="matrix(0.748428,0,0,0.748428,0.374214,0.374214)"
       id="path391" />
    <path
       style="fill:#ffffff;fill-opacity:1;fill-rule:nonzero;stroke:#000000;stroke-width:1;stroke-linecap:butt;stroke-linejoin:miter;stroke-miterlimit:10;stroke-opacity:1"
       d="m 353.99842,65.998791 c 10.48031,0.281841 19.84369,6.132649 24.00345,15.000198 -4.15976,8.872769 -13.52314,14.723577 -24.00345,15.000199 h -15.0002 c 6.43015,-9.279872 6.43015,-20.720525 0,-30.000397 z m 0,0"
       transform="matrix(0.748428,0,0,0.748428,0.374214,0.374214)"
       id="path393" />
    <g
       style="fill:#000000;fill-opacity:1"
       id="g401">
      <use
         xlink:href="#glyph0-29"
         x="229.13579"
         y="56.132072"
         id="use395"
         width="100%"
         height="100%" />
      <use
         xlink:href="#glyph0-24"
         x="234.13066"
         y="56.132072"
         id="use397"
         width="100%"
         height="100%" />
      <use
         xlink:href="#glyph0-30"
         x="240.61655"
         y="56.132072"
         id="use399"
         width="100%"
         height="100%" />
    </g>
    <g
       style="fill:#000000;fill-opacity:1"
       id="g409">
      <use
         xlink:href="#glyph0-7"
         x="225.8965"
         y="71.100624"
         id="use403"
         width="100%"
         height="100%" />
      <use
         xlink:href="#glyph0-27"
         x="233.37785"
         y="71.100624"
         id="use405"
         width="100%"
         height="100%" />
      <use
         xlink:href="#glyph0-31"
         x="240.36366"
         y="71.100624"
         id="use407"
         width="100%"
         height="100%" />
    </g>
    <path
       style="fill:#ffffff;fill-opacity:1;fill-rule:nonzero;stroke:#000000;stroke-width:1;stroke-linecap:butt;stroke-linejoin:miter;stroke-miterlimit:4;stroke-opacity:1"
       d="m 395.00105,120.99952 h 80.00106 v 40.00053 h -80.00106 z m 0,0"
       transform="matrix(0.748428,0,0,0.748428,0.374214,0.374214)"
       id="path411" />
    <g
       style="fill:#000000;fill-opacity:1"
       id="g421">
      <use
         xlink:href="#glyph0-7"
         x="303.94348"
         y="103.28301"
         id="use413"
         width="100%"
         height="100%" />
      <use
         xlink:href="#glyph0-12"
         x="311.42484"
         y="103.28301"
         id="use415"
         width="100%"
         height="100%" />
      <use
         xlink:href="#glyph0-34"
         x="316.41971"
         y="103.28301"
         id="use417"
         width="100%"
         height="100%" />
      <use
         xlink:href="#glyph0-20"
         x="323.90106"
         y="103.28301"
         id="use419"
         width="100%"
         height="100%" />
    </g>
    <g
       style="fill:#000000;fill-opacity:1"
       id="g433">
      <use
         xlink:href="#glyph0-4"
         x="332.21561"
         y="103.28301"
         id="use423"
         width="100%"
         height="100%" />
      <use
         xlink:href="#glyph0-21"
         x="335.20639"
         y="103.28301"
         id="use425"
         width="100%"
         height="100%" />
      <use
         xlink:href="#glyph0-22"
         x="337.20172"
         y="103.28301"
         id="use427"
         width="100%"
         height="100%" />
      <use
         xlink:href="#glyph0-12"
         x="339.69696"
         y="103.28301"
         id="use429"
         width="100%"
         height="100%" />
      <use
         xlink:href="#glyph0-35"
         x="344.69183"
         y="103.28301"
         id="use431"
         width="100%"
         height="100%" />
    </g>
    <g
       style="fill:#000000;fill-opacity:1"
       id="g437">
      <use
         xlink:href="#glyph0-14"
         x="347.17685"
         y="103.28301"
         id="use435"
         width="100%"
         height="100%" />
    </g>
    <g
       style="fill:#000000;fill-opacity:1"
       id="g451">
      <use
         xlink:href="#glyph0-19"
         x="309.84903"
         y="114.50942"
         id="use439"
         width="100%"
         height="100%" />
      <use
         xlink:href="#glyph0-19"
         x="316.3349"
         y="114.50942"
         id="use441"
         width="100%"
         height="100%" />
      <use
         xlink:href="#glyph0-32"
         x="322.8208"
         y="114.50942"
         id="use443"
         width="100%"
         height="100%" />
      <use
         xlink:href="#glyph0-3"
         x="327.81567"
         y="114.50942"
         id="use445"
         width="100%"
         height="100%" />
      <use
         xlink:href="#glyph0-4"
         x="333.80603"
         y="114.50942"
         id="use447"
         width="100%"
         height="100%" />
      <use
         xlink:href="#glyph0-5"
         x="336.79681"
         y="114.50942"
         id="use449"
         width="100%"
         height="100%" />
    </g>
    <path
       style="fill:none;stroke:#000000;stroke-width:1;stroke-linecap:butt;stroke-linejoin:miter;stroke-miterlimit:10;stroke-opacity:1"
       d="m 375.00079,140.99978 h 20.00026"
       transform="matrix(0.748428,0,0,0.748428,0.374214,0.374214)"
       id="path453" />
    <path
       style="fill:none;stroke:#000000;stroke-width:1;stroke-linecap:butt;stroke-linejoin:miter;stroke-miterlimit:10;stroke-opacity:1"
       d="m 378.00187,140.99978 h 11.99912 m -60.0008,-7.5001 h 13.79977 m -13.79977,15.0002 h 13.79977"
       transform="matrix(0.748428,0,0,0.748428,0.374214,0.374214)"
       id="path455" />
    <path
       style="fill:#ffffff;fill-opacity:1;fill-rule:nonzero;stroke:#000000;stroke-width:1;stroke-linecap:butt;stroke-linejoin:miter;stroke-miterlimit:10;stroke-opacity:1"
       d="m 353.99842,125.99958 c 10.48031,0.28185 19.84369,6.13265 24.00345,15.0002 -4.15976,8.87277 -13.52314,14.71836 -24.00345,15.0002 h -15.0002 c 6.43015,-9.27987 6.43015,-20.72052 0,-30.0004 z m 0,0"
       transform="matrix(0.748428,0,0,0.748428,0.374214,0.374214)"
       id="path457" />
    <g
       style="fill:#000000;fill-opacity:1"
       id="g463">
      <use
         xlink:href="#glyph0-3"
         x="234.12921"
         y="101.03773"
         id="use459"
         width="100%"
         height="100%" />
      <use
         xlink:href="#glyph0-36"
         x="240.11955"
         y="101.03773"
         id="use461"
         width="100%"
         height="100%" />
    </g>
    <g
       style="fill:#000000;fill-opacity:1"
       id="g471">
      <use
         xlink:href="#glyph0-3"
         x="232.88963"
         y="116.00628"
         id="use465"
         width="100%"
         height="100%" />
      <use
         xlink:href="#glyph0-36"
         x="238.87997"
         y="116.00628"
         id="use467"
         width="100%"
         height="100%" />
      <use
         xlink:href="#glyph0-30"
         x="244.366"
         y="116.00628"
         id="use469"
         width="100%"
         height="100%" />
    </g>
    <path
       style="fill:#ffffff;fill-opacity:1;fill-rule:nonzero;stroke:#000000;stroke-width:1;stroke-linecap:butt;stroke-linejoin:miter;stroke-miterlimit:4;stroke-opacity:1"
       d="m 214.99867,120.99952 h 80.00106 v 40.00053 h -80.00106 z m 0,0"
       transform="matrix(0.748428,0,0,0.748428,0.374214,0.374214)"
       id="path473" />
    <g
       style="fill:#000000;fill-opacity:1"
       id="g487">
      <use
         xlink:href="#glyph0-37"
         x="178.11407"
         y="108.522"
         id="use475"
         width="100%"
         height="100%" />
      <use
         xlink:href="#glyph0-21"
         x="183.10896"
         y="108.522"
         id="use477"
         width="100%"
         height="100%" />
      <use
         xlink:href="#glyph0-38"
         x="185.10428"
         y="108.522"
         id="use479"
         width="100%"
         height="100%" />
      <use
         xlink:href="#glyph0-3"
         x="190.09915"
         y="108.522"
         id="use481"
         width="100%"
         height="100%" />
      <use
         xlink:href="#glyph0-4"
         x="196.08949"
         y="108.522"
         id="use483"
         width="100%"
         height="100%" />
      <use
         xlink:href="#glyph0-5"
         x="199.08029"
         y="108.522"
         id="use485"
         width="100%"
         height="100%" />
    </g>
    <path
       style="fill:none;stroke:#000000;stroke-width:1;stroke-linecap:butt;stroke-linejoin:miter;stroke-miterlimit:10;stroke-opacity:1"
       d="m 184.99828,140.99978 h 20.00026 -10.00013 20.00026"
       transform="matrix(0.748428,0,0,0.748428,0.374214,0.374214)"
       id="path489" />
    <g
       style="fill:#000000;fill-opacity:1"
       id="g497">
      <use
         xlink:href="#glyph0-3"
         x="120.62548"
         y="108.522"
         id="use491"
         width="100%"
         height="100%" />
      <use
         xlink:href="#glyph0-36"
         x="126.61582"
         y="108.522"
         id="use493"
         width="100%"
         height="100%" />
      <use
         xlink:href="#glyph0-30"
         x="132.10185"
         y="108.522"
         id="use495"
         width="100%"
         height="100%" />
    </g>
    <path
       style="fill:#ffffff;fill-opacity:1;fill-rule:nonzero;stroke:#000000;stroke-width:1;stroke-linecap:butt;stroke-linejoin:miter;stroke-miterlimit:4;stroke-opacity:1"
       d="m 214.99867,181.00031 h 80.00106 v 40.00053 h -80.00106 z m 0,0"
       transform="matrix(0.748428,0,0,0.748428,0.374214,0.374214)"
       id="path499" />
    <g
       style="fill:#000000;fill-opacity:1"
       id="g513">
      <use
         xlink:href="#glyph0-37"
         x="179.11978"
         y="153.42766"
         id="use501"
         width="100%"
         height="100%" />
      <use
         xlink:href="#glyph0-21"
         x="184.11465"
         y="153.42766"
         id="use503"
         width="100%"
         height="100%" />
      <use
         xlink:href="#glyph0-4"
         x="186.10997"
         y="153.42766"
         id="use505"
         width="100%"
         height="100%" />
      <use
         xlink:href="#glyph0-3"
         x="189.10077"
         y="153.42766"
         id="use507"
         width="100%"
         height="100%" />
      <use
         xlink:href="#glyph0-4"
         x="195.09111"
         y="153.42766"
         id="use509"
         width="100%"
         height="100%" />
      <use
         xlink:href="#glyph0-5"
         x="198.08189"
         y="153.42766"
         id="use511"
         width="100%"
         height="100%" />
    </g>
    <path
       style="fill:none;stroke:#000000;stroke-width:1;stroke-linecap:butt;stroke-linejoin:miter;stroke-miterlimit:10;stroke-opacity:1"
       d="m 184.99828,201.00057 h 20.00026 -10.00013 20.00026"
       transform="matrix(0.748428,0,0,0.748428,0.374214,0.374214)"
       id="path515" />
    <g
       style="fill:#000000;fill-opacity:1"
       id="g523">
      <use
         xlink:href="#glyph0-3"
         x="120.62548"
         y="153.42766"
         id="use517"
         width="100%"
         height="100%" />
      <use
         xlink:href="#glyph0-36"
         x="126.61582"
         y="153.42766"
         id="use519"
         width="100%"
         height="100%" />
      <use
         xlink:href="#glyph0-30"
         x="132.10185"
         y="153.42766"
         id="use521"
         width="100%"
         height="100%" />
    </g>
    <path
       style="fill:#ffffff;fill-opacity:1;fill-rule:nonzero;stroke:#000000;stroke-width:1;stroke-linecap:butt;stroke-linejoin:miter;stroke-miterlimit:4;stroke-opacity:1"
       d="m 395.00105,181.00031 h 80.00106 v 40.00053 h -80.00106 z m 0,0"
       transform="matrix(0.748428,0,0,0.748428,0.374214,0.374214)"
       id="path525" />
    <g
       style="fill:#000000;fill-opacity:1"
       id="g539">
      <use
         xlink:href="#glyph0-23"
         x="308.34048"
         y="153.42766"
         id="use527"
         width="100%"
         height="100%" />
      <use
         xlink:href="#glyph0-29"
         x="314.33084"
         y="153.42766"
         id="use529"
         width="100%"
         height="100%" />
      <use
         xlink:href="#glyph0-25"
         x="319.32571"
         y="153.42766"
         id="use531"
         width="100%"
         height="100%" />
      <use
         xlink:href="#glyph0-27"
         x="325.81158"
         y="153.42766"
         id="use533"
         width="100%"
         height="100%" />
      <use
         xlink:href="#glyph0-39"
         x="332.79739"
         y="153.42766"
         id="use535"
         width="100%"
         height="100%" />
      <use
         xlink:href="#glyph0-40"
         x="337.79227"
         y="153.42766"
         id="use537"
         width="100%"
         height="100%" />
    </g>
    <path
       style="fill:none;stroke:#000000;stroke-width:1;stroke-linecap:butt;stroke-linejoin:miter;stroke-miterlimit:10;stroke-opacity:1"
       d="m 375.00079,201.00057 h 20.00026"
       transform="matrix(0.748428,0,0,0.748428,0.374214,0.374214)"
       id="path541" />
    <path
       style="fill:none;stroke:#000000;stroke-width:1;stroke-linecap:butt;stroke-linejoin:miter;stroke-miterlimit:10;stroke-opacity:1"
       d="m 378.00187,201.00057 h 11.99912 m -60.0008,-7.50009 h 13.79977 m -13.79977,15.00019 h 13.79977"
       transform="matrix(0.748428,0,0,0.748428,0.374214,0.374214)"
       id="path543" />
    <path
       style="fill:#ffffff;fill-opacity:1;fill-rule:nonzero;stroke:#000000;stroke-width:1;stroke-linecap:butt;stroke-linejoin:miter;stroke-miterlimit:10;stroke-opacity:1"
       d="m 353.99842,186.00038 c 10.48031,0.28184 19.84369,6.12743 24.00345,15.00019 -4.15976,8.86755 -13.52314,14.71836 -24.00345,15.0002 h -15.0002 c 6.43015,-9.27987 6.43015,-20.72052 0,-30.00039 z m 0,0"
       transform="matrix(0.748428,0,0,0.748428,0.374214,0.374214)"
       id="path545" />
    <g
       style="fill:#000000;fill-opacity:1"
       id="g553">
      <use
         xlink:href="#glyph0-3"
         x="226.8905"
         y="145.94339"
         id="use547"
         width="100%"
         height="100%" />
      <use
         xlink:href="#glyph0-25"
         x="232.88086"
         y="145.94339"
         id="use549"
         width="100%"
         height="100%" />
      <use
         xlink:href="#glyph0-8"
         x="239.36673"
         y="145.94339"
         id="use551"
         width="100%"
         height="100%" />
    </g>
    <g
       style="fill:#000000;fill-opacity:1"
       id="g561">
      <use
         xlink:href="#glyph0-2"
         x="226.15378"
         y="160.91194"
         id="use555"
         width="100%"
         height="100%" />
      <use
         xlink:href="#glyph0-7"
         x="232.63966"
         y="160.91194"
         id="use557"
         width="100%"
         height="100%" />
      <use
         xlink:href="#glyph0-1"
         x="240.12102"
         y="160.91194"
         id="use559"
         width="100%"
         height="100%" />
    </g>
    <path
       style="fill:#ffffff;fill-opacity:1;fill-rule:nonzero;stroke:#000000;stroke-width:1;stroke-linecap:butt;stroke-linejoin:miter;stroke-miterlimit:4;stroke-opacity:1"
       d="m 395.00105,231.00097 h 80.00106 v 40.00053 h -80.00106 z m 0,0"
       transform="matrix(0.748428,0,0,0.748428,0.374214,0.374214)"
       id="path563" />
    <g
       style="fill:#000000;fill-opacity:1"
       id="g577">
      <use
         xlink:href="#glyph0-23"
         x="308.34048"
         y="190.84904"
         id="use565"
         width="100%"
         height="100%" />
      <use
         xlink:href="#glyph0-29"
         x="314.33084"
         y="190.84904"
         id="use567"
         width="100%"
         height="100%" />
      <use
         xlink:href="#glyph0-25"
         x="319.32571"
         y="190.84904"
         id="use569"
         width="100%"
         height="100%" />
      <use
         xlink:href="#glyph0-27"
         x="325.81158"
         y="190.84904"
         id="use571"
         width="100%"
         height="100%" />
      <use
         xlink:href="#glyph0-39"
         x="332.79739"
         y="190.84904"
         id="use573"
         width="100%"
         height="100%" />
      <use
         xlink:href="#glyph0-33"
         x="337.79227"
         y="190.84904"
         id="use575"
         width="100%"
         height="100%" />
    </g>
    <path
       style="fill:none;stroke:#000000;stroke-width:1;stroke-linecap:butt;stroke-linejoin:miter;stroke-miterlimit:10;stroke-opacity:1"
       d="m 375.00079,251.00124 h 20.00026"
       transform="matrix(0.748428,0,0,0.748428,0.374214,0.374214)"
       id="path579" />
    <path
       style="fill:none;stroke:#000000;stroke-width:1;stroke-linecap:butt;stroke-linejoin:miter;stroke-miterlimit:10;stroke-opacity:1"
       d="m 378.00187,251.00124 h 11.99912 m -60.0008,-7.5001 h 13.79977 m -13.79977,15.00019 h 13.79977"
       transform="matrix(0.748428,0,0,0.748428,0.374214,0.374214)"
       id="path581" />
    <path
       style="fill:#ffffff;fill-opacity:1;fill-rule:nonzero;stroke:#000000;stroke-width:1;stroke-linecap:butt;stroke-linejoin:miter;stroke-miterlimit:10;stroke-opacity:1"
       d="m 353.99842,236.00104 c 10.48031,0.27662 19.84369,6.12743 24.00345,15.0002 -4.15976,8.86754 -13.52314,14.71835 -24.00345,15.00019 h -15.0002 c 6.43015,-9.27987 6.43015,-20.72052 0,-30.00039 z m 0,0"
       transform="matrix(0.748428,0,0,0.748428,0.374214,0.374214)"
       id="path583" />
    <g
       style="fill:#000000;fill-opacity:1"
       id="g591">
      <use
         xlink:href="#glyph0-28"
         x="226.39935"
         y="183.36476"
         id="use585"
         width="100%"
         height="100%" />
      <use
         xlink:href="#glyph0-27"
         x="232.38969"
         y="183.36476"
         id="use587"
         width="100%"
         height="100%" />
      <use
         xlink:href="#glyph0-19"
         x="239.3755"
         y="183.36476"
         id="use589"
         width="100%"
         height="100%" />
    </g>
    <g
       style="fill:#000000;fill-opacity:1"
       id="g599">
      <use
         xlink:href="#glyph0-23"
         x="226.64493"
         y="198.33331"
         id="use593"
         width="100%"
         height="100%" />
      <use
         xlink:href="#glyph0-24"
         x="232.63528"
         y="198.33331"
         id="use595"
         width="100%"
         height="100%" />
      <use
         xlink:href="#glyph0-24"
         x="239.12117"
         y="198.33331"
         id="use597"
         width="100%"
         height="100%" />
    </g>
    <path
       style="fill:#ffffff;fill-opacity:1;fill-rule:nonzero;stroke:#000000;stroke-width:1;stroke-linecap:butt;stroke-linejoin:miter;stroke-miterlimit:4;stroke-opacity:1"
       d="m 214.99867,231.00097 h 80.00106 v 40.00053 h -80.00106 z m 0,0"
       transform="matrix(0.748428,0,0,0.748428,0.374214,0.374214)"
       id="path601" />
    <g
       style="fill:#000000;fill-opacity:1"
       id="g615">
      <use
         xlink:href="#glyph0-23"
         x="173.62352"
         y="190.84904"
         id="use603"
         width="100%"
         height="100%" />
      <use
         xlink:href="#glyph0-29"
         x="179.61386"
         y="190.84904"
         id="use605"
         width="100%"
         height="100%" />
      <use
         xlink:href="#glyph0-25"
         x="184.60873"
         y="190.84904"
         id="use607"
         width="100%"
         height="100%" />
      <use
         xlink:href="#glyph0-27"
         x="191.09462"
         y="190.84904"
         id="use609"
         width="100%"
         height="100%" />
      <use
         xlink:href="#glyph0-39"
         x="198.08043"
         y="190.84904"
         id="use611"
         width="100%"
         height="100%" />
      <use
         xlink:href="#glyph0-32"
         x="203.07532"
         y="190.84904"
         id="use613"
         width="100%"
         height="100%" />
    </g>
    <path
       style="fill:none;stroke:#000000;stroke-width:1;stroke-linecap:butt;stroke-linejoin:miter;stroke-miterlimit:10;stroke-opacity:1"
       d="m 194.99841,251.00124 h 20.00026"
       transform="matrix(0.748428,0,0,0.748428,0.374214,0.374214)"
       id="path617" />
    <path
       style="fill:none;stroke:#000000;stroke-width:1;stroke-linecap:butt;stroke-linejoin:miter;stroke-miterlimit:10;stroke-opacity:1"
       d="m 197.99949,251.00124 h 11.99912 m -60.0008,-7.5001 h 13.79977 m -13.79977,15.00019 h 13.79977"
       transform="matrix(0.748428,0,0,0.748428,0.374214,0.374214)"
       id="path619" />
    <path
       style="fill:#ffffff;fill-opacity:1;fill-rule:nonzero;stroke:#000000;stroke-width:1;stroke-linecap:butt;stroke-linejoin:miter;stroke-miterlimit:10;stroke-opacity:1"
       d="m 174.00126,236.00104 c 10.48031,0.27662 19.83847,6.12743 23.99823,15.0002 -4.15976,8.86754 -13.51792,14.71835 -23.99823,15.00019 h -15.0002 c 6.43015,-9.27987 6.43015,-20.72052 0,-30.00039 z m 0,0"
       transform="matrix(0.748428,0,0,0.748428,0.374214,0.374214)"
       id="path621" />
    <g
       style="fill:#000000;fill-opacity:1"
       id="g629">
      <use
         xlink:href="#glyph0-3"
         x="36.789894"
         y="172.13835"
         id="use623"
         width="100%"
         height="100%" />
      <use
         xlink:href="#glyph0-25"
         x="42.780239"
         y="172.13835"
         id="use625"
         width="100%"
         height="100%" />
      <use
         xlink:href="#glyph0-8"
         x="49.266125"
         y="172.13835"
         id="use627"
         width="100%"
         height="100%" />
    </g>
    <g
       style="fill:#000000;fill-opacity:1"
       id="g637">
      <use
         xlink:href="#glyph0-2"
         x="36.053162"
         y="187.1069"
         id="use631"
         width="100%"
         height="100%" />
      <use
         xlink:href="#glyph0-7"
         x="42.539047"
         y="187.1069"
         id="use633"
         width="100%"
         height="100%" />
      <use
         xlink:href="#glyph0-1"
         x="50.020397"
         y="187.1069"
         id="use635"
         width="100%"
         height="100%" />
    </g>
    <path
       style="fill:none;stroke:#000000;stroke-width:1;stroke-linecap:butt;stroke-linejoin:miter;stroke-miterlimit:10;stroke-opacity:1"
       d="m 129.00067,236.00104 h 11.99911 m -60.000791,-7.5001 h 13.799765 m -13.799765,15.0002 h 13.799765"
       transform="matrix(0.748428,0,0,0.748428,0.374214,0.374214)"
       id="path639" />
    <path
       style="fill:#ffffff;fill-opacity:1;fill-rule:nonzero;stroke:#000000;stroke-width:1;stroke-linecap:butt;stroke-linejoin:miter;stroke-miterlimit:10;stroke-opacity:1"
       d="m 105.00244,221.00084 c 10.47508,0.27662 19.83847,6.12743 23.99823,15.0002 -4.15976,8.86755 -13.52315,14.71835 -23.99823,15.0002 h -15.0002 c 6.430148,-9.27988 6.430148,-20.72053 0,-30.0004 z m 0,0"
       transform="matrix(0.748428,0,0,0.748428,0.374214,0.374214)"
       id="path641" />
    <path
       style="fill:none;stroke:#000000;stroke-width:1;stroke-linecap:butt;stroke-linejoin:miter;stroke-miterlimit:10;stroke-opacity:1"
       d="m 129.00067,281.00163 h 11.99911 m -60.000791,-7.5001 h 13.799765 m -13.799765,15.0002 h 13.799765"
       transform="matrix(0.748428,0,0,0.748428,0.374214,0.374214)"
       id="path643" />
    <path
       style="fill:#ffffff;fill-opacity:1;fill-rule:nonzero;stroke:none"
       d="m 78.960938,199.45703 c 7.839843,0.20703 14.847656,4.58594 17.960937,11.22656 -3.113281,6.63672 -10.121094,11.01563 -17.960937,11.22657 H 67.734375 c 4.8125,-6.94532 4.8125,-15.50782 0,-22.45313 z m 0,0"
       id="path645" />
    <g
       clip-path="url(#clip2)"
       clip-rule="nonzero"
       id="g649">
      <path
         style="fill:none;stroke:#000000;stroke-width:1;stroke-linecap:butt;stroke-linejoin:miter;stroke-miterlimit:10;stroke-opacity:1"
         d="m 105.00244,266.00143 c 10.47508,0.27663 19.83847,6.12743 23.99823,15.0002 -4.15976,8.86755 -13.52315,14.71836 -23.99823,15.0002 h -15.0002 c 6.430148,-9.27987 6.430148,-20.72052 0,-30.0004 z m 0,0"
         transform="matrix(0.748428,0,0,0.748428,0.374214,0.374214)"
         id="path647" />
    </g>
    <path
       style="fill:none;stroke:#000000;stroke-width:1;stroke-linecap:butt;stroke-linejoin:miter;stroke-miterlimit:10;stroke-opacity:1"
       d="m 140.99978,281.00163 h 8.99803 v -22.5003"
       transform="matrix(0.748428,0,0,0.748428,0.374214,0.374214)"
       id="path651" />
    <path
       style="fill:none;stroke:#000000;stroke-width:1;stroke-linecap:butt;stroke-linejoin:miter;stroke-miterlimit:10;stroke-opacity:1"
       d="m 149.99781,243.50114 v -7.5001 h -8.99803"
       transform="matrix(0.748428,0,0,0.748428,0.374214,0.374214)"
       id="path653" />
    <g
       style="fill:#000000;fill-opacity:1"
       id="g661">
      <use
         xlink:href="#glyph0-23"
         x="36.544315"
         y="205.8176"
         id="use655"
         width="100%"
         height="100%" />
      <use
         xlink:href="#glyph0-24"
         x="42.53466"
         y="205.8176"
         id="use657"
         width="100%"
         height="100%" />
      <use
         xlink:href="#glyph0-24"
         x="49.020546"
         y="205.8176"
         id="use659"
         width="100%"
         height="100%" />
    </g>
    <g
       style="fill:#000000;fill-opacity:1"
       id="g667">
      <use
         xlink:href="#glyph0-27"
         x="39.29245"
         y="220.78615"
         id="use663"
         width="100%"
         height="100%" />
      <use
         xlink:href="#glyph0-19"
         x="46.278259"
         y="220.78615"
         id="use665"
         width="100%"
         height="100%" />
    </g>
  </g>
</svg>
